<?xml version="1.0" encoding="UTF-8" standalone="no"?>
<!DOCTYPE svg PUBLIC "-//W3C//DTD SVG 20010904//EN"
"http://www.w3.org/TR/2001/REC-SVG-20010904/DTD/svg10.dtd">
<!-- Created with Sodipodi ("http://www.sodipodi.com/") -->
<svg
   xml:space="preserve"
   width="200mm"
   height="127.4mm"
   style="shape-rendering:geometricPrecision; text-rendering:geometricPrecision; image-rendering:optimizeQuality; fill-rule:evenodd; clip-rule:evenodd"
   viewBox="0 0 200 127.4"
   sodipodi:version="0.33beta"
   sodipodi:docname="C:\Documents and Settings\Sergio\Desktop\Bandeira_JoaoPessoa_Paraiba_Brasil.svg"
   xmlns="http://www.w3.org/2000/svg"
   xmlns:sodipodi="http://sodipodi.sourceforge.net/DTD/sodipodi-0.dtd"
   xmlns:xml="http://www.w3.org/XML/1998/namespace"
   xmlns:xlink="http://www.w3.org/1999/xlink"
   id="svg559">
  <sodipodi:namedview
     id="namedview631" />
  <defs
     id="defs560">
    <style
       type="text/css"
       id="style561">.str0 {stroke:#1F1A17;stroke-width:0.0762}
    .str1 {stroke:#DEDEDD;stroke-width:0.0762}
    .fil4 {fill:none}
    .fil0 {fill:#1F1A17}
    .fil3 {fill:#DA251D}
    .fil2 {fill:white}
    .fil1 {fill:#DEDEDD}</style>
  </defs>
  <g
     id="Camada_x0020_1">
    <metadata
       id="CorelCorpID_0Corel-Layer" />
    <sodipodi:namedview
       id="base" />
    <g
       id="_140638104">
      <rect
         id="_140754624"
         class="fil0"
         width="200"
         height="127.4" />
      <g
         id="g567">
        <g
           id="g568">
          <polygon
             id="_24629824"
             class="fil1"
             points="103.322,124.855 103.846,124.825 104.365,124.791 104.881,124.752 105.393,124.708 105.902,124.659 106.407,124.605 106.909,124.546 107.408,124.483 107.903,124.414 108.396,124.34 108.886,124.261 109.373,124.177 109.857,124.088 110.338,123.994 110.817,123.894 111.294,123.789 111.768,123.679 112.24,123.563 112.709,123.442 113.177,123.316 113.643,123.184 114.106,123.046 114.569,122.903 115.029,122.755 115.488,122.601 116.469,122.258 117.469,117.658 117.634,116.833 118.917,111.445 116.495,110.67 120.311,90.6807 119.28,90.3191 119.06,90.2431 118.838,90.1679 118.615,90.0935 118.392,90.0201 118.167,89.9474 117.94,89.8757 117.713,89.8047 117.485,89.7351 117.255,89.6659 117.024,89.5978 116.793,89.5303 116.56,89.4641 116.326,89.3986 116.091,89.3341 115.854,89.2704 115.617,89.2077 115.379,89.1458 115.14,89.085 114.899,89.0251 114.658,88.966 114.416,88.908 114.172,88.8508 113.927,88.7945 113.682,88.7394 113.436,88.6851 113.189,88.6318 112.94,88.5793 112.691,88.528 112.44,88.4776 112.19,88.4282 110.91,88.1814 110.112,93.6456 109.163,93.5192 109.529,87.9638 108.385,87.8159 108.172,87.7888 107.958,87.7625 107.743,87.7367 107.528,87.7119 107.313,87.6874 107.097,87.6639 106.88,87.6408 106.663,87.6187 106.446,87.5971 106.228,87.5764 106.01,87.5561 105.791,87.5367 105.571,87.518 105.352,87.4999 105.131,87.4825 104.91,87.466 104.689,87.4501 104.468,87.435 104.245,87.4205 104.023,87.407 103.8,87.394 103.577,87.3818 103.353,87.3701 103.128,87.3595 102.904,87.3495 102.679,87.3403 102.454,87.3316 102.228,87.3239 102.001,87.3166 101.775,87.3104 100.523,87.279 100.523,92.8146 99.4772,92.8146 99.4772,87.279 98.2252,87.3104 97.9985,87.3166 97.7723,87.3239 97.5467,87.3316 97.3215,87.3403 97.0966,87.3495 96.872,87.3595 96.6476,87.3701 96.4237,87.3818 96.2004,87.394 95.9779,87.407 95.7551,87.4205 95.5328,87.435 95.3114,87.4501 95.0905,87.466 94.8693,87.4823 94.6488,87.4998 94.429,87.5179 94.2098,87.5367 93.9907,87.556 93.7723,87.5763 93.5545,87.597 93.3372,87.6186 93.1198,87.6408 92.9032,87.6639 92.6873,87.6873 92.472,87.7117 92.257,87.7367 92.0423,87.7624 91.8283,87.7887 91.6148,87.8158 90.4709,87.964 90.8371,93.5192 89.8882,93.6456 89.09,88.1812 87.8105,88.4282 87.5598,88.4777 87.3098,88.528 87.0602,88.5793 86.8117,88.6318 86.5644,88.6851 86.3184,88.7394 86.0727,88.7945 85.8282,88.8508 85.5847,88.908 85.3427,88.966 85.1011,89.0249 84.861,89.0849 84.6216,89.1457 84.3833,89.2076 84.1457,89.2703 83.9094,89.334 83.6746,89.3985 83.4405,89.4641 83.2073,89.5305 82.976,89.5978 82.7454,89.6659 82.5158,89.7351 82.2873,89.8047 82.0598,89.8757 81.8335,89.9474 81.6089,90.0201 81.3848,90.0935 81.1622,90.1679 80.9406,90.243 80.7207,90.3191 79.6894,90.6803 83.5047,110.67 81.0827,111.445 82.3662,116.835 82.5329,117.669 83.6428,122.273 84.6233,122.597 85.0814,122.744 85.5415,122.885 86.0036,123.022 86.4684,123.155 86.9351,123.282 87.4044,123.406 87.8758,123.524 88.35,123.638 88.8267,123.747 89.306,123.852 89.7879,123.952 90.2728,124.047 90.7603,124.137 91.2508,124.223 91.744,124.304 92.2406,124.38 92.7402,124.451 93.2428,124.518 93.7486,124.579 94.2579,124.636 94.7706,124.688 95.2866,124.735 95.8059,124.777 96.329,124.814 96.8556,124.847 97.386,124.874 97.9201,124.896 98.4579,124.914 98.9997,124.926 99.5457,124.934 100.095,124.936 100.644,124.934 101.188,124.927 101.728,124.916 102.263,124.9 102.795,124.88 " />
          <path
             id="_24629824_0"
             class="fil0"
             d="M100.095 123.934c5.7893,0 10.7638,-0.7466 15.5134,-2.4375l0.8794 -4.0435 -2.0968 -0.6672 0.2859 -1.4295 2.0969 0.7625 0.9529 -4.003 -2.3826 -0.7624 3.8198 -20.0127c-2.278,-0.8067 -4.7663,-1.4739 -7.4143,-1.9767l-0.7896 5.4058 -2.8593 -0.3813 0.366 -5.5516c-2.2321,-0.2948 -4.5549,-0.476 -6.9421,-0.5303l0 5.5101 -1.5249 0 -0.3813 0 -1.1436 0 0 -5.5101c-2.3872,0.0544 -4.7101,0.2352 -6.9423,0.5303l0.3661 5.5516 -2.8593 0.3813 -0.7896 -5.4058c-2.6479,0.5029 -5.1364,1.1699 -7.4143,1.9767l3.8198 20.0127 -2.3827 0.7624 0.953 4.003 2.0969 -0.7625 0.2859 1.4295 -2.0967 0.6672 0.9745 4.0435c4.7498,1.5957 9.8194,2.4375 15.6089,2.4375z" />
          <path
             id="_24629824_1"
             class="fil1"
             d="M86.6286 120.385l0.1306 0.0386 0.4374 0.1248 0.4394 0.1203 0.4417 0.1159 0.444 0.1116 0.4466 0.1074 0.4491 0.1027 0.4514 0.0987 0.4541 0.0939 0.457 0.0898 0.4597 0.0852 0.4626 0.0808 0.4657 0.0763 0.4689 0.0718 0.472 0.0674 0.475 0.0629 0.4784 0.0581 0.4822 0.054 0.4853 0.049 0.489 0.0447 0.4927 0.0398 0.4967 0.0355 0.5001 0.0307 0.5043 0.026 0.508 0.0214 0.5125 0.0166 0.5166 0.012 0.5205 0.0071 0.5257 0.0023 0.5262 -0.0022 0.5214 -0.0063 0.5165 -0.0107 0.5118 -0.0152 0.5072 -0.0194 0.5022 -0.0239 0.4979 -0.0281 0.4939 -0.033 0.4897 -0.0371 0.4852 -0.0418 0.4812 -0.0461 0.4774 -0.051 0.4742 -0.0555 0.4698 -0.0598 0.4665 -0.0648 0.4635 -0.0695 0.4604 -0.0741 0.4566 -0.0787 0.4538 -0.0836 0.451 -0.0884 0.4483 -0.0932 0.4456 -0.0983 0.4431 -0.103 0.4409 -0.1082 0.4389 -0.1128 0.436 -0.118 0.4345 -0.1231 0.433 -0.1283 0.1293 -0.0401c-3.4275,-1.3567 -8.1942,-2.2006 -13.4518,-2.2006 -5.217,0 -9.9499,0.8309 -13.3714,2.1695z" />
          <path
             id="_24629824_2"
             class="fil1"
             d="M87.5592 117.852l0.019 0.0947 -1.5617 0.4969c-0.1577,0.0677 -0.3123,0.1367 -0.4636,0.2066l0.1495 0.6199c8.0463,-3.6334 20.6048,-3.6361 28.6421,0.0221l0.1364 -0.6268c-0.1604,-0.0747 -0.3247,-0.1479 -0.4925,-0.2201l-1.5668 -0.4986 0.0155 -0.0961c-7.5361,-2.5762 -17.3422,-2.5764 -24.8779,0.0014z" />
          <path
             id="_24629824_3"
             class="fil1"
             d="M86.9516 114.814l0.3265 1.6328c3.3593,-1.1956 7.8276,-1.9266 12.7219,-1.9266 4.867,0 9.3123,0.7231 12.665,1.907l0.2645 -1.6527c-3.3817,-1.1091 -7.9337,-1.7906 -12.9295,-1.7906 -5.0549,0 -9.655,0.6976 -13.0484,1.8301z" />
          <path
             id="_24629824_4"
             class="fil1"
             d="M86.6005 112.456l0.0113 0.0598 -1.05 0.3359c-0.1048,0.0435 -0.2085,0.0874 -0.3102,0.1316l-0.0096 -0.0292 -0.9461 0.3027 0.2399 1.0837 1.5726 -0.572c0.1762,-0.0668 0.3561,-0.1322 0.5399,-0.1963l0.0513 -0.0186 0.0002 0.0009c3.4158,-1.1828 8.1195,-1.9155 13.3002,-1.9155 6.2835,0 11.8652,1.0783 15.2981,2.7294l0.4059 -1.1116 -0.8624 -0.2759 -0.0158 0.036c-0.1255,-0.0554 -0.2541,-0.1101 -0.3846,-0.1641l-1.0532 -0.337 0.0114 -0.0601c-3.4235,-1.2029 -8.1684,-1.9501 -13.3994,-1.9501 -5.2315,0 -9.9759,0.7473 -13.3995,1.9504z" />
          <path
             id="_24629824_5"
             class="fil1"
             d="M93.4004 90.3319l-0.0613 0.0068 0.3645 5.5281 -2.2978 0.3063 0.1939 1.9084c0.8158,-0.1282 1.6468,-0.2382 2.4912,-0.3292l0 1.3363c-1.8804,0.204 -3.6943,0.5031 -5.4224,0.8871l0.4809 2.8057c1.5871,-0.3176 3.2387,-0.5676 4.9415,-0.7432l0 1.3924c-0.6146,0.0638 -1.2224,0.1371 -1.823,0.2201l0.252 2.4797c0.5185,-0.0686 1.0422,-0.1302 1.571,-0.1847l0 1.3924c-1.4081,0.1463 -2.7812,0.3436 -4.1118,0.5881l0.2231 2.1932c1.7365,-0.369 3.6563,-0.6433 5.6995,-0.8016l0 -6.7326c0,-2.4115 1.7822,-4.3843 4.1936,-4.3843l0.1906 0c2.4113,0 4.0028,1.9728 4.0028,4.3843l0 6.7801c2.3854,0.2126 4.7707,0.5842 6.8103,1.0802l0.4498 -2.2126c-1.6818,-0.3643 -3.4399,-0.6514 -5.2586,-0.8533l0 -1.3924c0.7778,0.0858 1.5443,0.187 2.2987,0.3033l0.342 -2.4592c-0.8645,-0.1399 -1.7451,-0.2598 -2.6407,-0.3592l0 -1.3925c2.236,0.2468 4.3806,0.6219 6.404,1.1099l0.3876 -2.7879c-2.1265,-0.5632 -4.4038,-0.9935 -6.7916,-1.2702l0 -1.3366c1.2953,0.1492 2.5581,0.3433 3.7821,0.5792l0.2735 -1.9672 -4.0496 -0.54 0.3644 -5.5281 -0.0609 -0.0066 -0.207 -0.0211 -0.2088 -0.0207 -0.2091 -0.0199 -0.2094 -0.0194 -0.2095 -0.0186 -0.2107 -0.0179 -0.2105 -0.0174 -0.2111 -0.0166 -0.2111 -0.0158 -0.2122 -0.0153 -0.2129 -0.0144 -0.2129 -0.014 -0.2128 -0.0129 -0.2145 -0.0126 -0.2144 -0.0116 -0.2042 -0.0107 0 5.4473 -6.4573 0 0 -5.4472 -0.2036 0.0106 -0.2145 0.0116 -0.2142 0.0126 -0.2133 0.0129 -0.2127 0.014 -0.2129 0.0144 -0.2128 0.0153 -0.2112 0.0156 -0.2102 0.0167 -0.2107 0.0173 -0.2107 0.0181 -0.2098 0.0185 -0.2091 0.0194 -0.2091 0.0199 -0.2087 0.0208 -0.2074 0.0209z" />
          <path
             id="_24629824_6"
             class="fil1"
             d="M89.8214 96.3844l-2.2244 0.2967 -0.7716 -5.2823 -0.1527 0.0342 -0.2317 0.0534 -0.2315 0.0544 -0.2306 0.0554 -0.2294 0.0559 -0.228 0.0569 -0.2273 0.0576 -0.226 0.0587 -0.2244 0.0592 -0.2235 0.0604 -0.2228 0.0611 -0.2214 0.0621 -0.22 0.0626 -0.2195 0.064 -0.2183 0.0643 -0.217 0.0654 -0.2156 0.0658 -0.214 0.0668 -0.0834 0.0263 0.6724 3.5228c0.5165,-0.1757 1.0434,-0.3432 1.5812,-0.5027l0.2464 1.3299c-0.5355,0.1563 -1.0609,0.3208 -1.5756,0.4932l0.4859 2.5457c1.8386,-0.622 3.8223,-1.1393 5.9184,-1.5345l-0.2956 -1.9533z" />
          <path
             id="_24629824_7"
             class="fil1"
             d="M87.0934 100.355c-0.9128,0.2377 -1.7983,0.5 -2.6529,0.7846l0.5119 2.6813c0.8887,-0.2657 1.8065,-0.5088 2.7495,-0.7275l-0.6085 -2.7384z" />
          <path
             id="_24629824_8"
             class="fil1"
             d="M90.6904 103.893c-1.9193,0.325 -3.7549,0.7477 -5.4846,1.2564l0.4533 2.3748c1.7083,-0.4796 3.5161,-0.8767 5.4024,-1.1799l-0.3711 -2.4513z" />
          <path
             id="_24629824_9"
             class="fil1"
             d="M88.4118 108.24c-0.8532,0.1855 -1.687,0.391 -2.4987,0.615l0.4471 2.3422c0.7346,-0.2677 1.5337,-0.5142 2.3879,-0.7359l-0.3363 -2.2213z" />
          <path
             id="_24629824_10"
             class="fil1"
             d="M111.535 98.6799c1.4915,0.3369 2.918,0.7368 4.2664,1.1932l0.4857 -2.5448c-0.395,-0.1324 -0.7964,-0.2601 -1.2038,-0.3831l0.2689 -1.3203c0.4017,0.1235 0.7974,0.2514 1.1868,0.3839l0.6729 -3.5255 -0.0828 -0.0263 -0.2145 -0.0668 -0.2157 -0.066 -0.2168 -0.0652 -0.2177 -0.0643 -0.2195 -0.0638 -0.2203 -0.0626 -0.2216 -0.0622 -0.2227 -0.0611 -0.2238 -0.0604 -0.2243 -0.0593 -0.2262 -0.0585 -0.2271 -0.0578 -0.2283 -0.057 -0.2288 -0.056 -0.2306 -0.0552 -0.2314 -0.0543 -0.232 -0.0535 -0.1532 -0.0342 -0.7715 5.2823 -0.4779 -0.0638 -0.3902 2.0626z" />
          <path
             id="_24629824_11"
             class="fil1"
             d="M114.128 103.56c0.3097,0.0853 0.6164,0.1736 0.9195,0.2642l0.5124 -2.6839c-0.3023,-0.1006 -0.6085,-0.1987 -0.9185,-0.2936l-0.5134 2.7133z" />
          <path
             id="_24629824_12"
             class="fil1"
             d="M110.043 106.536c1.4894,0.2733 2.9252,0.6056 4.297,0.9909l0.4535 -2.3757c-1.368,-0.4025 -2.802,-0.7512 -4.2917,-1.0403l-0.4588 2.4251z" />
          <path
             id="_24629824_13"
             class="fil1"
             d="M112.526 110.831c0.3915,0.1174 0.7638,0.24 1.1134,0.3674l0.4468 -2.3411c-0.3266,-0.0902 -0.6571,-0.1775 -0.9908,-0.2617l-0.5694 2.2354z" />
        </g>
        <g
           id="g584">
          <polygon
             id="_24629824_14"
             class="fil1"
             points="103.322,82.7831 103.846,82.7533 104.365,82.7187 104.881,82.6797 105.393,82.6355 105.902,82.5868 106.407,82.5328 106.909,82.4741 107.408,82.4105 107.903,82.3417 108.396,82.2678 108.886,82.1891 109.373,82.1051 109.857,82.0159 110.338,81.9215 110.817,81.8219 111.294,81.7168 111.768,81.6065 112.24,81.491 112.709,81.3701 113.177,81.2436 113.643,81.1116 114.106,80.9741 114.569,80.8314 115.029,80.6826 115.488,80.5286 116.469,80.1857 117.469,75.5859 117.634,74.761 118.917,69.3725 116.495,68.5975 120.311,48.6087 119.28,48.2471 119.06,48.1711 118.838,48.0959 118.615,48.0215 118.392,47.948 118.167,47.8754 117.94,47.8037 117.713,47.7327 117.485,47.663 117.255,47.5939 117.024,47.5258 116.793,47.4583 116.56,47.3921 116.326,47.3266 116.091,47.2621 115.854,47.1984 115.617,47.1357 115.379,47.0738 115.14,47.013 114.899,46.9531 114.658,46.894 114.416,46.836 114.172,46.7788 113.927,46.7225 113.682,46.6674 113.436,46.6131 113.189,46.5597 112.94,46.5073 112.691,46.456 112.44,46.4056 112.19,46.3562 110.91,46.1094 110.112,51.5736 109.163,51.4472 109.529,45.8918 108.385,45.7439 108.172,45.7168 107.958,45.6905 107.743,45.6647 107.528,45.6399 107.313,45.6154 107.097,45.5919 106.88,45.5688 106.663,45.5467 106.446,45.5251 106.228,45.5044 106.01,45.4841 105.791,45.4647 105.571,45.446 105.352,45.4279 105.131,45.4104 104.91,45.394 104.689,45.3781 104.468,45.363 104.245,45.3485 104.023,45.335 103.8,45.322 103.577,45.3098 103.353,45.2981 103.128,45.2875 102.904,45.2774 102.679,45.2683 102.454,45.2596 102.228,45.2518 102.001,45.2446 101.775,45.2384 100.523,45.207 100.523,50.7426 99.4772,50.7426 99.4772,45.207 98.2252,45.2384 97.9985,45.2446 97.7723,45.2518 97.5467,45.2596 97.3215,45.2683 97.0966,45.2774 96.872,45.2875 96.6476,45.2981 96.4237,45.3098 96.2004,45.322 95.9779,45.335 95.7551,45.3485 95.5328,45.363 95.3114,45.3781 95.0905,45.394 94.8693,45.4103 94.6488,45.4278 94.429,45.4459 94.2098,45.4647 93.9907,45.484 93.7723,45.5043 93.5545,45.525 93.3372,45.5465 93.1198,45.5688 92.9032,45.5919 92.6873,45.6153 92.472,45.6397 92.257,45.6647 92.0423,45.6904 91.8283,45.7166 91.6148,45.7438 90.4709,45.892 90.8371,51.4472 89.8882,51.5736 89.09,46.1092 87.8105,46.3562 87.5598,46.4057 87.3098,46.456 87.0602,46.5073 86.8117,46.5597 86.5644,46.6131 86.3184,46.6674 86.0727,46.7225 85.8282,46.7788 85.5847,46.836 85.3427,46.894 85.1011,46.9529 84.861,47.0129 84.6216,47.0737 84.3833,47.1356 84.1457,47.1983 83.9094,47.262 83.6746,47.3265 83.4405,47.3921 83.2073,47.4584 82.976,47.5258 82.7454,47.5939 82.5158,47.663 82.2873,47.7327 82.0598,47.8037 81.8335,47.8754 81.6089,47.948 81.3848,48.0215 81.1622,48.0959 80.9406,48.171 80.7207,48.2471 79.6894,48.6083 83.5047,68.5975 81.0827,69.3725 82.3662,74.7629 82.5329,75.5968 83.6428,80.2013 84.6233,80.5253 85.0814,80.6715 85.5415,80.8131 86.0036,80.9499 86.4684,81.0825 86.9351,81.2104 87.4044,81.3336 87.8758,81.4519 88.35,81.5659 88.8267,81.6752 89.306,81.7797 89.7879,81.8796 90.2728,81.9748 90.7603,82.0651 91.2508,82.1508 91.744,82.2316 92.2406,82.3077 92.7402,82.3789 93.2428,82.4455 93.7486,82.507 94.2579,82.564 94.7706,82.6157 95.2866,82.6629 95.8059,82.7049 96.329,82.7423 96.8556,82.7746 97.386,82.802 97.9201,82.8243 98.4579,82.8418 98.9997,82.8543 99.5457,82.8618 100.095,82.8643 100.644,82.8621 101.188,82.8554 101.728,82.8443 102.263,82.8284 102.795,82.8081 " />
          <path
             id="_24629824_15"
             class="fil0"
             d="M100.095 81.8621c5.7893,0 10.7638,-0.7466 15.5134,-2.4375l0.8794 -4.0435 -2.0968 -0.6672 0.2859 -1.4295 2.0969 0.7624 0.9529 -4.0029 -2.3826 -0.7624 3.8198 -20.0128c-2.278,-0.8066 -4.7663,-1.4738 -7.4143,-1.9766l-0.7896 5.4058 -2.8593 -0.3813 0.366 -5.5516c-2.2321,-0.2948 -4.5549,-0.476 -6.9421,-0.5303l0 5.5101 -1.5249 0 -0.3813 0 -1.1436 0 0 -5.5101c-2.3872,0.0544 -4.7101,0.2352 -6.9423,0.5303l0.3661 5.5516 -2.8593 0.3813 -0.7896 -5.4058c-2.6479,0.5029 -5.1364,1.1698 -7.4143,1.9766l3.8198 20.0128 -2.3827 0.7624 0.953 4.0029 2.0969 -0.7624 0.2859 1.4295 -2.0967 0.6672 0.9745 4.0435c4.7498,1.5956 9.8194,2.4375 15.6089,2.4375z" />
          <path
             id="_24629824_16"
             class="fil1"
             d="M86.6286 78.3131l0.1306 0.0386 0.4374 0.1247 0.4394 0.1204 0.4417 0.1159 0.444 0.1116 0.4466 0.1074 0.4491 0.1027 0.4514 0.0986 0.4541 0.094 0.457 0.0898 0.4597 0.0852 0.4626 0.0808 0.4657 0.0763 0.4689 0.0718 0.472 0.0674 0.475 0.0629 0.4784 0.058 0.4822 0.0541 0.4853 0.049 0.489 0.0447 0.4927 0.0398 0.4967 0.0355 0.5001 0.0307 0.5043 0.0259 0.508 0.0215 0.5125 0.0165 0.5166 0.0121 0.5205 0.0071 0.5257 0.0023 0.5262 -0.0022 0.5214 -0.0063 0.5165 -0.0108 0.5118 -0.0151 0.5072 -0.0194 0.5022 -0.0239 0.4979 -0.0282 0.4939 -0.0329 0.4897 -0.0371 0.4852 -0.0418 0.4812 -0.0461 0.4774 -0.0511 0.4742 -0.0554 0.4698 -0.0599 0.4665 -0.0647 0.4635 -0.0695 0.4604 -0.0741 0.4566 -0.0787 0.4538 -0.0836 0.451 -0.0885 0.4483 -0.0931 0.4456 -0.0983 0.4431 -0.103 0.4409 -0.1082 0.4389 -0.1128 0.436 -0.118 0.4345 -0.1231 0.433 -0.1283 0.1293 -0.0401c-3.4275,-1.3567 -8.1942,-2.2006 -13.4518,-2.2006 -5.217,0 -9.9499,0.8309 -13.3714,2.1695z" />
          <path
             id="_24629824_17"
             class="fil1"
             d="M87.5592 75.7804l0.019 0.0947 -1.5617 0.4969c-0.1577,0.0677 -0.3123,0.1367 -0.4636,0.2066l0.1495 0.6199c8.0463,-3.6334 20.6048,-3.6361 28.6421,0.0221l0.1364 -0.6268c-0.1604,-0.0748 -0.3247,-0.1479 -0.4925,-0.2202l-1.5668 -0.4985 0.0155 -0.0961c-7.5361,-2.5762 -17.3422,-2.5764 -24.8779,0.0014z" />
          <path
             id="_24629824_18"
             class="fil1"
             d="M86.9516 72.7421l0.3265 1.6328c3.3593,-1.1956 7.8276,-1.9266 12.7219,-1.9266 4.867,0 9.3123,0.7231 12.665,1.9069l0.2645 -1.6526c-3.3817,-1.1091 -7.9337,-1.7906 -12.9295,-1.7906 -5.0549,0 -9.655,0.6975 -13.0484,1.8301z" />
          <path
             id="_24629824_19"
             class="fil1"
             d="M86.6005 70.3844l0.0113 0.0598 -1.05 0.3359c-0.1048,0.0435 -0.2085,0.0874 -0.3102,0.1316l-0.0096 -0.0292 -0.9461 0.3027 0.2399 1.0837 1.5726 -0.572c0.1762,-0.0668 0.3561,-0.1322 0.5399,-0.1963l0.0513 -0.0186 0.0002 0.0009c3.4158,-1.1828 8.1195,-1.9155 13.3002,-1.9155 6.2835,0 11.8652,1.0783 15.2981,2.7294l0.4059 -1.1116 -0.8624 -0.2759 -0.0158 0.036c-0.1255,-0.0554 -0.2541,-0.1101 -0.3846,-0.1641l-1.0532 -0.337 0.0114 -0.0601c-3.4235,-1.2029 -8.1684,-1.9501 -13.3994,-1.9501 -5.2315,0 -9.9759,0.7473 -13.3995,1.9504z" />
          <path
             id="_24629824_20"
             class="fil1"
             d="M93.4004 48.2599l-0.0613 0.0068 0.3645 5.5281 -2.2978 0.3063 0.1939 1.9084c0.8158,-0.1282 1.6468,-0.2382 2.4912,-0.3292l0 1.3363c-1.8804,0.204 -3.6943,0.5031 -5.4224,0.8871l0.4809 2.8056c1.5871,-0.3175 3.2387,-0.5675 4.9415,-0.7432l0 1.3925c-0.6146,0.0638 -1.2224,0.1371 -1.823,0.2201l0.252 2.4797c0.5185,-0.0686 1.0422,-0.1302 1.571,-0.1847l0 1.3924c-1.4081,0.1463 -2.7812,0.3436 -4.1118,0.5881l0.2231 2.1932c1.7365,-0.3691 3.6563,-0.6433 5.6995,-0.8017l0 -6.7326c0,-2.4114 1.7822,-4.3842 4.1936,-4.3842l0.1906 0c2.4113,0 4.0028,1.9728 4.0028,4.3842l0 6.7802c2.3854,0.2126 4.7707,0.5842 6.8103,1.0802l0.4498 -2.2126c-1.6818,-0.3643 -3.4399,-0.6514 -5.2586,-0.8533l0 -1.3924c0.7778,0.0858 1.5443,0.187 2.2987,0.3033l0.342 -2.4592c-0.8645,-0.1399 -1.7451,-0.2598 -2.6407,-0.3592l0 -1.3925c2.236,0.2468 4.3806,0.6219 6.404,1.1099l0.3876 -2.7879c-2.1265,-0.5632 -4.4038,-0.9935 -6.7916,-1.2702l0 -1.3366c1.2953,0.1492 2.5581,0.3433 3.7821,0.5792l0.2735 -1.9672 -4.0496 -0.54 0.3644 -5.5281 -0.0609 -0.0066 -0.207 -0.0211 -0.2088 -0.0207 -0.2091 -0.0199 -0.2094 -0.0194 -0.2095 -0.0186 -0.2107 -0.018 -0.2105 -0.0173 -0.2111 -0.0167 -0.2111 -0.0157 -0.2122 -0.0153 -0.2129 -0.0145 -0.2129 -0.0139 -0.2128 -0.0129 -0.2145 -0.0126 -0.2144 -0.0116 -0.2042 -0.0107 0 5.4473 -6.4573 0 0 -5.4472 -0.2036 0.0106 -0.2145 0.0116 -0.2142 0.0126 -0.2133 0.0129 -0.2127 0.0139 -0.2129 0.0145 -0.2128 0.0153 -0.2112 0.0156 -0.2102 0.0167 -0.2107 0.0173 -0.2107 0.0181 -0.2098 0.0185 -0.2091 0.0194 -0.2091 0.0199 -0.2087 0.0208 -0.2074 0.0209z" />
          <path
             id="_24629824_21"
             class="fil1"
             d="M89.8214 54.3124l-2.2244 0.2966 -0.7716 -5.2822 -0.1527 0.0342 -0.2317 0.0534 -0.2315 0.0544 -0.2306 0.0553 -0.2294 0.056 -0.228 0.0569 -0.2273 0.0576 -0.226 0.0587 -0.2244 0.0592 -0.2235 0.0604 -0.2228 0.0611 -0.2214 0.062 -0.22 0.0627 -0.2195 0.064 -0.2183 0.0642 -0.217 0.0654 -0.2156 0.0658 -0.214 0.0669 -0.0834 0.0263 0.6724 3.5228c0.5165,-0.1757 1.0434,-0.3432 1.5812,-0.5027l0.2464 1.3299c-0.5355,0.1563 -1.0609,0.3208 -1.5756,0.4932l0.4859 2.5456c1.8386,-0.6219 3.8223,-1.1392 5.9184,-1.5344l-0.2956 -1.9533z" />
          <path
             id="_24629824_22"
             class="fil1"
             d="M87.0934 58.2834c-0.9128,0.2377 -1.7983,0.5 -2.6529,0.7846l0.5119 2.6813c0.8887,-0.2657 1.8065,-0.5089 2.7495,-0.7276l-0.6085 -2.7383z" />
          <path
             id="_24629824_23"
             class="fil1"
             d="M90.6904 61.8209c-1.9193,0.3249 -3.7549,0.7477 -5.4846,1.2563l0.4533 2.3749c1.7083,-0.4796 3.5161,-0.8767 5.4024,-1.1799l-0.3711 -2.4513z" />
          <path
             id="_24629824_24"
             class="fil1"
             d="M88.4118 66.1683c-0.8532,0.1855 -1.687,0.391 -2.4987,0.615l0.4471 2.3422c0.7346,-0.2677 1.5337,-0.5142 2.3879,-0.7359l-0.3363 -2.2213z" />
          <path
             id="_24629824_25"
             class="fil1"
             d="M111.535 56.6079c1.4915,0.3369 2.918,0.7368 4.2664,1.1931l0.4857 -2.5447c-0.395,-0.1324 -0.7964,-0.2601 -1.2038,-0.3831l0.2689 -1.3203c0.4017,0.1235 0.7974,0.2514 1.1868,0.3839l0.6729 -3.5255 -0.0828 -0.0263 -0.2145 -0.0669 -0.2157 -0.0659 -0.2168 -0.0653 -0.2177 -0.0642 -0.2195 -0.0638 -0.2203 -0.0626 -0.2216 -0.0622 -0.2227 -0.0611 -0.2238 -0.0604 -0.2243 -0.0593 -0.2262 -0.0585 -0.2271 -0.0578 -0.2283 -0.057 -0.2288 -0.056 -0.2306 -0.0552 -0.2314 -0.0543 -0.232 -0.0535 -0.1532 -0.0342 -0.7715 5.2822 -0.4779 -0.0637 -0.3902 2.0626z" />
          <path
             id="_24629824_26"
             class="fil1"
             d="M114.128 61.4876c0.3097,0.0853 0.6164,0.1736 0.9195,0.2642l0.5124 -2.684c-0.3023,-0.1005 -0.6085,-0.1986 -0.9185,-0.2935l-0.5134 2.7133z" />
          <path
             id="_24629824_27"
             class="fil1"
             d="M110.043 64.4637c1.4894,0.2733 2.9252,0.6056 4.297,0.9909l0.4535 -2.3757c-1.368,-0.4025 -2.802,-0.7512 -4.2917,-1.0403l-0.4588 2.4251z" />
          <path
             id="_24629824_28"
             class="fil1"
             d="M112.526 68.7585c0.3915,0.1174 0.7638,0.24 1.1134,0.3673l0.4468 -2.341c-0.3266,-0.0902 -0.6571,-0.1776 -0.9908,-0.2617l-0.5694 2.2354z" />
        </g>
        <g
           id="g600">
          <polygon
             id="_24629824_29"
             class="fil1"
             points="103.322,40.4076 103.846,40.3778 104.365,40.3432 104.881,40.3042 105.393,40.26 105.902,40.2113 106.407,40.1573 106.909,40.0986 107.408,40.035 107.903,39.9662 108.396,39.8923 108.886,39.8136 109.373,39.7296 109.857,39.6404 110.338,39.546 110.817,39.4464 111.294,39.3413 111.768,39.231 112.24,39.1155 112.709,38.9946 113.177,38.8681 113.643,38.7361 114.106,38.5986 114.569,38.4559 115.029,38.3071 115.488,38.1531 116.469,37.8102 117.469,33.2104 117.634,32.3855 118.917,26.997 116.495,26.222 120.311,6.2332 119.28,5.8716 119.06,5.7956 118.838,5.7204 118.615,5.646 118.392,5.5725 118.167,5.4999 117.94,5.4282 117.713,5.3572 117.485,5.2875 117.255,5.2184 117.024,5.1503 116.793,5.0828 116.56,5.0166 116.326,4.9511 116.091,4.8866 115.854,4.8229 115.617,4.7602 115.379,4.6983 115.14,4.6375 114.899,4.5776 114.658,4.5185 114.416,4.4605 114.172,4.4033 113.927,4.347 113.682,4.2919 113.436,4.2376 113.189,4.1843 112.94,4.1318 112.691,4.0805 112.44,4.0301 112.19,3.9807 110.91,3.7339 110.112,9.1981 109.163,9.0717 109.529,3.5163 108.385,3.3684 108.172,3.3413 107.958,3.315 107.743,3.2892 107.528,3.2644 107.313,3.2399 107.097,3.2164 106.88,3.1933 106.663,3.1712 106.446,3.1496 106.228,3.1289 106.01,3.1086 105.791,3.0892 105.571,3.0705 105.352,3.0524 105.131,3.0349 104.91,3.0185 104.689,3.0026 104.468,2.9875 104.245,2.973 104.023,2.9595 103.8,2.9465 103.577,2.9343 103.353,2.9226 103.128,2.912 102.904,2.9019 102.679,2.8928 102.454,2.8841 102.228,2.8764 102.001,2.8691 101.775,2.8629 100.523,2.8315 100.523,8.3671 99.4772,8.3671 99.4772,2.8315 98.2252,2.8629 97.9985,2.8691 97.7723,2.8764 97.5467,2.8841 97.3215,2.8928 97.0966,2.9019 96.872,2.912 96.6476,2.9226 96.4237,2.9343 96.2004,2.9465 95.9779,2.9595 95.7551,2.973 95.5328,2.9875 95.3114,3.0026 95.0905,3.0185 94.8693,3.0348 94.6488,3.0523 94.429,3.0704 94.2098,3.0892 93.9907,3.1085 93.7723,3.1288 93.5545,3.1495 93.3372,3.171 93.1198,3.1933 92.9032,3.2164 92.6873,3.2398 92.472,3.2642 92.257,3.2892 92.0423,3.3149 91.8283,3.3411 91.6148,3.3683 90.4709,3.5165 90.8371,9.0717 89.8882,9.1981 89.09,3.7337 87.8105,3.9807 87.5598,4.0302 87.3098,4.0805 87.0602,4.1318 86.8117,4.1843 86.5644,4.2376 86.3184,4.2919 86.0727,4.347 85.8282,4.4033 85.5847,4.4605 85.3427,4.5185 85.1011,4.5774 84.861,4.6374 84.6216,4.6982 84.3833,4.7601 84.1457,4.8228 83.9094,4.8865 83.6746,4.951 83.4405,5.0166 83.2073,5.0829 82.976,5.1503 82.7454,5.2184 82.5158,5.2875 82.2873,5.3572 82.0598,5.4282 81.8335,5.4999 81.6089,5.5725 81.3848,5.646 81.1622,5.7204 80.9406,5.7955 80.7207,5.8716 79.6894,6.2328 83.5047,26.222 81.0827,26.997 82.3662,32.3874 82.5329,33.2213 83.6428,37.8258 84.6233,38.1498 85.0814,38.296 85.5415,38.4376 86.0036,38.5744 86.4684,38.707 86.9351,38.8349 87.4044,38.9581 87.8758,39.0765 88.35,39.1905 88.8267,39.2997 89.306,39.4042 89.7879,39.5041 90.2728,39.5993 90.7603,39.6896 91.2508,39.7753 91.744,39.8561 92.2406,39.9322 92.7402,40.0034 93.2428,40.07 93.7486,40.1315 94.2579,40.1885 94.7706,40.2402 95.2866,40.2874 95.8059,40.3294 96.329,40.3668 96.8556,40.3991 97.386,40.4265 97.9201,40.4488 98.4579,40.4663 98.9997,40.4788 99.5457,40.4863 100.095,40.4888 100.644,40.4866 101.188,40.4799 101.728,40.4688 102.263,40.4529 102.795,40.4326 " />
          <path
             id="_24629824_30"
             class="fil0"
             d="M100.095 39.4866c5.7893,0 10.7638,-0.7466 15.5134,-2.4375l0.8794 -4.0435 -2.0968 -0.6672 0.2859 -1.4295 2.0969 0.7625 0.9529 -4.003 -2.3826 -0.7624 3.8198 -20.0128c-2.278,-0.8066 -4.7663,-1.4738 -7.4143,-1.9766l-0.7896 5.4058 -2.8593 -0.3813 0.366 -5.5516c-2.2321,-0.2948 -4.5549,-0.476 -6.9421,-0.5303l0 5.5101 -1.5249 0 -0.3813 0 -1.1436 0 0 -5.5101c-2.3872,0.0544 -4.7101,0.2352 -6.9423,0.5303l0.3661 5.5516 -2.8593 0.3813 -0.7896 -5.4058c-2.6479,0.5029 -5.1364,1.1699 -7.4143,1.9766l3.8198 20.0128 -2.3827 0.7624 0.953 4.003 2.0969 -0.7625 0.2859 1.4295 -2.0967 0.6672 0.9745 4.0435c4.7498,1.5957 9.8194,2.4375 15.6089,2.4375z" />
          <path
             id="_24629824_31"
             class="fil1"
             d="M86.6286 35.9376l0.1306 0.0386 0.4374 0.1247 0.4394 0.1204 0.4417 0.1159 0.444 0.1116 0.4466 0.1074 0.4491 0.1027 0.4514 0.0986 0.4541 0.094 0.457 0.0898 0.4597 0.0852 0.4626 0.0808 0.4657 0.0763 0.4689 0.0718 0.472 0.0674 0.475 0.0629 0.4784 0.058 0.4822 0.0541 0.4853 0.049 0.489 0.0447 0.4927 0.0398 0.4967 0.0355 0.5001 0.0307 0.5043 0.0259 0.508 0.0215 0.5125 0.0165 0.5166 0.0121 0.5205 0.0071 0.5257 0.0023 0.5262 -0.0022 0.5214 -0.0063 0.5165 -0.0108 0.5118 -0.0151 0.5072 -0.0194 0.5022 -0.0239 0.4979 -0.0282 0.4939 -0.0329 0.4897 -0.0371 0.4852 -0.0418 0.4812 -0.0461 0.4774 -0.0511 0.4742 -0.0554 0.4698 -0.0599 0.4665 -0.0647 0.4635 -0.0695 0.4604 -0.0741 0.4566 -0.0787 0.4538 -0.0836 0.451 -0.0885 0.4483 -0.0931 0.4456 -0.0983 0.4431 -0.103 0.4409 -0.1082 0.4389 -0.1128 0.436 -0.118 0.4345 -0.1231 0.433 -0.1283 0.1293 -0.0401c-3.4275,-1.3567 -8.1942,-2.2006 -13.4518,-2.2006 -5.217,0 -9.9499,0.8309 -13.3714,2.1695z" />
          <path
             id="_24629824_32"
             class="fil1"
             d="M87.5592 33.4049l0.019 0.0947 -1.5617 0.4969c-0.1577,0.0677 -0.3123,0.1367 -0.4636,0.2066l0.1495 0.6199c8.0463,-3.6334 20.6048,-3.6361 28.6421,0.0221l0.1364 -0.6268c-0.1604,-0.0747 -0.3247,-0.1479 -0.4925,-0.2202l-1.5668 -0.4985 0.0155 -0.0961c-7.5361,-2.5762 -17.3422,-2.5764 -24.8779,0.0014z" />
          <path
             id="_24629824_33"
             class="fil1"
             d="M86.9516 30.3666l0.3265 1.6328c3.3593,-1.1956 7.8276,-1.9266 12.7219,-1.9266 4.867,0 9.3123,0.7231 12.665,1.9069l0.2645 -1.6526c-3.3817,-1.1091 -7.9337,-1.7906 -12.9295,-1.7906 -5.0549,0 -9.655,0.6975 -13.0484,1.8301z" />
          <path
             id="_24629824_34"
             class="fil1"
             d="M86.6005 28.0089l0.0113 0.0598 -1.05 0.3359c-0.1048,0.0435 -0.2085,0.0874 -0.3102,0.1316l-0.0096 -0.0292 -0.9461 0.3027 0.2399 1.0837 1.5726 -0.572c0.1762,-0.0668 0.3561,-0.1322 0.5399,-0.1963l0.0513 -0.0186 0.0002 0.0009c3.4158,-1.1828 8.1195,-1.9155 13.3002,-1.9155 6.2835,0 11.8652,1.0783 15.2981,2.7294l0.4059 -1.1116 -0.8624 -0.2759 -0.0158 0.036c-0.1255,-0.0554 -0.2541,-0.1101 -0.3846,-0.1641l-1.0532 -0.337 0.0114 -0.0601c-3.4235,-1.2029 -8.1684,-1.9501 -13.3994,-1.9501 -5.2315,0 -9.9759,0.7473 -13.3995,1.9504z" />
          <path
             id="_24629824_35"
             class="fil1"
             d="M93.4004 5.8844l-0.0613 0.0068 0.3645 5.5281 -2.2978 0.3063 0.1939 1.9084c0.8158,-0.1282 1.6468,-0.2382 2.4912,-0.3292l0 1.3363c-1.8804,0.204 -3.6943,0.5031 -5.4224,0.8871l0.4809 2.8056c1.5871,-0.3175 3.2387,-0.5675 4.9415,-0.7432l0 1.3925c-0.6146,0.0638 -1.2224,0.1371 -1.823,0.2201l0.252 2.4797c0.5185,-0.0686 1.0422,-0.1302 1.571,-0.1847l0 1.3924c-1.4081,0.1463 -2.7812,0.3436 -4.1118,0.5881l0.2231 2.1932c1.7365,-0.369 3.6563,-0.6433 5.6995,-0.8017l0 -6.7326c0,-2.4114 1.7822,-4.3842 4.1936,-4.3842l0.1906 0c2.4113,0 4.0028,1.9728 4.0028,4.3842l0 6.7802c2.3854,0.2126 4.7707,0.5842 6.8103,1.0802l0.4498 -2.2126c-1.6818,-0.3643 -3.4399,-0.6514 -5.2586,-0.8533l0 -1.3924c0.7778,0.0858 1.5443,0.187 2.2987,0.3033l0.342 -2.4592c-0.8645,-0.1399 -1.7451,-0.2598 -2.6407,-0.3592l0 -1.3925c2.236,0.2468 4.3806,0.6219 6.404,1.1099l0.3876 -2.7879c-2.1265,-0.5632 -4.4038,-0.9935 -6.7916,-1.2702l0 -1.3366c1.2953,0.1492 2.5581,0.3433 3.7821,0.5792l0.2735 -1.9672 -4.0496 -0.54 0.3644 -5.5281 -0.0609 -0.0066 -0.207 -0.0211 -0.2088 -0.0207 -0.2091 -0.0199 -0.2094 -0.0194 -0.2095 -0.0186 -0.2107 -0.018 -0.2105 -0.0173 -0.2111 -0.0167 -0.2111 -0.0157 -0.2122 -0.0153 -0.2129 -0.0144 -0.2129 -0.014 -0.2128 -0.0129 -0.2145 -0.0126 -0.2144 -0.0116 -0.2042 -0.0107 0 5.4473 -6.4573 0 0 -5.4472 -0.2036 0.0106 -0.2145 0.0116 -0.2142 0.0126 -0.2133 0.0129 -0.2127 0.014 -0.2129 0.0144 -0.2128 0.0153 -0.2112 0.0156 -0.2102 0.0167 -0.2107 0.0173 -0.2107 0.0181 -0.2098 0.0185 -0.2091 0.0194 -0.2091 0.0199 -0.2087 0.0208 -0.2074 0.0209z" />
          <path
             id="_24629824_36"
             class="fil1"
             d="M89.8214 11.9369l-2.2244 0.2966 -0.7716 -5.2822 -0.1527 0.0342 -0.2317 0.0534 -0.2315 0.0544 -0.2306 0.0553 -0.2294 0.056 -0.228 0.0569 -0.2273 0.0576 -0.226 0.0587 -0.2244 0.0592 -0.2235 0.0604 -0.2228 0.0611 -0.2214 0.062 -0.22 0.0627 -0.2195 0.064 -0.2183 0.0642 -0.217 0.0655 -0.2156 0.0657 -0.214 0.0669 -0.0834 0.0263 0.6724 3.5228c0.5165,-0.1757 1.0434,-0.3432 1.5812,-0.5027l0.2464 1.3299c-0.5355,0.1563 -1.0609,0.3208 -1.5756,0.4932l0.4859 2.5456c1.8386,-0.6219 3.8223,-1.1392 5.9184,-1.5344l-0.2956 -1.9533z" />
          <path
             id="_24629824_37"
             class="fil1"
             d="M87.0934 15.9079c-0.9128,0.2377 -1.7983,0.5 -2.6529,0.7846l0.5119 2.6813c0.8887,-0.2657 1.8065,-0.5089 2.7495,-0.7276l-0.6085 -2.7383z" />
          <path
             id="_24629824_38"
             class="fil1"
             d="M90.6904 19.4454c-1.9193,0.325 -3.7549,0.7477 -5.4846,1.2563l0.4533 2.3749c1.7083,-0.4796 3.5161,-0.8767 5.4024,-1.1799l-0.3711 -2.4513z" />
          <path
             id="_24629824_39"
             class="fil1"
             d="M88.4118 23.7928c-0.8532,0.1855 -1.687,0.391 -2.4987,0.615l0.4471 2.3422c0.7346,-0.2677 1.5337,-0.5142 2.3879,-0.7359l-0.3363 -2.2213z" />
          <path
             id="_24629824_40"
             class="fil1"
             d="M111.535 14.2324c1.4915,0.3369 2.918,0.7368 4.2664,1.1931l0.4857 -2.5447c-0.395,-0.1324 -0.7964,-0.2601 -1.2038,-0.3831l0.2689 -1.3203c0.4017,0.1235 0.7974,0.2514 1.1868,0.3839l0.6729 -3.5255 -0.0828 -0.0263 -0.2145 -0.0669 -0.2157 -0.0659 -0.2168 -0.0653 -0.2177 -0.0642 -0.2195 -0.0638 -0.2203 -0.0626 -0.2216 -0.0622 -0.2227 -0.0611 -0.2238 -0.0604 -0.2243 -0.0593 -0.2262 -0.0585 -0.2271 -0.0578 -0.2283 -0.057 -0.2288 -0.056 -0.2306 -0.0552 -0.2314 -0.0543 -0.232 -0.0535 -0.1532 -0.0342 -0.7715 5.2822 -0.4779 -0.0637 -0.3902 2.0626z" />
          <path
             id="_24629824_41"
             class="fil1"
             d="M114.128 19.1121c0.3097,0.0853 0.6164,0.1736 0.9195,0.2642l0.5124 -2.684c-0.3023,-0.1005 -0.6085,-0.1986 -0.9185,-0.2935l-0.5134 2.7133z" />
          <path
             id="_24629824_42"
             class="fil1"
             d="M110.043 22.0882c1.4894,0.2733 2.9252,0.6056 4.297,0.9909l0.4535 -2.3757c-1.368,-0.4025 -2.802,-0.7512 -4.2917,-1.0403l-0.4588 2.4251z" />
          <path
             id="_24629824_43"
             class="fil1"
             d="M112.526 26.383c0.3915,0.1174 0.7638,0.24 1.1134,0.3673l0.4468 -2.341c-0.3266,-0.0902 -0.6571,-0.1776 -0.9908,-0.2617l-0.5694 2.2354z" />
        </g>
      </g>
      <rect
         id="_138243600"
         class="fil2 str0"
         width="75"
         height="17.2" />
      <rect
         id="_137899008"
         class="fil2 str0"
         x="125"
         width="75"
         height="17.2" />
      <rect
         id="_138268224"
         class="fil3 str0"
         y="19.1999"
         width="75"
         height="17.2001" />
      <rect
         id="_138509536"
         class="fil3 str0"
         x="125"
         y="19.1999"
         width="75"
         height="17.2001" />
      <rect
         id="_140591960"
         class="fil3 str0"
         y="55.6"
         width="75"
         height="16.2" />
      <rect
         id="_138525864"
         class="fil3 str0"
         x="125"
         y="55.6"
         width="75"
         height="16.2" />
      <rect
         id="_138746528"
         class="fil3 str0"
         y="92"
         width="75"
         height="16.2" />
      <rect
         id="_140560200"
         class="fil3 str0"
         x="125"
         y="92"
         width="75"
         height="16.2" />
      <rect
         id="_140638328"
         class="fil2 str0"
         y="38.4"
         width="75"
         height="15.2" />
      <rect
         id="_181800632"
         class="fil2 str0"
         x="125"
         y="38.4"
         width="75"
         height="15.2" />
      <rect
         id="_137903576"
         class="fil2 str0"
         y="73.8"
         width="75"
         height="16.2" />
      <rect
         id="_24671088"
         class="fil2 str0"
         x="125"
         y="73.8"
         width="75"
         height="16.2" />
      <rect
         id="_182321136"
         class="fil2 str0"
         y="110.2"
         width="75"
         height="17.2" />
      <rect
         id="_140585640"
         class="fil2 str0"
         x="125"
         y="110.2"
         width="75"
         height="17.2" />
      <rect
         id="_138235456"
         class="fil4 str1"
         width="200"
         height="127.4" />
    </g>
  </g>
</svg>
