<?xml version="1.0" encoding="UTF-8" standalone="no"?>
<!DOCTYPE svg PUBLIC "-//W3C//DTD SVG 20010904//EN"
"http://www.w3.org/TR/2001/REC-SVG-20010904/DTD/svg10.dtd">
<!-- Created with Sodipodi ("http://www.sodipodi.com/") -->
<svg
   xml:space="preserve"
   width="200mm"
   height="201.72mm"
   style="shape-rendering:geometricPrecision; text-rendering:geometricPrecision; image-rendering:optimizeQuality; fill-rule:evenodd; clip-rule:evenodd"
   viewBox="0 0 200 201.72"
   sodipodi:version="0.33beta"
   sodipodi:docname="C:\Documents and Settings\Sergio\Desktop\Brasao_JoaoPessoa_Paraiba_Brasil.svg"
   xmlns="http://www.w3.org/2000/svg"
   xmlns:sodipodi="http://sodipodi.sourceforge.net/DTD/sodipodi-0.dtd"
   xmlns:xml="http://www.w3.org/XML/1998/namespace"
   xmlns:xlink="http://www.w3.org/1999/xlink"
   id="svg559">
  <sodipodi:namedview
     id="namedview618" />
  <defs
     id="defs560">
    <style
       type="text/css"
       id="style561">.fil0 {fill:#1F1A17}
    .fil1 {fill:#DA251D}
    .fil3 {fill:white}
    .fil2 {fill:#DEDEDD}</style>
  </defs>
  <g
     id="Camada_x0020_1">
    <metadata
       id="CorelCorpID_0Corel-Layer" />
    <sodipodi:namedview
       id="base" />
    <g
       id="_138741576">
      <path
         id="_137898080"
         class="fil0"
         d="M53.6901 134.983l-3.3916 -51.1631c-4.5411,9.2722 -19.0376,17.9737 -25.1462,26.1676 2.4751,0.0412 4.115,1.0369 4.9196,2.9869 -0.2928,0.2343 -0.5857,0.4685 -0.8785,0.7028 -4.18,-3.2831 -6.926,1.7178 -6.2362,3.9126 1.7277,5.4966 6.6808,4.4967 9.4613,3.9337 4.9585,-1.0041 14.1471,-2.5592 15.2232,6.3853 2.013,0.7485 2.8331,2.2127 2.4598,4.3925 1.4144,-0.0151 2.3515,0.805 2.8112,2.4598 0.28,0.0663 0.5391,0.1405 0.7774,0.2219zm-4.1583 -62.7286l-1.0531 -15.8859 4.0598 -0.3929 -0.7858 -4.0598 1.9644 -0.3929 -1.0476 -5.3694 -1.8335 0.3929 -0.9167 -4.0598 1.7025 -0.3928 -7.0719 -34.9666c5.6622,-1.5008 11.4046,-2.7637 17.2018,-3.7905l1.3192 8.4229 2.9391 -0.2672 -0.7605 -8.7453c6.2786,-1.0055 12.6151,-1.7354 18.9779,-2.1889l0.7533 8.6631 6.0118 -0.2672 0 -8.7734c6.0106,-0.2433 12.0343,-0.241 18.0447,0.0061l-0.1073 8.6948 5.885 0.3531 0.8265 -8.6775c6.4172,0.4567 12.8078,1.1938 19.1392,2.2118l-0.7804 8.5843 2.9425 0.3532 1.1611 -8.3762c5.8096,1.0279 11.5643,2.293 17.2382,3.7969l-7.0718 34.9666 1.7025 0.3928 -0.9168 4.0598 -1.8334 -0.3929 -1.0477 5.3694 1.9644 0.3929 -0.7857 4.0598 4.0597 0.3929 -1.0632 16.0394c1.4332,-1.8956 3.6269,-3.5742 6.5933,-5.0317 -2.9491,-1.1058 -3.9784,-3.3603 -3.9715,-5.1017 0.0152,-3.8252 5.166,-6.3959 7.8088,-7.5911 1.8914,-0.8554 6.6583,-3.0056 7.1209,-6.2814 0.2691,-1.9061 -0.8895,-4.0631 -2.6373,-4.1035 -0.3325,-0.0077 -1.1431,0.3066 -1.6833,1.1225 -0.5106,-0.2042 -1.0212,-0.4084 -1.5318,-0.6127 0.7897,-2.0142 2.5375,-2.5654 4.0039,-2.583 1.8854,-0.0226 4.0403,0.5227 6.3098,4.1148 0.8275,-0.4134 1.5259,-1.0423 1.9403,-2.1445 1.6817,4.4322 1.2548,7.8098 -0.9191,10.3138 1.9843,-0.0456 3.8052,0.6445 5.5143,1.8381 -5.7685,2.0905 -1.5718,5.0589 -3.8804,7.0461 0.5488,0.1276 1.0519,0.7811 1.594,1.8078 0.7556,1.4312 2.8738,1.9973 2.6948,-0.7866 1.7701,0.4084 2.4849,2.2465 1.2254,4.9016 8.4803,-1.2893 11.8076,4.3866 8.9863,8.0672 2.76,5.4057 -1.0687,10.2715 -7.1118,9.8744 -0.1614,-0.753 -0.3227,-1.5059 -0.4841,-2.259 4.3557,-0.1244 5.5222,-3.3814 4.0527,-5.8452 -2.0723,-3.4746 -9.8556,-0.1145 -11.7171,0.9038 -5.9574,3.2591 -9.9047,2.0688 -11.6981,-3.7718 -2.8095,2.3725 -1.5311,5.3903 3.8347,9.0536 12.535,8.5577 30.82,20.3604 30.5027,39.3585 -0.0868,5.1964 -2.239,10.5644 -7.0685,15.9687 6.9651,1.5598 10.34,5.7954 10.1652,8.4712 -0.1748,2.6758 -3.4153,7.8257 -11.1333,7.8257 7.6911,-8.1753 3.496,-10.9183 -12.9084,-9.1972 4.5716,0.4841 9.1434,1.3984 13.7151,2.743 -3.1062,5.7147 -4.4239,11.1738 -4.5179,16.4582 4.3389,2.1859 7.3552,4.8826 7.3377,6.7237 -0.0285,3.0185 -2.2597,17.1837 -7.1055,23.7571 -2.6563,3.6033 -11.5046,4.7057 -17.8847,4.1254 -26.4257,-2.4039 -46.7429,-6.0095 -67.2787,-6.0095 -20.5357,0 -41.2899,3.6055 -67.7156,6.0095 -6.3802,0.5803 -15.2284,-0.5221 -17.8848,-4.1254 -4.8457,-6.5734 -7.0769,-20.7386 -7.1054,-23.7571 -0.0175,-1.8411 2.9988,-4.5378 7.3377,-6.7237 -0.094,-5.2844 -1.4117,-10.7435 -4.518,-16.4582 4.5718,-1.3446 9.1436,-2.2589 13.7152,-2.743 -16.4044,-1.7211 -20.5995,1.0219 -12.9084,9.1972 -7.718,0 -10.9585,-5.1499 -11.1333,-7.8257 -0.1748,-2.6758 3.2001,-6.9114 10.1652,-8.4712 -4.8295,-5.4043 -6.9817,-10.7723 -7.0685,-15.9687 -0.3173,-18.9981 17.9677,-30.8008 30.5027,-39.3585 5.3658,-3.6633 6.6442,-6.6811 3.8347,-9.0536 -1.7934,5.8406 -5.7407,7.0309 -11.6981,3.7718 -1.8615,-1.0183 -9.6448,-4.3784 -11.7171,-0.9038 -1.4695,2.4638 -0.303,5.7208 4.0527,5.8452 -0.1614,0.7531 -0.3227,1.506 -0.4841,2.259 -6.0431,0.3971 -9.8718,-4.4687 -7.1118,-9.8744 -2.8213,-3.6806 0.506,-9.3565 8.9863,-8.0672 -1.2595,-2.6551 -0.5447,-4.4932 1.2253,-4.9016 -0.1789,2.7839 1.9392,2.2178 2.6949,0.7866 0.5421,-1.0267 1.0452,-1.6802 1.594,-1.8078 -2.3086,-1.9872 1.8881,-4.9556 -3.8804,-7.0461 1.7091,-1.1936 3.53,-1.8837 5.5143,-1.8381 -2.1739,-2.504 -2.6008,-5.8816 -0.9191,-10.3138 0.4144,1.1022 1.1128,1.7311 1.9402,2.1445 2.2696,-3.5921 4.4245,-4.1374 6.3099,-4.1148 1.4664,0.0176 3.2142,0.5688 4.0039,2.583 -0.5106,0.2043 -1.0212,0.4085 -1.5318,0.6127 -0.5402,-0.8159 -1.3508,-1.1302 -1.6833,-1.1225 -1.7478,0.0404 -2.9064,2.1974 -2.6373,4.1035 0.4626,3.2758 5.2294,5.426 7.1209,6.2814 2.6427,1.1952 7.7936,3.7659 7.8088,7.5911 0.0069,1.7414 -1.0224,3.9959 -3.9715,5.1017 2.8861,1.418 5.0407,3.0453 6.4752,4.8782zm100.075 11.3667l-3.4074 51.4006c0.2681,-0.0969 0.564,-0.1839 0.8879,-0.2606 0.4597,-1.6548 1.3968,-2.4749 2.8112,-2.4598 -0.3733,-2.1798 0.4467,-3.644 2.4598,-4.3925 1.0761,-8.9445 10.2647,-7.3894 15.2232,-6.3853 2.7805,0.563 7.7336,1.5629 9.4613,-3.9337 0.6898,-2.1948 -2.0562,-7.1957 -6.2362,-3.9126 -0.2928,-0.2343 -0.5857,-0.4685 -0.8785,-0.7028 0.8046,-1.95 2.4445,-2.9457 4.9196,-2.9869 -6.1522,-8.2523 -20.8116,-17.0197 -25.2409,-26.3664zm-4.3401 56.8916c-0.9086,2.7904 -2.4675,5.3004 -4.5551,7.5245 2.7453,-1.5431 6.3894,-2.2447 10.9439,-2.7341 -3.4666,-1.7189 -5.3778,-3.355 -6.3888,-4.7904zm-8.0266 10.6162c-17.6008,13.2984 -56.5949,13.3471 -74.3722,0.159 4.0747,6.1235 5.5104,20.8547 3.398,23.0057 23.1894,-2.3248 44.2789,-2.3248 67.4683,0 -2.131,-2.1699 -0.6515,-17.1418 3.5059,-23.1647zm-78.153 -3.2022c-2.0144,-2.1701 -3.5254,-4.6104 -4.4255,-7.3146 -1.0286,1.4113 -2.9301,3.0116 -6.317,4.691 4.4443,0.4777 8.0212,1.1573 10.7425,2.6236zm-33.0536 -75.4042c0.87,0.0791 2.1354,0.4745 2.9263,0.4745 0,0.0791 0.1581,0.3163 0.2372,0.3163l0 0.3955c-0.0791,0 -0.2372,0.2373 -0.3163,0.2373 -0.7909,0.3163 -1.5027,-0.6328 -2.1354,-0.7909 0,-0.0791 -0.2372,-0.2373 -0.3163,-0.2373 0,-0.0791 -0.2373,-0.2373 -0.3164,-0.2373l-0.0791 -0.079 0 -0.0791zm4.1126 -6.8016c0.2372,0.1582 0.5536,0.3954 0.7909,0.4745 0.1581,0.0791 0.4745,0.0791 0.7118,0.0791 0.4745,0.0791 1.4235,0.87 1.8981,0.87 0,0.0791 0.2372,0.3163 0.3163,0.3163 0,0.0791 0.3164,0.5536 0.3954,0.5536 0,0.1582 -0.079,0.3955 -0.079,0.4746l-0.0791 0.0791 -0.0791 0.079c-0.7118,0 -0.9491,-0.2372 -1.5818,-0.6327 -0.2372,-0.1581 -1.5817,-1.2654 -1.5817,-1.5817 -0.1582,0 0,-0.0791 -0.1582,-0.0791 0,-0.0791 -0.0791,-0.1582 -0.1582,-0.1582l-0.0791 -0.0791 0 -0.0791 0 -0.0791 -0.3163 -0.2372zm3.7171 -7.6716c0.3164,0.0791 2.1354,0.6327 2.1354,1.0282l0.0791 0 0.079 0c0,0.0791 0.3164,0.3954 0.3955,0.3954 0,0.0791 0.0791,0.1582 0.1582,0.2373l0 0.6327 -0.0791 0.0791 -0.7118 0 -0.1582 -0.0791c-0.2373,-0.1582 -0.4745,-0.6327 -0.7909,-0.7909 0,-0.0791 -0.0791,-0.1582 -0.1581,-0.1582 0,-0.1581 -0.7909,-1.2654 -0.9491,-1.3445zm140.186 14.4732c-0.87,0.0791 -2.1354,0.4745 -2.9263,0.4745 0,0.0791 -0.1582,0.3163 -0.2372,0.3163l0 0.3955c0.079,0 0.2372,0.2373 0.3163,0.2373 0.7909,0.3163 1.5027,-0.6328 2.1354,-0.7909 0,-0.0791 0.2372,-0.2373 0.3163,-0.2373 0,-0.0791 0.2373,-0.2373 0.3164,-0.2373l0.0791 -0.079 0 -0.0791zm-4.1126 -6.8016c-0.2373,0.1582 -0.5536,0.3954 -0.7909,0.4745 -0.1582,0.0791 -0.4745,0.0791 -0.7118,0.0791 -0.4745,0.0791 -1.4235,0.87 -1.8981,0.87 0,0.0791 -0.2372,0.3163 -0.3163,0.3163 0,0.0791 -0.3164,0.5536 -0.3955,0.5536 0,0.1582 0.0791,0.3955 0.0791,0.4746l0.0791 0.0791 0.0791 0.079c0.7118,0 0.9491,-0.2372 1.5818,-0.6327 0.2372,-0.1581 1.5817,-1.2654 1.5817,-1.5817 0.1582,0 0,-0.0791 0.1582,-0.0791 0,-0.0791 0.0791,-0.1582 0.1582,-0.1582l0.079 -0.0791 0 -0.0791 0 -0.0791 0.3164 -0.2372zm-3.7171 -7.6716c-0.3164,0.0791 -2.1354,0.6327 -2.1354,1.0282l-0.0791 0 -0.0791 0c0,0.0791 -0.3163,0.3954 -0.3954,0.3954 0,0.0791 -0.0791,0.1582 -0.1582,0.2373l0 0.6327 0.0791 0.0791 0.7118 0 0.1582 -0.0791c0.2372,-0.1582 0.4745,-0.6327 0.7908,-0.7909 0,-0.0791 0.0791,-0.1582 0.1582,-0.1582 0,-0.1581 0.7909,-1.2654 0.9491,-1.3445z" />
      <path
         id="_137420368"
         class="fil1"
         d="M56.2712 128.053l0.2101 3.3008c0.2886,3.4261 0.9114,6.8917 2.225,9.6823l23.8929 0 -0.0608 -12.9831 -26.2672 0zm-1.8623 -29.2668l0.8681 13.6432 27.1883 0 -0.0639 -13.6432 -27.9925 0zm-1.8203 -28.6066l0.8822 13.8632 28.8615 0 -0.0649 -13.8632 -29.6788 0zm91.2223 57.8734l-0.2101 3.3008c-0.2886,3.4261 -0.9114,6.8917 -2.225,9.6823l-23.8929 0 0.0608 -12.9831 26.2672 0zm1.8623 -29.2668l-0.8681 13.6432 -27.1883 0 0.0639 -13.6432 27.9925 0zm1.8203 -28.6066l-0.8822 13.8632 -28.8615 0 0.0649 -13.8632 29.6788 0zm-13.4305 125.298c11.223,1.6302 22.0757,2.9073 30.9359,3.8449 8.3165,0.8799 16.9018,-0.1813 18.8171,-3.058 3.1985,-4.8038 5.6074,-11.6796 6.6688,-22.1462 -1.1773,3.5743 -5.2776,6.2035 -11.3577,6.1581 -27.2711,-0.2034 -53.4176,-5.7679 -79.3457,-5.7679 -25.928,0 -51.6376,5.5645 -78.9086,5.7679 -6.0801,0.0453 -10.1804,-2.5838 -11.3577,-6.1581 1.0614,10.4666 3.4703,17.3424 6.6688,22.1462 1.9152,2.8767 10.5006,3.9379 18.8171,3.058 8.8602,-0.9376 19.7031,-2.2839 30.9359,-3.8449 13.471,-1.8721 23.8399,-2.1528 34.2815,-2.1528 10.4417,0 20.9562,0.2806 33.8446,2.1528zm53.2592 -44.2003c-2.8843,5.8712 -4.4363,11.9329 -4.0411,18.2728 -13.3644,-5.3401 -41.6974,-6.9665 -48.3171,0.5271 -0.1811,-8.7814 1.0591,-15.1979 4.6072,-18.8619 2.8796,-2.9738 8.9212,-3.8441 15.8569,-4.0386 8.3377,-0.234 19.0188,1.1676 31.8941,4.1006zm-174.644 0c2.8843,5.8712 4.4363,11.9329 4.0411,18.2728 13.3644,-5.3401 41.6974,-6.9665 48.3171,0.5271 0.1811,-8.7814 -1.0591,-15.1979 -4.6072,-18.8619 -2.8796,-2.9738 -8.9212,-3.8441 -15.8569,-4.0386 -8.3377,-0.234 -19.0188,1.1676 -31.8941,4.1006z" />
      <path
         id="_137809472"
         class="fil2"
         d="M30.5227 125.232c-1.1863,1.6159 -3.4053,2.7074 -5.938,2.7074 -3.1736,0 -5.8546,-1.7137 -6.6284,-4.0258 1.2464,1.8047 3.8844,3.0544 6.9252,3.0544 2.2255,0 4.2349,-0.6696 5.6412,-1.736zm11.0458 -52.3676c-0.3715,-0.2278 -0.7525,-0.4463 -1.1346,-0.6636 0.3361,0.2489 0.6677,0.5004 0.9882,0.7571l0.1464 -0.0935zm1.5289 1.0737c-0.2611,-0.2177 -0.5357,-0.4217 -0.82,-0.6162l-0.2483 0.1426c0.2537,0.2219 0.4966,0.4491 0.725,0.6834l0.3433 -0.2098zm1.3793 1.5215c-0.1984,-0.3056 -0.4213,-0.5863 -0.6641,-0.8475l-0.4617 0.2098c0.23,0.2893 0.4356,0.5907 0.6112,0.9072 0.1715,-0.0899 0.3431,-0.1797 0.5146,-0.2695zm2.2023 64.6116c-0.193,-1.1104 -3.283,-2.4381 -3.4037,-0.9415 0.0603,0.6277 0.5734,0.9475 1.2765,0.851 0.703,-0.0964 1.5962,-0.6095 2.1272,0.0905zm-14.4839 -5.7212c0.7578,-0.3085 1.4784,-0.691 2.1687,-1.1344 0.0727,1.949 1.9513,3.8272 4.2612,4.25 -2.5803,0.0096 -4.7803,-0.8924 -6.4299,-3.1156zm6.6594 -3.2576c1.8366,0.3063 3.3345,1.8157 3.3345,3.3602 0,1.5444 -1.4979,2.5542 -3.3345,2.2479 -1.8365,-0.3064 -3.3344,-1.8158 -3.3344,-3.3602 0,-1.5444 1.4979,-2.5541 3.3344,-2.2479zm6.2313 -1.9566c-2.245,-4.2245 -5.9384,-2.5829 -8.4731,-2.0278 2.4126,0.3004 4.4677,-0.5003 6.1792,1.0306 1.2572,1.1244 1.7932,2.52 0.4834,3.894 -1.4302,-1.3941 -3.0869,-1.9644 -4.885,-2.0198 -5.3941,-0.1663 -5.2537,5.5322 -17.7099,5.0614 1.8213,0.4143 3.4504,1.4814 9.3421,0 3.0231,3.4178 7.3902,3.6371 9.8,3.5278 2.5655,-0.1163 5.5828,-1.6912 4.177,-5.628 1.7622,-0.7964 2.8485,-1.9793 3.2589,-3.5485 1.931,1.4244 1.6656,4.128 -1.4484,6.5902 1.9553,-0.1447 3.3313,-1.0621 4.1279,-2.752 1.9492,0.6216 1.7682,3.1684 -1.2311,5.866 1.8345,-0.4585 3.0897,-1.4241 3.7658,-3.0416 1.3503,-0.1453 1.5159,0.8424 1.5211,1.3609 0.025,2.4774 -4.0759,4.7466 -6.7239,5.3019 -2.6307,0.5515 -5.1611,-0.1546 -7.6984,-0.06 -1.6374,0.061 -2.8391,0.6695 -2.8649,1.7032 -0.0086,0.3443 0.1398,0.7577 0.4856,1.2534 0.4586,-1.8105 3.7416,-2.0277 3.983,-1.0863 0.1981,0.657 -3.3024,2.1477 -8.1599,2.3617 -5.1707,0.2279 -11.5171,-1.4253 -17.3005,-0.9727 -5.761,0.451 -9.2745,1.6619 -9.3236,4.5927 -0.0186,1.1194 0.6693,2.7341 1.9056,4.302 -3.5576,-1.3126 -4.7221,-3.9108 -4.7891,-5.6216 -0.1116,-2.8515 2.873,-9.1612 12.538,-7.1968 -2.4624,-2.4622 -1.0624,-3.4277 -1.4484,-5.2866 6.566,-1.038 8.5696,8.4249 15.3529,5.1418 -5.9626,0.7966 -9.2456,-8.4731 -17.0186,-5.4315 1.0863,1.5691 -0.6517,2.4865 0.6518,4.5625 -0.338,-0.0966 -0.6759,-0.2655 -1.0139,-0.3621 -5.4183,-5.3191 -7.3643,-11.6265 -7.2189,-17.5425 0.2212,-9.0002 2.2949,-15.6512 12.9064,-24.817 6.5366,-5.6461 23.8806,-13.8729 22.6078,-19.7714 -0.3016,-1.3981 -1.4132,-3.0574 -4.1721,-3.7415 0.1571,5.5144 -5.6093,6.3418 -11.5032,3.1692 -11.3609,-6.1154 -16.5443,3.0663 -9.2366,7.3916 -5.3017,0.0849 -6.1279,-4.4957 -4.1344,-8.016 -1.7145,-1.735 -0.5995,-3.9882 0.3725,-5.0727 1.3291,-1.4828 4.7087,-2.0499 7.3086,-1.6045 4.382,0.7507 6.7016,4.229 9.0918,4.5246 1.0538,0.1304 1.9375,-0.4856 2.2283,-0.9793 1.2777,-2.1689 -1.2163,-2.7518 -4.5048,-2.8512 -1.9271,-0.0584 -5.185,-1.7857 -5.6286,-5.0955 1.9261,2.5871 3.1781,-1.4301 5.1856,-1.5414 2.4297,-0.1348 3.6707,3.214 5.9081,4.6828 1.6327,1.0717 3.4224,1.0725 4.1307,-0.1738 0.5087,-0.8951 0.0409,-2.2242 -2.1599,-3.6313 -1.5394,-0.9841 -5.4124,-0.8169 -6.7561,-2.2976 -0.6562,-0.7232 -0.9249,-1.5142 -0.4611,-2.8868 0.4083,-1.209 -0.4697,-2.5438 -1.8477,-3.4415 4.4589,-3.3919 8.3218,2.4741 9.8323,4.1911 1.8572,2.111 3.3455,0.732 3.7483,0.2822 0.4615,-0.5155 1.2116,-2.0616 -1.2421,-3.2343 -2.4616,-1.1763 -8.5128,-2.5964 -10.7178,-5.9988 -0.8672,-1.3381 -0.5798,-3.446 -0.1369,-5.6265 1.1612,0.9032 1.2902,1.3547 2.7094,2.645 0.0742,-1.8878 0.3183,-3.5982 1.2578,-4.4844 0.8291,-0.7821 1.999,-1.1235 3.516,-0.9346 -1.7536,1.1929 -2.718,2.4769 -2.7537,3.8643 -0.0557,2.1643 1.4472,4.6063 7.0112,7.3609 2.2877,1.1325 7.1646,3.7209 7.2766,6.8785 0.1015,2.8606 -2.6632,4.4149 -5.083,5.3784 6.1278,3.103 8.7313,6.6419 9.3899,10.4091 1.4475,8.2794 -10.3606,17.1108 -20.6649,26.1923 5.318,-9.3148 21.2388,-16.1522 15.9539,-27.9442 -0.1982,0.0661 -0.3964,0.1321 -0.5946,0.1982 4.6243,13.1793 -15.029,19.0258 -22.0975,34.4843 -2.0439,1.441 -3.0101,3.4808 -2.6755,6.2428 -1.1561,0.0749 -2.3475,-0.6429 -2.0093,-2.4773 -3.4992,1.1551 -4.0382,5.0807 -1.5097,7.3515 -2.9681,2.8242 -2.3565,7.7531 2.9682,9.1202 -0.9354,0.8095 -1.4391,1.9068 -1.5111,3.292 0.8095,0.0899 1.5111,0.3957 2.2666,0.5936 -0.0495,-1.7178 0.4271,-3.085 1.6729,-3.9395 -3.8293,-0.7915 -4.6589,-2.6698 -4.9168,-4.3398 -0.2277,-1.4735 0.296,-3.4988 2.5423,-4.9424 -1.6189,-1.2412 -3.7236,-2.5903 -1.6189,-4.695 0.8094,1.2052 1.9787,1.3311 3.1839,1.0253 -0.751,-5.0413 2.226,-6.8492 5.4506,-5.6664 -3.3899,1.4393 -3.9631,4.0336 -3.9555,5.6247 0.0127,2.652 2.1314,7.3514 11.0652,4.713 2.7417,-0.8097 7.5445,-1.5628 10.2263,0.0111 1.9651,1.1533 3.282,3.8015 1.8159,6.6057zm124.391 -3.9038c1.1863,1.6159 3.4053,2.7074 5.938,2.7074 3.1736,0 5.8546,-1.7137 6.6284,-4.0258 -1.2464,1.8047 -3.8844,3.0544 -6.9252,3.0544 -2.2255,0 -4.2349,-0.6696 -5.6412,-1.736zm-11.0458 -52.3676c0.3715,-0.2278 0.7525,-0.4463 1.1346,-0.6636 -0.3361,0.2489 -0.6678,0.5004 -0.9882,0.7571l-0.1464 -0.0935zm-1.5289 1.0737c0.2611,-0.2177 0.5357,-0.4217 0.82,-0.6162l0.2483 0.1426c-0.2537,0.2219 -0.4966,0.4491 -0.725,0.6834l-0.3433 -0.2098zm-1.3793 1.5215c0.1984,-0.3056 0.4213,-0.5863 0.664,-0.8475l0.4618 0.2098c-0.23,0.2893 -0.4356,0.5907 -0.6112,0.9072 -0.1716,-0.0899 -0.3431,-0.1797 -0.5146,-0.2695zm-2.2023 64.6116c0.193,-1.1104 3.283,-2.4381 3.4037,-0.9415 -0.0603,0.6277 -0.5734,0.9475 -1.2765,0.851 -0.703,-0.0964 -1.5962,-0.6095 -2.1272,0.0905zm14.4839 -5.7212c-0.7578,-0.3085 -1.4784,-0.691 -2.1687,-1.1344 -0.0727,1.949 -1.9513,3.8272 -4.2612,4.25 2.5803,0.0096 4.7803,-0.8924 6.4299,-3.1156zm-6.6595 -3.2576c-1.8365,0.3063 -3.3344,1.8157 -3.3344,3.3602 0,1.5444 1.4979,2.5542 3.3344,2.2479 1.8366,-0.3064 3.3345,-1.8158 3.3345,-3.3602 0,-1.5444 -1.4979,-2.5541 -3.3345,-2.2479zm-6.2312 -1.9566c2.245,-4.2245 5.9384,-2.5829 8.4731,-2.0278 -2.4126,0.3004 -4.4677,-0.5003 -6.1793,1.0306 -1.2571,1.1244 -1.7931,2.52 -0.4833,3.894 1.4302,-1.3941 3.0869,-1.9644 4.885,-2.0198 5.3941,-0.1663 5.2537,5.5322 17.7099,5.0614 -1.8213,0.4143 -3.4504,1.4814 -9.3422,0 -3.023,3.4178 -7.3901,3.6371 -9.7999,3.5278 -2.5655,-0.1163 -5.5828,-1.6912 -4.177,-5.628 -1.7622,-0.7964 -2.8485,-1.9793 -3.2589,-3.5485 -1.9311,1.4244 -1.6656,4.128 1.4484,6.5902 -1.9553,-0.1447 -3.3313,-1.0621 -4.1279,-2.752 -1.9492,0.6216 -1.7682,3.1684 1.2311,5.866 -1.8345,-0.4585 -3.0898,-1.4241 -3.7658,-3.0416 -1.3503,-0.1453 -1.5159,0.8424 -1.5211,1.3609 -0.025,2.4774 4.0759,4.7466 6.7239,5.3019 2.6307,0.5515 5.1611,-0.1546 7.6984,-0.06 1.6374,0.061 2.8391,0.6695 2.8649,1.7032 0.0086,0.3443 -0.1398,0.7577 -0.4856,1.2534 -0.4586,-1.8105 -3.7416,-2.0277 -3.9831,-1.0863 -0.198,0.657 3.3025,2.1477 8.16,2.3617 5.1707,0.2279 11.5171,-1.4253 17.3005,-0.9727 5.761,0.451 9.2745,1.6619 9.3235,4.5927 0.0187,1.1194 -0.6692,2.7341 -1.9055,4.302 3.5576,-1.3126 4.7221,-3.9108 4.7891,-5.6216 0.1116,-2.8515 -2.873,-9.1612 -12.538,-7.1968 2.4624,-2.4622 1.0623,-3.4277 1.4484,-5.2866 -6.566,-1.038 -8.5696,8.4249 -15.3529,5.1418 5.9626,0.7966 9.2456,-8.4731 17.0186,-5.4315 -1.0863,1.5691 0.6517,2.4865 -0.6518,4.5625 0.338,-0.0966 0.6759,-0.2655 1.0138,-0.3621 5.4184,-5.3191 7.3644,-11.6265 7.219,-17.5425 -0.2212,-9.0002 -2.2949,-15.6512 -12.9064,-24.817 -6.5366,-5.6461 -23.8806,-13.8729 -22.6078,-19.7714 0.3016,-1.3981 1.4132,-3.0574 4.1721,-3.7415 -0.1571,5.5144 5.6093,6.3418 11.5032,3.1692 11.3609,-6.1154 16.5443,3.0663 9.2366,7.3916 5.3017,0.0849 6.1278,-4.4957 4.1344,-8.016 1.7145,-1.735 0.5995,-3.9882 -0.3725,-5.0727 -1.3292,-1.4828 -4.7087,-2.0499 -7.3086,-1.6045 -4.382,0.7507 -6.7016,4.229 -9.0918,4.5246 -1.0538,0.1304 -1.9375,-0.4856 -2.2283,-0.9793 -1.2777,-2.1689 1.2163,-2.7518 4.5048,-2.8512 1.9271,-0.0584 5.185,-1.7857 5.6286,-5.0955 -1.9261,2.5871 -3.1781,-1.4301 -5.1856,-1.5414 -2.4297,-0.1348 -3.6707,3.214 -5.9081,4.6828 -1.6327,1.0717 -3.4224,1.0725 -4.1307,-0.1738 -0.5087,-0.8951 -0.0409,-2.2242 2.1599,-3.6313 1.5394,-0.9841 5.4124,-0.8169 6.7561,-2.2976 0.6562,-0.7232 0.9249,-1.5142 0.4611,-2.8868 -0.4084,-1.209 0.4697,-2.5438 1.8477,-3.4415 -4.459,-3.3919 -8.3218,2.4741 -9.8323,4.1911 -1.8572,2.111 -3.3455,0.732 -3.7483,0.2822 -0.4615,-0.5155 -1.2116,-2.0616 1.2421,-3.2343 2.4616,-1.1763 8.5128,-2.5964 10.7178,-5.9988 0.8672,-1.3381 0.5798,-3.446 0.1369,-5.6265 -1.1612,0.9032 -1.2902,1.3547 -2.7094,2.645 -0.0742,-1.8878 -0.3183,-3.5982 -1.2578,-4.4844 -0.8291,-0.7821 -1.999,-1.1235 -3.516,-0.9346 1.7536,1.1929 2.718,2.4769 2.7537,3.8643 0.0557,2.1643 -1.4472,4.6063 -7.0112,7.3609 -2.2877,1.1325 -7.1646,3.7209 -7.2766,6.8785 -0.1015,2.8606 2.6631,4.4149 5.083,5.3784 -6.1278,3.103 -8.7313,6.6419 -9.3899,10.4091 -1.4475,8.2794 10.3606,17.1108 20.6649,26.1923 -5.318,-9.3148 -21.2388,-16.1522 -15.9539,-27.9442 0.1982,0.0661 0.3964,0.1321 0.5946,0.1982 -4.6243,13.1793 15.0289,19.0258 22.0975,34.4843 2.0439,1.441 3.0101,3.4808 2.6755,6.2428 1.1561,0.0749 2.3475,-0.6429 2.0093,-2.4773 3.4992,1.1551 4.0382,5.0807 1.5096,7.3515 2.9682,2.8242 2.3566,7.7531 -2.9681,9.1202 0.9354,0.8095 1.4391,1.9068 1.5111,3.292 -0.8095,0.0899 -1.5111,0.3957 -2.2666,0.5936 0.0495,-1.7178 -0.4271,-3.085 -1.6729,-3.9395 3.8293,-0.7915 4.6589,-2.6698 4.9168,-4.3398 0.2277,-1.4735 -0.296,-3.4988 -2.5423,-4.9424 1.6189,-1.2412 3.7236,-2.5903 1.6189,-4.695 -0.8094,1.2052 -1.9787,1.3311 -3.1839,1.0253 0.751,-5.0413 -2.226,-6.8492 -5.4506,-5.6664 3.3899,1.4393 3.9631,4.0336 3.9555,5.6247 -0.0127,2.652 -2.1314,7.3514 -11.0652,4.713 -2.7417,-0.8097 -7.5445,-1.5628 -10.2263,0.0111 -1.9651,1.1533 -3.282,3.8015 -1.8159,6.6057zm-140.138 39.2957c0.0348,1.5813 0.0201,3.0511 -0.3414,4.6325 9.4716,-4.0482 23.0491,-5.8906 31.2464,-6.2512 7.5768,-0.3334 18.2756,2.1543 18.4323,5.5416 0.0601,1.3009 -1.0289,2.1286 -3.8214,2.6423 -17.6738,1.1257 -28.9152,3.6086 -36.8092,3.4844 -8.9468,-0.1408 -12.5801,-2.2366 -12.806,-5.6841 -0.0731,-1.1163 0.4491,-2.7512 4.0993,-4.3655zm170.448 0c-0.0348,1.5813 -0.0201,3.0511 0.3414,4.6325 -9.4716,-4.0482 -23.0491,-5.8906 -31.2464,-6.2512 -7.5768,-0.3334 -18.2757,2.1543 -18.4323,5.5416 -0.0601,1.3009 1.0289,2.1286 3.8214,2.6423 17.6738,1.1257 28.9152,3.6086 36.8092,3.4844 8.9468,-0.1408 12.5801,-2.2366 12.8059,-5.6841 0.0732,-1.1163 -0.449,-2.7512 -4.0992,-4.3655zm-129.877 -54.9024l0.8542 13.4231 26.3321 0 -0.0629 -13.4231 -27.1234 0zm-1.8063 -28.3867l0.7982 12.543 28.0573 0 -0.0587 -12.543 -28.7968 0zm28.6605 -29.1089c-9.9336,0.3432 -19.9897,1.1771 -30.316,3.0905l0.6334 9.9547 29.7437 0 -0.0611 -13.0452zm-22.9226 86.1022c3.9738,7.059 11.9061,11.2605 23.3886,13.4231l-0.0629 -13.4231 -23.3257 0zm85.4564 -28.6066l-0.8541 13.4231 -26.3321 0 0.0629 -13.4231 27.1233 0zm1.8063 -28.3867l-0.7981 12.543 -28.0573 0 0.0587 -12.543 28.7967 0zm-28.6604 -29.1089c9.9336,0.3432 19.9897,1.1771 30.316,3.0905l-0.6334 9.9547 -29.7437 0 0.0611 -13.0452zm22.9226 86.1022c-3.9738,7.059 -11.9061,11.2605 -23.3886,13.4231l0.0629 -13.4231 23.3257 0zm-78.7955 -105.24l0.807 2.6229c0.2379,-0.0542 0.4773,-0.1076 0.7178,-0.1608l-0.4701 -2.6772c-0.3541,0.0708 -0.7056,0.1426 -1.0547,0.2151zm-2.3567 -20.4291l-0.5018 -2.8585 -4.0944 0.6906 0.9063 2.9452c1.1974,-0.2699 2.4279,-0.5292 3.6899,-0.7773zm23.1826 -7.1077l-0.2284 -6.5075c-1.0721,0.0837 -2.1435,0.1757 -3.2143,0.2762l0.1295 4.3055 -1.1973 0.1382 0.1088 2.1329c1.4475,-0.1277 2.9152,-0.2431 4.4017,-0.3453zm9.0686 26.5504l-0.7764 -25.7521 -8.951 0.4008 0.2092 2.9572c0.7111,-0.0522 1.4264,-0.1016 2.1462,-0.1477l0.0383 0.7843c-0.7141,0.0468 -1.4236,0.0967 -2.129,0.1495l0.2141 3.0282c0.6837,-0.0514 1.3713,-0.1004 2.0631,-0.1462l0.0383 0.7852c-0.686,0.0464 -1.3679,0.0959 -2.0458,0.1479l0.2212 3.1276c0.6555,-0.0505 1.3146,-0.0987 1.9777,-0.144l0.0384 0.7858c-0.6573,0.0459 -1.3107,0.0947 -1.9604,0.1458l0.2259 3.1962c0.6269,-0.0484 1.2572,-0.0947 1.891,-0.1383l0.0385 0.786c-0.6281,0.0442 -1.2526,0.091 -1.8737,0.1399l0.2421 3.4249c0.5966,-0.0472 1.1962,-0.0923 1.7991,-0.1351l0.0385 0.7868c-0.5972,0.0434 -1.191,0.089 -1.7818,0.1367l0.2001 2.831c0.5705,-0.0462 1.1438,-0.0905 1.7202,-0.1328l0.0386 0.7875c-0.5707,0.0427 -1.1382,0.0875 -1.703,0.1342l0.1794 2.5368c2.5735,-0.209 5.2105,-0.3693 7.9012,-0.4761zm-16.3586 -25.1275l0.3183 3.3073c1.5481,-0.1596 3.1219,-0.3046 4.7194,-0.4345l-0.2439 -3.3175c-1.6232,0.1325 -3.222,0.2808 -4.7938,0.4447zm3.42 3.8071l0.1547 3.0344c0.5778,-0.0526 1.1591,-0.1033 1.7437,-0.1519l-0.2227 -3.028c-0.5616,0.0465 -1.1202,0.0951 -1.6757,0.1455zm-2.5036 4.0975l0.3003 3.1196c1.4411,-0.152 2.9048,-0.2915 4.3897,-0.4177l-0.23 -3.1273c-1.509,0.1281 -2.9964,0.2701 -4.46,0.4254zm3.1278 3.639l0.163 3.1964c0.5609,-0.0521 1.125,-0.1022 1.692,-0.1505l-0.2348 -3.1927c-0.543,0.0471 -1.083,0.096 -1.6202,0.1468zm-4.8349 15.0578c1.0154,-0.138 2.0451,-0.268 3.0879,-0.3896l-1.086 -8.04c-0.1146,-0.848 -0.9021,-1.4483 -1.7503,-1.3338l0 0c-0.8481,0.1146 -1.4484,0.9022 -1.3338,1.7504l1.0822 8.013zm2.1826 -11.5815c0.6037,-0.0641 1.2113,-0.1261 1.823,-0.1857l-0.1629 -3.1947c-0.9158,0.0907 -1.8228,0.1864 -2.7203,0.2874l-0.0344 -0.3029 -0.0231 0.0024 -0.3479 -3.6144c-0.0126,0.0014 -0.0253,0.0027 -0.0378,0.0041l-0.0904 -0.7973c0.9187,-0.1001 1.847,-0.1948 2.7842,-0.2845l-0.1547 -3.0348c-1.0009,0.0954 -1.9915,0.1968 -2.9712,0.3045l-0.0331 -0.2916 -0.0467 0.0047 -0.3669 -3.8116c-0.0059,0.0007 -0.0117,0.0013 -0.0176,0.0019l-0.0902 -0.7961c0.9873,-0.1057 1.9856,-0.2053 2.9939,-0.2989l-0.1075 -2.1085 -1.285 0.1482 -0.4618 -4.3156c-1.0854,0.1212 -2.1702,0.2506 -3.2543,0.388l0.3181 4.2472 -2.9391 0.4763 -0.6333 -4.2876c-0.7661,0.1081 -1.5318,0.22 -2.2973,0.3356l0.7959 6.2707c0.452,-0.0645 0.9066,-0.1278 1.3644,-0.1897l0.0895 0.8103c-0.4532,0.0626 -0.9033,0.1266 -1.3508,0.1918l0.4164 3.2808c0.43,-0.0615 0.8625,-0.1221 1.2977,-0.1813l0.0895 0.8105c-0.4307,0.0599 -0.8586,0.1211 -1.2841,0.1833l0.3809 3.0007c0.4094,-0.0592 0.8211,-0.1176 1.2354,-0.1746l0.0896 0.8115c-0.4098,0.0576 -0.8168,0.1166 -1.2217,0.1765l0.3931 3.0982c0.3885,-0.0566 0.7788,-0.1124 1.1716,-0.167l0.0897 0.8125c-0.3882,0.0551 -0.774,0.1116 -1.1579,0.1688l1.8225 14.359c0.2643,-0.0426 0.5298,-0.0844 0.7963,-0.1259l-1.1617 -8.6014c-0.2822,-2.0891 1.1962,-4.0293 3.2854,-4.3115l0 0c1.1273,-0.1523 2.2111,0.2083 3.0146,0.9007zm1.528 4.0948c1.0841,-0.1106 2.1806,-0.2144 3.2892,-0.3105l-0.2517 -3.4244c-1.3192,0.1144 -2.6213,0.2396 -3.9055,0.375 0.3294,0.4783 0.5542,1.0377 0.637,1.6499l0.231 1.71zm0.4869 3.6056c0.143,-0.0146 0.2862,-0.0293 0.4297,-0.0438l-0.1448 -2.8375c-0.2221,0.0223 -0.4436,0.0451 -0.6648,0.0681l0.3799 2.8132zm1.4624 0.6548l0.0004 0.0078 -0.1828 0.0102c-0.3927,0.039 -0.7835,0.0791 -1.1729,0.12l0.3409 2.5241c0.945,-0.1014 1.9003,-0.1962 2.8653,-0.2839l-0.1865 -2.5357c-0.5579,0.0505 -1.1127,0.1032 -1.6644,0.1575zm-0.1853 -3.6337l0.1447 2.8371c0.5459,-0.0526 1.0949,-0.1036 1.6469,-0.1525l-0.2082 -2.8309c-0.5306,0.047 -1.0584,0.0959 -1.5834,0.1463zm-14.9337 4.8768l-0.4862 -2.7695c-1.325,0.2418 -2.6184,0.4957 -3.878,0.7612l0.8261 2.6851c1.1528,-0.235 2.3325,-0.4609 3.5381,-0.6768zm-2.9934 -3.1548l-0.5862 -3.3387c-0.6879,0.1372 -1.3662,0.2779 -2.0349,0.4217l0.9977 3.2428c0.5353,-0.1106 1.0764,-0.2193 1.6234,-0.3258zm1.9401 -4.6709l-0.5419 -3.0871c-1.7885,0.3277 -3.519,0.6777 -5.1863,1.0484l0.9137 2.9697c1.5546,-0.328 3.1608,-0.6387 4.8145,-0.931zm-3.2413 -3.4332l-0.5353 -3.0487c-1.0612,0.2136 -2.0996,0.4354 -3.1141,0.6649l0.9083 2.9522c0.8961,-0.1953 1.81,-0.3849 2.7411,-0.5684zm2.2627 -4.435l-0.5203 -2.9638c-2.2702,0.4091 -4.4488,0.8541 -6.5252,1.3316l0.8785 2.8552c1.9703,-0.4369 4.029,-0.8453 6.167,-1.223zm0.4601 -3.1374l0.5209 2.9672c0.1335,-0.0227 0.2672,-0.0455 0.4014,-0.068l0.1109 0.8257c-1.1267,0.1933 -2.2317,0.3953 -3.3144,0.6055l0.536 3.0529c1.0441,-0.1985 2.1086,-0.3896 3.1929,-0.5727l0.111 0.8263c-0.2015,0.0348 -0.4022,0.0699 -0.6022,0.1053l0.543 3.0931c0.1589,-0.0272 0.3182,-0.0541 0.478,-0.0809l0.1108 0.8254c-1.0589,0.1812 -2.0988,0.3704 -3.1189,0.5666l0.587 3.343c0.9778,-0.1838 1.9731,-0.3612 2.9857,-0.5315l0.111 0.8259c-0.1966,0.0338 -0.3923,0.0681 -0.5875,0.1023l0.4867 2.7728c0.1583,-0.0273 0.3168,-0.0547 0.476,-0.0817l0.111 0.8267c-0.9566,0.1658 -1.8972,0.3381 -2.8217,0.5164l0.4667 2.658c1.5847,-0.3363 3.2225,-0.6509 4.9081,-0.9422l-3.2711 -25.7765 -6.0125 1.0142 0.4978 2.8355c1.1437,-0.217 2.3119,-0.4252 3.5034,-0.6237l0.1108 0.8247c-0.1742,0.0297 -0.3477,0.0597 -0.5208,0.0897zm-13.9202 2.2406l-0.6306 -3.1322c-0.39,0.1157 -0.7748,0.2327 -1.1543,0.3509l0.6312 3.1196c0.3796,-0.114 0.7642,-0.2269 1.1537,-0.3383zm1.6572 7.591l-0.5988 -2.9745c-0.4293,0.1253 -0.8523,0.2524 -1.2694,0.3808l0.5994 2.9628c0.4171,-0.1244 0.84,-0.2477 1.2688,-0.3691zm0.0045 6.6618l1.8464 9.1259c0.8263,-0.2848 1.6799,-0.5618 2.5594,-0.8311l-1.7634 -7.5772c-0.1941,-0.8333 -1.0346,-1.3567 -1.8682,-1.1629l0 0c-0.307,0.0715 -0.5717,0.2311 -0.7742,0.4453zm0.3571 -9.9107l0.6003 2.9819c0.591,-0.161 1.1923,-0.3195 1.804,-0.4748l0.2582 0.8451c-1.4286,0.3706 -2.8006,0.7577 -4.1119,1.1601l0.4779 2.362c0.0179,-0.0044 0.0355,-0.0091 0.0535,-0.0133l0 0c2.0532,-0.4779 4.1241,0.8111 4.6021,2.8644l1.8696 8.0342c1.0795,-0.3094 2.1946,-0.6073 3.3437,-0.8928l-7.6671 -26.1203 0.0451 -0.0089 -0.054 -0.1798c2.7405,-0.6744 5.6764,-1.2906 8.781,-1.8419l-0.9574 -6.2235c-0.5559,0.0975 -1.1117,0.1969 -1.6673,0.2981l0.3407 4.3025 -3.6652 0.6274 -0.6757 -4.1705c-1.0415,0.2055 -2.0824,0.4173 -3.1229,0.6346l0.784 4.32 -3.6071 0.8016 -0.9157 -4.3157c-0.6107,0.1356 -1.2214,0.2728 -1.8317,0.4122l1.3307 6.5768c0.9422,-0.2856 1.9153,-0.5634 2.9181,-0.8331l0.2606 0.8528c-0.2972,0.0817 -0.5917,0.1645 -0.8835,0.2477l0.6324 3.1413c0.3917,-0.1078 0.7879,-0.2147 1.1888,-0.32l0.2595 0.8494c-1.1679,0.3136 -2.2959,0.6387 -3.382,0.9741l0.5804 2.8686c1.175,-0.3519 2.3976,-0.6921 3.6644,-1.0194l0.2588 0.8474c-0.5117,0.135 -1.0157,0.2726 -1.5123,0.4118zm85.8776 13.7443l-0.8164 2.6229c-0.2407,-0.0542 -0.4828,-0.1076 -0.7261,-0.1608l0.4754 -2.6772c0.3583,0.0708 0.7139,0.1426 1.0671,0.2151zm2.3841 -20.4291l0.5077 -2.8585 4.1419 0.6906 -0.9167 2.9452c-1.2114,-0.2699 -2.4562,-0.5292 -3.7329,-0.7773zm-23.4524 -7.1077l0.2311 -6.5075c1.0846,0.0837 2.1684,0.1757 3.2517,0.2762l-0.1309 4.3055 1.2111 0.1382 -0.11 2.1329c-1.4643,-0.1277 -2.9491,-0.2431 -4.453,-0.3453zm-9.1741 26.5504l0.7855 -25.7521 9.0551 0.4008 -0.2116 2.9572c-0.7194,-0.0522 -1.443,-0.1016 -2.1712,-0.1477l-0.0387 0.7843c0.7223,0.0468 1.4401,0.0967 2.1537,0.1495l-0.2166 3.0282c-0.6916,-0.0514 -1.3872,-0.1004 -2.087,-0.1462l-0.0388 0.7852c0.694,0.0464 1.3838,0.0959 2.0696,0.1479l-0.2238 3.1276c-0.6631,-0.0505 -1.3298,-0.0987 -2.0007,-0.144l-0.0388 0.7858c0.6649,0.0459 1.3259,0.0947 1.9832,0.1458l-0.2286 3.1962c-0.6341,-0.0484 -1.2718,-0.0947 -1.913,-0.1383l-0.0389 0.786c0.6353,0.0442 1.2671,0.091 1.8955,0.1399l-0.245 3.4249c-0.6035,-0.0472 -1.2101,-0.0923 -1.82,-0.1351l-0.0389 0.7868c0.6042,0.0434 1.2048,0.089 1.8026,0.1367l-0.2025 2.831c-0.5771,-0.0462 -1.1571,-0.0905 -1.7403,-0.1328l-0.0389 0.7875c0.5772,0.0427 1.1513,0.0875 1.7227,0.1342l-0.1814 2.5368c-2.6035,-0.209 -5.2712,-0.3693 -7.9932,-0.4761zm-5.7192 -0.1448c-0.698,-0.008 -1.3988,-0.0128 -2.1024,-0.0138 -0.3373,0.0005 -0.6737,0.002 -1.0097,0.0041l0 -7.8104c0,-0.8558 0.7002,-1.556 1.556,-1.556l0 0c0.8559,0 1.5561,0.7003 1.5561,1.556l0 7.8201zm-2.1023 -33.4932c0.5298,-0.0061 1.0591,-0.0099 1.5886,-0.0115l0.1257 5.0918 3.3788 0.1336 0.1223 -5.201c0.63,0.0103 1.2596,0.0236 1.889,0.0402l-0.1832 6.7272c-0.4763,-0.0211 -0.9541,-0.0413 -1.4341,-0.0597l-0.0201 0.7845c0.4795,0.019 0.957,0.0397 1.4328,0.0615l-0.0907 3.3264c-0.474,-0.0219 -0.9496,-0.0427 -1.4273,-0.0619l-0.0201 0.7851c0.4773,0.0198 0.9525,0.0413 1.426,0.0638l-0.0826 3.0346c-0.472,-0.0227 -0.9455,-0.0442 -1.4211,-0.0643l-0.0201 0.7859c0.4752,0.0207 0.9484,0.043 1.4198,0.0663l-0.0855 3.135c-0.4696,-0.0236 -0.9411,-0.0461 -1.4146,-0.0671l-0.0202 0.7865c0.4732,0.0217 0.9441,0.0448 1.4134,0.0691l-0.0873 3.2047c-0.4676,-0.0237 -0.9369,-0.0462 -1.4082,-0.0673l-0.0202 0.7867c0.4709,0.0218 0.9398,0.0451 1.4069,0.0695l-0.0935 3.4331c-0.4653,-0.0245 -0.9322,-0.0479 -1.4012,-0.0699l-0.0202 0.7876c0.4686,0.0226 0.9351,0.0468 1.4,0.072l-0.0774 2.8381c-0.4632,-0.0255 -0.9283,-0.0498 -1.3953,-0.0728l-0.0202 0.7881c0.4667,0.0236 0.9312,0.0487 1.394,0.0749l-0.0629 2.3096c-0.8359,-0.026 -1.6769,-0.047 -2.5219,-0.0631l0 -8.4065c0,-2.1082 -1.7249,-3.833 -3.833,-3.833l0 0c-2.1082,0 -3.833,1.7248 -3.833,3.833l0 8.4139c-0.7112,0.015 -1.4194,0.0335 -2.124,0.0557l-0.0622 -2.3096c0.4575,-0.0262 0.9167,-0.0513 1.378,-0.0749l-0.02 -0.7881c-0.4616,0.023 -0.9213,0.0473 -1.3792,0.0728l-0.0765 -2.8381c0.4595,-0.0252 0.9207,-0.0494 1.3838,-0.072l-0.0199 -0.7876c-0.4636,0.022 -0.9252,0.0454 -1.3851,0.0699l-0.0925 -3.4331c0.4618,-0.0244 0.9253,-0.0477 1.3907,-0.0695l-0.0199 -0.7867c-0.4658,0.0211 -0.9297,0.0436 -1.392,0.0673l-0.0863 -3.2047c0.4639,-0.0243 0.9294,-0.0474 1.3971,-0.0691l-0.0199 -0.7865c-0.468,0.021 -0.9341,0.0435 -1.3984,0.0671l-0.0844 -3.135c0.466,-0.0233 0.9337,-0.0456 1.4034,-0.0663l-0.0198 -0.7859c-0.4702,0.0201 -0.9382,0.0416 -1.4048,0.0643l-0.0817 -3.0346c0.4681,-0.0225 0.9379,-0.044 1.4096,-0.0638l-0.0198 -0.7851c-0.4722,0.0192 -0.9424,0.04 -1.411,0.0619l-0.0895 -3.3264c0.4702,-0.0218 0.9423,-0.0425 1.4162,-0.0615l-0.0199 -0.7845c-0.4743,0.0184 -0.9468,0.0386 -1.4175,0.0597l-0.1811 -6.7272c0.6221,-0.0166 1.2445,-0.0299 1.8672,-0.0402l0.121 5.201 3.3399 -0.1336 0.1242 -5.0918c0.5234,0.0016 1.0472,0.0054 1.5709,0.0115zm-0.3129 34.6434l0 -0.0014c0.1044,0 0.2085,0.0005 0.3127,0.0007 0.103,-0.0003 0.2058,-0.0007 0.309,-0.0007l0 0.0014c19.4506,0.0574 36.8418,2.8015 48.309,7.0602l-0.2765 1.1847 -1.178 -0.1552c-11.5197,-3.9821 -28.3945,-6.5119 -47.1635,-6.5397 -18.5532,0.0278 -35.2339,2.5576 -46.6212,6.5397l-1.1644 0.1552 -0.2734 -1.1847c11.334,-4.2581 28.5223,-7.0021 47.7463,-7.0602zm0 2.7138l0 -0.0014c0.1043,0 0.2085,0.0004 0.3127,0.0007 0.1029,-0.0003 0.2058,-0.0007 0.309,-0.0007l0 0.0014c18.0904,0.0533 34.3992,2.4308 45.818,6.1893l-0.4417 2.1825c-11.4613,-3.6965 -27.7036,-6.0197 -45.6853,-6.0464 -17.7749,0.0267 -33.8305,2.3499 -45.16,6.0464l-0.4366 -2.1825c11.2859,-3.7579 27.4045,-6.1353 45.2839,-6.1893zm0 3.4891l0 -0.0013c0.1043,0 0.2085,0.0004 0.3127,0.0007 0.1029,-0.0002 0.2058,-0.0007 0.309,-0.0007l0 0.0013c17.743,0.0524 33.7731,2.3399 45.1556,5.9738l-0.4424 2.187c-11.4204,-3.5738 -27.3848,-5.8092 -45.0222,-5.8353 -17.4347,0.0261 -33.2154,2.2615 -44.5045,5.8353l-0.4373 -2.187c11.25,-3.6334 27.093,-5.9208 44.6291,-5.9738zm24.6834 -32.3358l-0.322 3.3073c-1.5661,-0.1596 -3.1583,-0.3046 -4.7744,-0.4345l0.2468 -3.3175c1.6421,0.1325 3.2595,0.2808 4.8496,0.4447zm-3.4598 3.8071l-0.1565 3.0344c-0.5846,-0.0526 -1.1726,-0.1033 -1.764,-0.1519l0.2253 -3.028c0.5681,0.0465 1.1332,0.0951 1.6952,0.1455zm2.5327 4.0975l-0.3037 3.1196c-1.4579,-0.152 -2.9387,-0.2915 -4.4408,-0.4177l0.2327 -3.1273c1.5265,0.1281 3.0311,0.2701 4.5118,0.4254zm-3.1642 3.639l-0.1649 3.1964c-0.5674,-0.0521 -1.1381,-0.1022 -1.7117,-0.1505l0.2375 -3.1927c0.5494,0.0471 1.0957,0.096 1.6391,0.1468zm4.8911 15.0578c-1.0272,-0.138 -2.0688,-0.268 -3.1237,-0.3896l1.0986 -8.04c0.1159,-0.848 0.9126,-1.4483 1.7707,-1.3338l0 0c0.858,0.1146 1.4653,0.9022 1.3493,1.7504l-1.0949 8.013zm-2.2079 -11.5815c-0.6108,-0.0641 -1.2254,-0.1261 -1.8442,-0.1857l0.1648 -3.1947c0.9264,0.0907 1.8439,0.1864 2.752,0.2874l0.0347 -0.3029 0.0233 0.0024 0.352 -3.6144c0.0128,0.0014 0.0256,0.0027 0.0383,0.0041l0.0915 -0.7973c-0.9295,-0.1001 -1.8686,-0.1948 -2.8167,-0.2845l0.1565 -3.0348c1.0125,0.0954 2.0147,0.1968 3.0058,0.3045l0.0335 -0.2916 0.0473 0.0047 0.3711 -3.8116c0.0059,0.0007 0.0119,0.0013 0.0178,0.0019l0.0912 -0.7961c-0.9988,-0.1057 -2.0087,-0.2053 -3.0287,-0.2989l0.1088 -2.1085 1.3 0.1482 0.467 -4.3156c1.0981,0.1212 2.1955,0.2506 3.2923,0.388l-0.3218 4.2472 2.9733 0.4763 0.6406 -4.2876c0.7751,0.1081 1.5497,0.22 2.3241,0.3356l-0.8052 6.2707c-0.4573,-0.0645 -0.9172,-0.1278 -1.3803,-0.1897l-0.0905 0.8103c0.4585,0.0626 0.9138,0.1266 1.3665,0.1918l-0.4213 3.2808c-0.4349,-0.0615 -0.8725,-0.1221 -1.3128,-0.1813l-0.0905 0.8105c0.4358,0.0599 0.8686,0.1211 1.299,0.1833l-0.3852 3.0007c-0.4143,-0.0592 -0.8308,-0.1176 -1.2499,-0.1746l-0.0906 0.8115c0.4145,0.0576 0.8262,0.1166 1.2359,0.1765l-0.3977 3.0982c-0.393,-0.0566 -0.7879,-0.1124 -1.1852,-0.167l-0.0908 0.8125c0.3928,0.0551 0.7831,0.1116 1.1715,0.1688l-1.8438 14.359c-0.2674,-0.0426 -0.5359,-0.0844 -0.8055,-0.1259l1.1752 -8.6014c0.2854,-2.0891 -1.2102,-4.0293 -3.3237,-4.3115l0 0c-1.1403,-0.1523 -2.2368,0.2083 -3.0496,0.9007zm-1.5458 4.0948c-1.0967,-0.1106 -2.206,-0.2144 -3.3275,-0.3105l0.2547 -3.4244c1.3344,0.1144 2.6518,0.2396 3.9509,0.375 -0.3332,0.4783 -0.5607,1.0377 -0.6444,1.6499l-0.2337 1.71zm-0.4926 3.6056c-0.1446,-0.0146 -0.2895,-0.0293 -0.4346,-0.0438l0.1464 -2.8375c0.2247,0.0223 0.4488,0.0451 0.6726,0.0681l-0.3844 2.8132zm-1.4794 0.6548l-0.0004 0.0078 0.185 0.0102c0.3972,0.039 0.7926,0.0791 1.1865,0.12l-0.3449 2.5241c-0.956,-0.1014 -1.9223,-0.1962 -2.8986,-0.2839l0.1886 -2.5357c0.5645,0.0505 1.1257,0.1032 1.6838,0.1575zm0.1875 -3.6337l-0.1464 2.8371c-0.5523,-0.0526 -1.1076,-0.1036 -1.666,-0.1525l0.2106 -2.8309c0.5368,0.047 1.0707,0.0959 1.6018,0.1463zm15.1075 4.8768l0.4917 -2.7695c1.3405,0.2418 2.6489,0.4957 3.9232,0.7612l-0.8358 2.6851c-1.1661,-0.235 -2.3596,-0.4609 -3.5791,-0.6768zm3.0282 -3.1548l0.593 -3.3387c0.6959,0.1372 1.3821,0.2779 2.0586,0.4217l-1.0094 3.2428c-0.5414,-0.1106 -1.0888,-0.2193 -1.6422,-0.3258zm-1.9627 -4.6709l0.5482 -3.0871c1.8093,0.3277 3.5599,0.6777 5.2467,1.0484l-0.9244 2.9697c-1.5726,-0.328 -3.1975,-0.6387 -4.8705,-0.931zm3.279 -3.4332l0.5415 -3.0487c1.0736,0.2136 2.124,0.4354 3.1504,0.6649l-0.9189 2.9522c-0.9065,-0.1953 -1.8311,-0.3849 -2.773,-0.5684zm-2.2891 -4.435l0.5264 -2.9638c2.2966,0.4091 4.5005,0.8541 6.6012,1.3316l-0.8888 2.8552c-1.9932,-0.4369 -4.0759,-0.8453 -6.2388,-1.223zm-0.4654 -3.1374l-0.5269 2.9672c-0.1351,-0.0227 -0.2704,-0.0455 -0.4061,-0.068l-0.1122 0.8257c1.1398,0.1933 2.2577,0.3953 3.3529,0.6055l-0.5422 3.0529c-1.0562,-0.1985 -2.1331,-0.3896 -3.23,-0.5727l-0.1124 0.8263c0.204,0.0348 0.407,0.0699 0.6093,0.1053l-0.5493 3.0931c-0.1607,-0.0272 -0.3219,-0.0541 -0.4835,-0.0809l-0.1122 0.8254c1.0713,0.1812 2.1232,0.3704 3.1552,0.5666l-0.5938 3.343c-0.9892,-0.1838 -1.9961,-0.3612 -3.0205,-0.5315l-0.1122 0.8259c0.1989,0.0338 0.3968,0.0681 0.5943,0.1023l-0.4924 2.7728c-0.1601,-0.0273 -0.3205,-0.0547 -0.4815,-0.0817l-0.1123 0.8267c0.9677,0.1658 1.9193,0.3381 2.8545,0.5164l-0.472 2.658c-1.6033,-0.3363 -3.2601,-0.6509 -4.9654,-0.9422l3.3092 -25.7765 6.0824 1.0142 -0.5035 2.8355c-1.157,-0.217 -2.3387,-0.4252 -3.5441,-0.6237l-0.1121 0.8247c0.1762,0.0297 0.3517,0.0597 0.5268,0.0897zm14.0822 2.2406l0.638 -3.1322c0.3944,0.1157 0.7837,0.2327 1.1677,0.3509l-0.6386 3.1196c-0.3841,-0.114 -0.7731,-0.2269 -1.1671,-0.3383zm-1.6765 7.591l0.6057 -2.9745c0.4344,0.1253 0.8623,0.2524 1.2843,0.3808l-0.6065 2.9628c-0.4219,-0.1244 -0.8497,-0.2477 -1.2835,-0.3691zm-0.0045 6.6618l-1.8679 9.1259c-0.836,-0.2848 -1.6995,-0.5618 -2.5892,-0.8311l1.7839 -7.5772c0.1963,-0.8333 1.0467,-1.3567 1.8899,-1.1629l0 0c0.3106,0.0715 0.5784,0.2311 0.7833,0.4453zm-0.3613 -9.9107l-0.6073 2.9819c-0.5979,-0.161 -1.2062,-0.3195 -1.8249,-0.4748l-0.2612 0.8451c1.4451,0.3706 2.8331,0.7577 4.1597,1.1601l-0.4835 2.362c-0.0181,-0.0044 -0.0359,-0.0091 -0.0542,-0.0133l0 0c-2.077,-0.4779 -4.172,0.8111 -4.6556,2.8644l-1.8914 8.0342c-1.092,-0.3094 -2.22,-0.6073 -3.3825,-0.8928l7.7563 -26.1203 -0.0456 -0.0089 0.0545 -0.1798c-2.7723,-0.6744 -5.7424,-1.2906 -8.8831,-1.8419l0.9686 -6.2235c0.5623,0.0975 1.1246,0.1969 1.6866,0.2981l-0.3446 4.3025 3.7078 0.6274 0.6836 -4.1705c1.0536,0.2055 2.1066,0.4173 3.1592,0.6346l-0.7931 4.32 3.6491 0.8016 0.9263 -4.3157c0.6178,0.1356 1.2356,0.2728 1.8531,0.4122l-1.3462 6.5768c-0.9532,-0.2856 -1.9376,-0.5634 -2.9521,-0.8331l-0.2636 0.8528c0.3007,0.0817 0.5985,0.1645 0.8938,0.2477l-0.6398 3.1413c-0.3963,-0.1078 -0.7971,-0.2147 -1.2026,-0.32l-0.2625 0.8494c1.1815,0.3136 2.3226,0.6387 3.4213,0.9741l-0.5871 2.8686c-1.1887,-0.3519 -2.4255,-0.6921 -3.7071,-1.0194l-0.2618 0.8474c0.5176,0.135 1.0275,0.2726 1.5299,0.4118zm-48.0607 25.7489l0 -0.0021c15.4654,-0.0322 30.7554,2.0168 45.87,6.1476l0.6041 -2.0302c-11.4454,-3.8852 -28.0339,-6.3544 -46.4741,-6.4088l0 -0.0013c-0.1032,0 -0.206,0.0005 -0.309,0.0007 -0.1042,-0.0003 -0.2084,-0.0007 -0.3127,-0.0007l0 0.0013c-18.2253,0.0551 -34.6202,2.524 -45.9325,6.4088l0.5971 2.0302c14.9384,-4.1302 30.0504,-6.1791 45.3354,-6.1476l0 0.0021c0.1042,-0.0006 0.2085,-0.0008 0.3127,-0.0011 0.1029,0.0003 0.206,0.0006 0.309,0.0011zm44.2609 7.7789c-12.8667,-3.9242 -28.0687,-6.1993 -44.3332,-6.1993 -16.2646,0 -31.4665,2.2751 -44.3332,6.1993 13.2553,-2.9821 28.343,-4.6752 44.3332,-4.6752 15.9902,0 31.0779,1.6931 44.3332,4.6752z" />
      <path
         id="_137772976"
         class="fil3"
         d="M16.2872 183.64c-0.0756,-0.3737 -0.16,-0.6701 -0.2564,-0.8909 -0.0917,-0.2109 -0.2241,-0.3817 -0.4269,-0.5161 -0.1904,-0.126 -0.5129,-0.2332 -0.8717,-0.3153 0,-0.1636 0,-0.3292 -0.0168,-0.4972 1.6914,0.21 3.4001,0.4184 5.1259,0.5593 0.0172,0.172 0.0172,0.344 0.0172,0.5136 -0.376,0.0264 -0.6325,0.0572 -0.7861,0.0952 -0.154,0.0381 -0.2712,0.1697 -0.3757,0.3881 -0.1008,0.2104 -0.122,0.5677 -0.0172,1.0678 0.3393,1.6182 0.7766,3.2344 1.2302,4.8559 0.4521,1.615 0.9342,3.2304 1.2646,4.8543 0.114,0.5609 0.1892,0.9833 0.3077,1.2534 0.1208,0.2768 0.2428,0.4712 0.4612,0.6089 0.1749,0.1104 0.4613,0.216 0.8886,0.3068 0,0.178 0,0.3561 0.0168,0.5341 -1.6743,-0.2917 -3.3489,-0.6569 -5.0064,-1.0138 -0.0172,-0.172 -0.0172,-0.3436 -0.0344,-0.5156 0.3421,0.0284 0.6189,0.022 0.8205,-0.056 0.1573,-0.0613 0.2737,-0.2057 0.3245,-0.4093 0.0516,-0.206 0.048,-0.5141 -0.034,-0.9089 -0.3457,-1.6611 -0.8477,-3.3097 -1.333,-4.9552 -0.4885,-1.6574 -0.9642,-3.3053 -1.2986,-4.9591zm89.606 -3.6809c-0.0172,-0.0168 -0.0172,-0.0352 -0.034,-0.0496 -0.0856,-0.2301 -0.1881,-0.4177 -0.3249,-0.5645 -0.1708,-0.1533 -0.3416,-0.2533 -0.5297,-0.3069 -0.188,-0.0532 -0.4272,-0.0988 -0.6833,-0.1284 -0.0516,-0.154 -0.0856,-0.308 -0.154,-0.4621 0.7349,0.0188 1.4526,0.0416 2.1871,0.0684 0.0344,-0.0976 0.0684,-0.1912 0.1197,-0.2888 0.1368,0.0056 0.2564,0.0092 0.376,0.0144 0.034,0.0988 0.0684,0.1952 0.0852,0.2937 0.6325,0.0216 1.2646,0.0436 1.9139,0.0672 0.5981,0.0196 1.179,0.1304 1.8115,0.3364 0.5981,0.2076 1.1445,0.5453 1.623,1.011 0.4957,0.47 0.8373,1.0733 1.0254,1.8122 0.3588,1.4606 -0.1709,2.4116 -1.5379,2.87 0,0.0104 0,0.0225 0,0.0329 0.6153,0.1668 1.145,0.4184 1.6063,0.7529 0.4784,0.3308 0.8713,0.7345 1.1617,1.2101 0.3077,0.4785 0.5469,1.017 0.6665,1.6095 0.1537,0.6441 0.1369,1.2374 0.0172,1.7758 -0.1368,0.5365 -0.4444,0.9622 -0.9741,1.269 -0.5125,0.3113 -1.2302,0.4357 -2.2043,0.3793 -0.3929,-0.0148 -0.7689,-0.0276 -1.1618,-0.0404 -1.0253,-0.0344 -2.0847,-0.0692 -3.1269,-0.104 -0.4616,-0.0156 -0.9229,-0.0312 -1.3842,-0.0468 0.0172,-0.1597 0.0172,-0.3189 0.0172,-0.4785 0.3073,0.0116 0.5809,-0.022 0.803,-0.0972 0.188,-0.0772 0.3076,-0.2745 0.3248,-0.5933 0,-0.2249 -0.0512,-0.4629 -0.0856,-0.7149 -0.1708,-0.6237 -0.3417,-1.2478 -0.4785,-1.8711 -1.0421,-0.0324 -2.1019,-0.0428 -3.1612,-0.0532 -0.2221,0.6209 -0.4101,1.2426 -0.5977,1.8643 0,0.1248 -0.0684,0.3428 -0.12,0.6573 0.0516,0.328 0.154,0.5396 0.376,0.6385 0.2052,0.1008 0.4957,0.1532 0.8033,0.1528 0,0.1592 0,0.3188 0,0.4805 -0.9569,-0.0008 -1.8967,0.0004 -2.8364,0.0016 0,-0.1617 0,-0.3233 0,-0.4829 0.1708,0 0.3417,-0.0716 0.4953,-0.2109 0.1368,-0.1416 0.2392,-0.3184 0.3416,-0.5296 0.1028,-0.2117 0.1881,-0.3949 0.2393,-0.5437 0.0344,-0.1508 0.1368,-0.4441 0.2904,-0.8761 0.4957,-1.4811 1.0174,-2.9669 1.5382,-4.4431 0.5213,-1.4778 1.0594,-2.9452 1.5719,-4.4118zm2.3579 0.0724c0.188,0.7305 0.3769,1.469 0.5641,2.1975 0.1888,0.7345 0.3929,1.463 0.5809,2.1931 0.4785,0.018 0.8537,-0.0288 1.1277,-0.13 0.2897,-0.1068 0.4757,-0.2708 0.5637,-0.5129 0.0832,-0.2272 0.1269,-0.5485 0.0856,-0.9377 -0.0444,-0.4189 -0.1572,-0.7381 -0.222,-0.9866 -0.192,-0.7353 -0.4721,-1.3614 -0.8713,-1.8838 -0.3869,-0.5057 -0.8205,-0.783 -1.3502,-0.8014 -0.2733,-0.0092 -0.4309,0.0565 -0.5125,0.1761 -0.0904,0.1332 -0.1024,0.3568 0.034,0.6857zm2.4264 9.7486c0.1208,0.4701 0.27,0.7901 0.4616,0.9645 0.2017,0.1841 0.4101,0.2853 0.6493,0.3145 0.0852,-0.0216 0.2053,-0.0216 0.3589,-0.0264 0.4789,-0.0144 0.7513,-0.3105 0.8201,-0.8597 0.068,-0.5433 0.002,-1.2238 -0.188,-2.0331 -0.1004,-0.4273 -0.2257,-0.9338 -0.4613,-1.4807 -0.2092,-0.4848 -0.5105,-0.8329 -0.8201,-1.0709 -0.3225,-0.248 -0.5825,-0.3949 -0.9057,-0.4709 -0.2921,-0.0684 -0.6665,-0.1184 -1.0766,-0.1332 0.1708,0.8017 0.3757,1.5998 0.5641,2.3996 0.1876,0.7981 0.3936,1.6002 0.5977,2.3963zm63.5821 5.3596c0.4273,-1.6907 0.9742,-3.3841 1.5719,-5.0728 0.5984,-1.6906 1.1697,-3.3749 1.6234,-5.0719 0.1276,-0.4773 0.1108,-0.8477 0.1196,-1.1054 0.0084,-0.254 -0.0956,-0.4532 -0.2564,-0.6229 -0.1473,-0.1556 -0.4101,-0.252 -0.8029,-0.2668 0,-0.1924 0.034,-0.3824 0.034,-0.5745 2.7512,0.112 5.5024,0.2077 8.2532,0.2869 -0.034,0.6725 -0.1124,1.3474 -0.2561,2.0119 -0.1468,0.6769 -0.376,1.3414 -0.5813,2.0099 -0.1364,0.0088 -0.2732,0.0172 -0.3928,0.026 0.3588,-1.7467 0.0348,-2.8021 -0.8373,-3.1637 -0.4265,-0.1768 -0.9398,-0.2728 -1.5379,-0.286 -0.3588,-0.008 -0.6669,0.0488 -0.8713,0.1696 -0.2056,0.1216 -0.344,0.41 -0.4272,0.8581 -0.1557,0.8357 -0.3857,1.667 -0.6493,2.4944 -0.2661,0.8337 -0.5809,1.6622 -0.8886,2.4911 0.5297,-0.0204 0.9618,-0.1244 1.367,-0.332 0.3641,-0.1864 0.7173,-0.5277 1.0594,-0.9858 0.3412,-0.4564 0.6665,-1.0945 1.0081,-1.9126 0.1196,-0.0008 0.2565,-0.0032 0.3929,-0.0036 -0.3929,1.1773 -0.8121,2.3579 -1.2642,3.5337 -0.4533,1.1782 -0.8889,2.3523 -1.2818,3.5321 -0.1536,0.0124 -0.2904,0.0252 -0.3928,0.036 0.222,-0.8073 0.3588,-1.4374 0.3588,-1.8879 0,-0.456 -0.0856,-0.7657 -0.2564,-0.9333 -0.1709,-0.1676 -0.3929,-0.2644 -0.6321,-0.2877 -0.2565,-0.0252 -0.4617,-0.0364 -0.6153,-0.044 -0.3245,0.8922 -0.6489,1.7863 -0.9398,2.6808 -0.29,0.8906 -0.5468,1.7795 -0.7349,2.6768 -0.0856,0.4093 -0.004,0.6957 0.1369,0.8282 0.1496,0.1412 0.4796,0.1776 1.0081,0.104 1.7783,-0.2489 3.2297,-1.7807 4.5967,-4.2847 0.1364,-0.0228 0.3072,-0.056 0.4613,-0.0868 -0.3421,0.7017 -0.6974,1.3978 -0.957,2.1139 -0.2532,0.6985 -0.4445,1.4246 -0.5809,2.1371 -2.888,0.6861 -5.6732,1.0134 -8.3728,1.129 0.0172,-0.1816 0.034,-0.3636 0.0512,-0.5477 0.4613,-0.0784 0.7857,-0.212 0.9909,-0.3992 0.2045,-0.1865 0.3589,-0.6073 0.4957,-1.2502zm-7.0058 -11.0336c-0.2052,-0.5237 -0.3989,-0.9098 -0.5297,-1.1722 -0.1424,-0.2848 -0.2904,-0.4369 -0.4785,-0.4493 0.0172,-0.192 0.034,-0.384 0.034,-0.5765 1.0082,0.0549 1.9995,0.1093 3.0077,0.1641 0.6661,1.6422 1.2014,3.2713 1.5718,4.9175 0.3645,1.6178 0.5809,3.2489 0.8886,4.8623 0.376,-1.139 0.7993,-2.2691 1.1789,-3.4229 0.3721,-1.1294 0.6837,-2.2763 0.957,-3.4209 0.154,-0.6449 0.106,-1.1618 -0.0852,-1.5574 -0.1849,-0.3825 -0.4617,-0.5945 -0.8886,-0.6141 0,-0.194 0.0168,-0.3861 0.034,-0.5805 1.0082,0.0508 2.0335,0.0996 3.0589,0.1444 0,0.1924 -0.0172,0.3841 -0.0344,0.5765 -0.0852,0.0172 -0.2225,0.0448 -0.4613,0.0968 -0.2056,0.0448 -0.3913,0.1604 -0.5129,0.3313 -0.1688,0.2388 -0.2628,0.6329 -0.3928,1.1653 -0.5365,2.1996 -1.303,4.3695 -2.0335,6.575 -0.7221,2.1799 -1.213,4.3854 -1.435,6.5798 -0.1369,-0.0036 -0.2565,-0.0048 -0.3761,-0.0084 -0.8373,-2.0307 -1.4518,-4.0622 -1.8455,-6.1313 -0.3924,-2.0623 -0.7689,-4.143 -1.2814,-6.2109 -0.0172,0 -0.0344,-0.0024 -0.0344,-0.0024 -0.41,1.5394 -0.8545,3.0788 -1.3326,4.6194 -0.4784,1.5407 -0.9309,3.0801 -1.2817,4.6239 -0.1449,0.6389 -0.0593,1.087 0.1196,1.3926 0.1472,0.2513 0.4444,0.4489 0.9057,0.5565 -0.0172,0.186 -0.0172,0.3701 -0.0512,0.5537 -1.0254,-0.0652 -2.0675,-0.1324 -3.0757,-0.2261 0.0169,-0.182 0.0169,-0.366 0.0341,-0.5496 0.0684,-0.0056 0.154,-0.016 0.2392,-0.02 0.0852,-0.004 0.1704,-0.018 0.2392,-0.032 0.102,-0.0208 0.1849,-0.0616 0.2565,-0.1073 0.0824,-0.0528 0.1568,-0.1144 0.2392,-0.206 0.1396,-0.1552 0.2236,-0.3508 0.2904,-0.5773 0.0704,-0.2392 0.1357,-0.6349 0.2733,-1.1813 0.4264,-1.6911 0.9233,-3.3721 1.4354,-5.056 0.5129,-1.6854 0.9741,-3.3697 1.367,-5.0567zm-5.4168 -0.2821c0.0788,-0.394 0.0688,-0.7053 0.0344,-0.9305 -0.0336,-0.2192 -0.148,-0.4005 -0.3076,-0.5149 -0.1825,-0.1308 -0.4613,-0.21 -0.8546,-0.2676 0,-0.174 0.0344,-0.3497 0.0344,-0.5253 1.6575,0.0972 3.3321,0.1964 5.0064,0.2916 0,0.1801 -0.0168,0.3581 -0.0168,0.5337 -0.3761,0.0304 -0.6505,0.0652 -0.8206,0.1092 -0.1544,0.04 -0.2956,0.1769 -0.4612,0.4117 -0.1588,0.2256 -0.2165,0.6113 -0.3245,1.1274 -0.3536,1.6882 -0.8277,3.3613 -1.3158,5.0451 -0.486,1.6775 -0.9825,3.3577 -1.3498,5.0447 -0.128,0.5877 -0.1536,1.021 -0.12,1.2914 0.0344,0.2741 0.15,0.4733 0.2909,0.5821 0.1496,0.1156 0.4612,0.2041 0.8373,0.2757 -0.0172,0.184 -0.0344,0.368 -0.0516,0.5536 -1.5891,-0.1472 -3.1781,-0.2928 -4.7499,-0.4624 0.0168,-0.1821 0.034,-0.3637 0.0512,-0.5477 0.3416,-0.0084 0.6313,-0.0576 0.8201,-0.156 0.1872,-0.0976 0.3237,-0.2565 0.4101,-0.4821 0.0844,-0.2204 0.1564,-0.5473 0.2392,-0.9645 0.3449,-1.7431 0.8453,-3.4694 1.3326,-5.2044 0.4869,-1.7331 0.9673,-3.4701 1.3158,-5.2108zm-12.6959 2.6616c0.2989,-0.8485 0.6969,-1.6098 1.1278,-2.3207 0.4237,-0.6989 0.8665,-1.3118 1.3498,-1.8067 0.4909,-0.5021 1.0037,-0.8829 1.5378,-1.1338 0.5597,-0.262 1.1622,-0.3668 1.7431,-0.3312 0.4956,0.0304 0.9873,0.2092 1.5378,0.5089 0.1672,0.0912 0.4101,0.2216 0.7005,0.4072 0.2904,0.1853 0.4445,0.2833 0.5469,0.3029 0.0684,-0.0196 0.1196,-0.0312 0.188,-0.0284 0.1708,-0.0776 0.3589,-0.3865 0.5297,-0.9266 0.1196,0.0076 0.2564,0.0152 0.3928,0.0228 -0.068,0.8506 -0.1284,1.7047 -0.2732,2.5496 -0.146,0.8517 -0.3416,1.6959 -0.5469,2.5444 -0.1196,-0.0096 -0.2392,-0.0192 -0.3588,-0.0288 -0.034,-0.9001 -0.1292,-1.7019 -0.3757,-2.3956 -0.2492,-0.7009 -0.6057,-1.2281 -1.0081,-1.6194 -0.3837,-0.3729 -0.7689,-0.5929 -1.1962,-0.6113 -0.7345,-0.0316 -1.3314,0.3917 -1.8799,1.197 -0.2888,0.4248 -0.5657,0.9669 -0.8369,1.649 -0.2756,0.6925 -0.5641,1.5174 -0.8201,2.488 -0.0684,0.2592 -0.2273,0.6621 -0.3761,1.227 -0.2612,0.9897 -0.41,1.9199 -0.5129,2.79 -0.102,0.8661 -0.122,1.5578 -0.0512,2.0695 0.0656,0.4725 0.2025,0.8549 0.3417,1.1822 0.1344,0.3148 0.3252,0.5944 0.5813,0.8229 0.2568,0.2296 0.5949,0.4024 0.9909,0.4576 0.9202,0.1281 1.3902,-0.3492 1.5378,-1.3546 0.2285,-1.553 0.4657,-2.4779 0.5297,-2.796 0.0556,-0.2744 0.0508,-0.486 -0.0172,-0.6405 -0.0684,-0.156 -0.1536,-0.2716 -0.2904,-0.3428 -0.1364,-0.0712 -0.2909,-0.12 -0.4273,-0.144 -0.1368,-0.0244 -0.2732,-0.0464 -0.3584,-0.0636 0.034,-0.1817 0.0852,-0.3613 0.1196,-0.5425 1.589,0.1472 3.178,0.2928 4.7671,0.434 -0.0512,0.1817 -0.1024,0.3649 -0.1536,0.5485 -0.0685,0.0032 -0.1369,0.0108 -0.2393,0.0136 -0.1196,0.0028 -0.1876,0.014 -0.2564,0.0276 -0.068,0.0132 -0.154,0.0404 -0.2565,0.0868 -0.1028,0.0473 -0.1924,0.1053 -0.2732,0.1793 -0.2268,0.2068 -0.4549,0.6525 -0.5981,1.3266 -0.2152,1.0133 -0.3928,2.0203 -0.5297,3.0272 -1.2129,0.7589 -2.3747,1.0646 -3.5881,0.9213 -0.6321,-0.0748 -1.2726,-0.2468 -1.8799,-0.566 -0.4184,-0.2205 -0.8253,-0.5953 -1.1617,-1.0858 -0.3301,-0.4809 -0.6229,-1.0542 -0.8202,-1.7175 -0.196,-0.6584 -0.2992,-1.3862 -0.2904,-2.1879 0.0084,-0.7897 0.088,-1.6186 0.3072,-2.4571 0.1229,-0.4689 0.3161,-1.0282 0.5469,-1.6831zm-3.8957 -3.8361c0.0536,-0.3733 0.052,-0.6681 0,-0.8814 -0.0505,-0.2072 -0.1565,-0.366 -0.3417,-0.4888 -0.1736,-0.1149 -0.4617,-0.2037 -0.8373,-0.2613 0,-0.1656 0.0168,-0.3312 0,-0.4993 1.6746,0.1097 3.3321,0.2193 5.0235,0.3269 0.0172,0.17 0,0.3396 0,0.5073 -0.3588,0.0264 -0.6329,0.0552 -0.8029,0.0948 -0.1548,0.0364 -0.2956,0.1652 -0.4445,0.3876 -0.1416,0.2121 -0.2308,0.5713 -0.3076,1.0662 -0.2476,1.5978 -0.5813,3.1925 -0.9569,4.7875 -0.3761,1.597 -0.7418,3.1881 -1.0082,4.7887 -0.0924,0.5561 -0.0936,0.9717 -0.0512,1.233 0.0432,0.2636 0.156,0.4464 0.3248,0.5641 0.1561,0.1092 0.4441,0.21 0.8374,0.294 -0.0172,0.1736 -0.0344,0.3497 -0.0344,0.5257 -1.5891,-0.1968 -3.1781,-0.3953 -4.7503,-0.5897 0,-0.172 0,-0.3437 0.0172,-0.5173 0.3588,0 0.6133,-0.0476 0.7861,-0.134 0.186,-0.0932 0.3332,-0.2404 0.41,-0.4473 0.0773,-0.2088 0.1621,-0.5128 0.2221,-0.9117 0.2476,-1.641 0.6153,-3.2797 0.9741,-4.9203 0.3589,-1.6403 0.7029,-3.2825 0.9398,-4.9247zm-11.7734 8.4512c0.1881,-1.4746 0.4353,-2.9512 0.7005,-4.4287 0.2645,-1.4702 0.5149,-2.9448 0.7009,-4.4242 0.0532,-0.4229 0.068,-0.7597 0.034,-1.0102 -0.0344,-0.2528 -0.1588,-0.4416 -0.3244,-0.5908 -0.1592,-0.1433 -0.4273,-0.2461 -0.7689,-0.2973 0,-0.1596 0.0168,-0.3208 0.0168,-0.4805 1.5722,0.0981 3.144,0.1957 4.7163,0.2945 1.0593,0.0668 1.8838,0.3136 2.4435,0.7549 0.5509,0.4349 0.9054,0.9433 1.0422,1.5114 0.1368,0.5681 0.1396,1.1498 0.0512,1.7355 -0.048,0.3188 -0.2048,0.6889 -0.3761,1.1101 -0.1704,0.4193 -0.4948,0.8274 -0.9053,1.229 -0.4097,0.4009 -0.9569,0.6761 -1.6234,0.8217 0.222,0.9314 0.4724,1.8731 0.7349,2.8029 0.2672,0.9465 0.5585,1.8838 0.8885,2.8268 0.1484,0.4248 0.2724,0.6869 0.3417,0.7957 0.0672,0.1056 0.2052,0.172 0.376,0.1904 -0.0172,0.1736 -0.0172,0.3437 -0.0172,0.5133 -0.9397,-0.1132 -1.8795,-0.2268 -2.7852,-0.3397 -0.4273,-1.1217 -0.8437,-2.2347 -1.145,-3.3537 -0.2968,-1.1017 -0.5809,-2.2115 -0.8541,-3.3092 -0.1368,-0.0136 -0.2736,-0.0256 -0.3933,-0.0352 -0.1196,0.7001 -0.2564,1.4002 -0.3756,2.0983 -0.1196,0.6981 -0.2248,1.3982 -0.3077,2.0971 -0.0536,0.4512 -0.0188,0.7801 0.0513,1.0069 0.0668,0.2177 0.1724,0.3737 0.3244,0.4621 0.1384,0.0804 0.3589,0.178 0.7349,0.2908 -0.0172,0.1677 -0.0172,0.3353 -0.0172,0.5029 -1.5378,-0.1776 -3.0756,-0.3528 -4.6135,-0.5285 0.0172,-0.1636 0.0172,-0.3292 0.0172,-0.4948 0.3245,-0.0084 0.5805,-0.0533 0.7517,-0.1345 0.1705,-0.0804 0.2901,-0.244 0.3761,-0.4904 0.0848,-0.2445 0.1536,-0.6221 0.2048,-1.1266zm3.8278 -9.5566c-0.0856,0.8701 -0.2132,1.7366 -0.3589,2.6056 -0.1448,0.8641 -0.3076,1.735 -0.4784,2.6024 0.9909,0.0832 1.7014,-0.048 2.1015,-0.3741 0.4884,-0.3981 0.8385,-1.1642 1.0425,-2.3279 0.1204,-0.6877 0.128,-1.2882 0.0684,-1.7971 -0.0596,-0.5069 -0.25,-0.9069 -0.5981,-1.179 -0.1992,-0.1556 -0.53,-0.2376 -1.0253,-0.2696 -0.2736,-0.018 -0.4785,0.0556 -0.5809,0.228 -0.1024,0.1728 -0.1708,0.3441 -0.1708,0.5117zm-15.0882 3.5825c0.218,-1.159 0.6337,-2.1783 1.1789,-3.1052 0.5313,-0.9038 1.1822,-1.6179 1.9651,-2.1247 0.7721,-0.4997 1.6411,-0.741 2.5972,-0.6753 0.8037,0.0552 1.5354,0.3548 2.2215,0.8625 0.6981,0.5169 1.2646,1.2378 1.6403,2.1711 0.3764,0.9349 0.4965,2.0339 0.4272,3.3001 -0.016,0.294 -0.0424,0.6477 -0.1196,1.0601 -0.2132,1.1426 -0.5857,2.216 -1.0937,3.2561 -0.5005,1.0246 -1.099,1.8499 -1.8623,2.4756 -0.7405,0.6065 -1.5902,0.8949 -2.5804,0.8085 -0.7357,-0.0644 -1.4114,-0.3156 -2.0163,-0.6965 -0.6257,-0.3945 -1.1438,-0.9061 -1.5718,-1.563 -0.4265,-0.6537 -0.7013,-1.4082 -0.8545,-2.256 -0.1541,-0.8537 -0.1929,-1.7722 -0.0512,-2.76 0.0292,-0.2044 0.064,-0.4584 0.1196,-0.7533zm2.4947 0.2093c-0.014,0.0764 -0.0252,0.1844 -0.0512,0.3348 -0.0256,0.148 -0.0408,0.256 -0.0512,0.3288 -0.1776,1.2466 -0.256,2.3452 -0.188,3.2933 0.0684,0.9538 0.284,1.7147 0.6149,2.2716 0.3356,0.5636 0.7861,0.8781 1.367,0.9485 0.0172,-0.01 0.0344,-0.02 0.0516,-0.032 0.5809,0.0456 1.0361,-0.2052 1.435,-0.7401 0.4041,-0.5417 0.7269,-1.2558 0.9913,-2.1423 0.2657,-0.891 0.4725,-1.8507 0.6493,-2.8784 0.028,-0.1645 0.0685,-0.3817 0.1025,-0.6513 0.0344,-0.2717 0.0732,-0.4693 0.0856,-0.5945 0.09,-0.9046 0.1536,-1.6903 0.1196,-2.3628 -0.0344,-0.6725 -0.1216,-1.2442 -0.2737,-1.7074 -0.1556,-0.4733 -0.3764,-0.8342 -0.6664,-1.0958 -0.2909,-0.2624 -0.6317,-0.416 -1.0422,-0.4441 -0.8197,-0.0556 -1.4554,0.4297 -1.9307,1.4155 -0.2424,0.5032 -0.4973,1.0865 -0.6837,1.7574 -0.1892,0.6813 -0.3728,1.4422 -0.5297,2.2988zm-19.0524 -3.0849c-0.2904,0.7741 -0.5368,1.5458 -0.8201,2.3283 -0.2808,0.7758 -0.5469,1.5567 -0.8033,2.3368 0.9401,0.0092 1.8455,0.0196 2.7856,0.0472 -0.2052,-0.7861 -0.4021,-1.5734 -0.5813,-2.3592 -0.1796,-0.7877 -0.3756,-1.569 -0.5809,-2.3531zm-19.2572 7.1606c0.4953,-1.915 1.0066,-3.8281 1.5034,-5.724 0.4941,-1.8847 1.0594,-3.7613 1.6235,-5.6324 0.1196,-0.0028 0.2392,-0.0036 0.376,-0.006 0.5465,1.8126 1.1258,3.6109 1.6575,5.4112 0.5276,1.7874 1.0813,3.5725 1.623,5.3496 0.0736,0.2408 0.1204,0.5024 0.2052,0.7857 0.086,0.2872 0.1809,0.5449 0.2733,0.7661 0.0956,0.2292 0.244,0.4092 0.3928,0.5653 0.142,0.1484 0.3249,0.2268 0.5129,0.2188 0,0.1636 0,0.3273 0.0172,0.4929 -1.5038,0.0808 -3.0076,0.1776 -4.5111,0.2788 0,-0.166 0,-0.3336 -0.0172,-0.4997 0.3589,-0.0224 0.6145,-0.0844 0.8202,-0.1844 0.2044,-0.0996 0.3076,-0.3132 0.3076,-0.6489 0,-0.236 -0.0508,-0.4816 -0.1196,-0.7381 -0.1704,-0.6361 -0.3589,-1.2702 -0.5469,-1.9083 -1.0593,0.0548 -2.1187,0.11 -3.1613,0.1817 -0.1708,0.6669 -0.3356,1.3334 -0.4784,2.0051 -0.028,0.1328 -0.068,0.3692 -0.1024,0.7065 0.0512,0.34 0.17,0.5584 0.376,0.6405 0.2212,0.0884 0.4785,0.118 0.8029,0.0912 0,0.1676 0,0.3376 0,0.5052 -0.9397,0.0833 -1.8794,0.1661 -2.8192,0.2533 0,-0.1696 0,-0.3417 0,-0.5133 0.1708,-0.0144 0.3429,-0.1056 0.4785,-0.2644 0.1376,-0.1613 0.2388,-0.3573 0.3416,-0.5913 0.1021,-0.2321 0.1633,-0.4337 0.2053,-0.5929 0.0436,-0.1672 0.1196,-0.4773 0.2392,-0.9482zm2.4432 -7.0918c-0.2221,0.8281 -0.4361,1.6579 -0.6493,2.488 -0.2141,0.8341 -0.4269,1.6682 -0.6321,2.5063 0.9057,-0.0588 1.8454,-0.1028 2.768,-0.1472 -0.2733,-0.8053 -0.5221,-1.6122 -0.7517,-2.4163 -0.2317,-0.811 -0.4785,-1.6195 -0.7349,-2.4308zm-13.0716 0.0044c-0.0416,-0.7505 -0.0684,-1.3058 -0.1196,-1.6602 -0.0512,-0.3545 -0.0948,-0.6045 -0.1708,-0.7445 -0.078,-0.1425 -0.2224,-0.2349 -0.4273,-0.2893 -0.1884,-0.05 -0.41,-0.0968 -0.6153,-0.138 0,-0.1556 0.0172,-0.3109 0,-0.4685 1.5039,-0.0948 3.0077,-0.178 4.5283,-0.264 1.0254,-0.058 1.9267,0.1316 2.6144,0.5501 0.7137,0.4344 1.2918,0.9805 1.6742,1.6438 0.3865,0.6693 0.6673,1.3454 0.8374,2.0267 0.1716,0.6869 0.2956,1.2962 0.3076,1.8323 0.0564,2.5203 -0.3748,4.447 -1.2474,5.78 -0.8873,1.3566 -2.2383,2.1391 -4.0326,2.3316 -1.3326,0.1432 -2.6312,0.2904 -3.9469,0.4468 -0.0173,-0.1596 -0.0173,-0.3236 -0.0173,-0.4872 0.3417,-0.1205 0.5841,-0.2349 0.735,-0.3613 0.1396,-0.1176 0.2556,-0.304 0.3076,-0.5569 0.0504,-0.2492 0.0776,-0.6229 0.0512,-1.1205 -0.076,-1.4198 -0.1456,-2.8401 -0.2392,-4.2595 -0.094,-1.4198 -0.1612,-2.8404 -0.2393,-4.2614zm2.2556 -2.1459c0.0512,1.8623 0.162,3.7245 0.256,5.5872 0.094,1.8623 0.162,3.721 0.2392,5.5828 0.0252,0.6001 0.3289,0.9002 0.923,0.8066 0.4841,-0.0761 0.8897,-0.2913 1.1962,-0.5565 0.3084,-0.2677 0.602,-0.7585 0.8369,-1.4486 0.1752,-0.5141 0.3164,-1.1322 0.376,-1.8775 0.06,-0.7425 0.0792,-1.5486 0.0512,-2.4152 -0.0232,-0.7301 -0.094,-1.4682 -0.2048,-2.2095 -0.1112,-0.7425 -0.2812,-1.4362 -0.5129,-2.0843 -0.2296,-0.6441 -0.5276,-1.1718 -0.9053,-1.561 -0.3913,-0.4029 -0.8545,-0.5797 -1.4014,-0.5481 -0.2732,0.016 -0.5001,0.0916 -0.6493,0.2356 -0.1412,0.1368 -0.2048,0.3065 -0.2048,0.4885zm-7.6896 1.2498c-0.0188,-0.3869 -0.0676,-0.6861 -0.1364,-0.8954 -0.068,-0.2056 -0.2056,-0.3576 -0.3932,-0.4524 -0.1885,-0.0956 -0.4785,-0.1428 -0.8542,-0.1472 0,-0.1721 0,-0.3437 -0.0344,-0.5181 1.6919,-0.1212 3.3665,-0.2385 5.058,-0.3601 0.0172,0.1721 0,0.3417 0,0.5117 -0.3589,0.0776 -0.6157,0.1452 -0.7689,0.2056 -0.1541,0.0608 -0.2901,0.2097 -0.4101,0.4493 -0.1192,0.238 -0.1692,0.6073 -0.1368,1.1134 0.1044,1.625 0.2136,3.25 0.3248,4.8759 0.1108,1.6246 0.2361,3.2501 0.3245,4.8759 0.0308,0.5685 0.0932,0.9725 0.1708,1.2274 0.0764,0.25 0.188,0.4132 0.3761,0.4892 0.1708,0.0693 0.4612,0.1017 0.8545,0.0917 0.0168,0.176 0.0168,0.354 0.0168,0.53 -1.6231,0.1937 -3.2293,0.3857 -4.8355,0.5897 0,-0.182 0,-0.362 -0.0172,-0.5421 0.3588,-0.088 0.6185,-0.1952 0.8029,-0.3364 0.1744,-0.1328 0.3072,-0.3196 0.3588,-0.5541 0.0509,-0.2308 0.0749,-0.5537 0.0517,-0.9669 -0.0965,-1.6971 -0.2309,-3.3981 -0.3589,-5.0912 -0.1284,-1.6974 -0.3096,-3.3973 -0.3933,-5.0959zm-7.8599 10.886c-0.154,-1.6239 -0.3421,-3.2481 -0.5297,-4.8703 -0.188,-1.6223 -0.3632,-3.2497 -0.4957,-4.872 -0.0384,-0.468 -0.128,-0.8321 -0.188,-1.0985 -0.0596,-0.2649 -0.1864,-0.4689 -0.3588,-0.5977 -0.1865,-0.1392 -0.4441,-0.2012 -0.803,-0.2036 0,-0.1761 0,-0.3537 -0.0172,-0.5321 1.5719,-0.1328 3.1273,-0.2661 4.6991,-0.3929 1.0426,-0.084 1.8803,0.0912 2.4436,0.5257 0.5641,0.4357 0.9325,0.9501 1.1277,1.531 0.1977,0.5897 0.3037,1.1698 0.3417,1.7487 0.0644,0.9849 -0.09,1.8287 -0.4785,2.5168 -0.3976,0.7037 -0.9281,1.1765 -1.5722,1.4786 -0.3641,0.1708 -1.1274,0.3364 -2.3579,0.4652 0.0856,0.7234 0.1792,1.4431 0.2564,2.1692 0.0764,0.7209 0.1304,1.445 0.1708,2.1683 0.0276,0.4969 0.1088,0.8473 0.2048,1.0701 0.0921,0.2133 0.2053,0.3501 0.3589,0.4049 0.154,0.0552 0.3933,0.0968 0.7349,0.1316 0,0.18 0.0172,0.3601 0.0344,0.5405 -1.5382,0.1944 -3.076,0.3893 -4.5795,0.5801 0,-0.182 0,-0.3641 -0.0172,-0.5481 0.3077,-0.0884 0.5341,-0.1932 0.7005,-0.3272 0.1585,-0.1281 0.2569,-0.3433 0.3077,-0.6205 0.052,-0.2849 0.0512,-0.7069 0.0172,-1.2678zm1.1962 -10.9152c0.068,0.9745 0.1452,1.9499 0.2392,2.924 0.0936,0.9733 0.1876,1.9495 0.3072,2.9224 0.4785,-0.0476 0.8226,-0.1144 1.0594,-0.2208 0.2076,-0.0928 0.4053,-0.2552 0.5813,-0.4573 0.388,-0.446 0.5085,-1.3562 0.3756,-2.7368 -0.072,-0.7489 -0.1536,-1.3946 -0.2904,-1.9343 -0.1364,-0.5396 -0.3673,-0.9133 -0.6833,-1.1553 -0.1968,-0.1508 -0.5129,-0.2253 -0.9397,-0.1913 -0.4617,0.0373 -0.6665,0.3217 -0.6493,0.8494zm-10.2695 12.4186c-0.2053,-1.7311 -0.4361,-3.4613 -0.701,-5.1896 -0.2648,-1.7326 -0.5312,-3.4609 -0.7177,-5.1915 -0.0528,-0.4933 -0.11,-0.8626 -0.1708,-1.123 -0.0588,-0.2524 -0.1844,-0.4585 -0.3584,-0.5973 -0.1849,-0.1476 -0.4957,-0.198 -0.889,-0.166 0,-0.194 0,-0.3885 0,-0.5829 2.734,-0.2336 5.4852,-0.4737 8.2192,-0.7137 0.034,0.7409 0.0512,1.485 0.1197,2.2251 0.0684,0.7409 0.1368,1.4842 0.222,2.224 -0.1196,0.0108 -0.2392,0.0216 -0.3589,0.0344 -0.3588,-1.9063 -0.9885,-3.0197 -1.9134,-3.3133 -0.4593,-0.146 -0.9746,-0.1825 -1.5551,-0.1308 -0.376,0.0332 -0.6521,0.1216 -0.8545,0.2744 -0.1904,0.1436 -0.2812,0.4533 -0.2392,0.9217 0.0776,0.8626 0.154,1.7243 0.2732,2.5824 0.12,0.8629 0.2392,1.7211 0.3589,2.5816 0.5128,-0.0536 0.9193,-0.194 1.1793,-0.4137 0.2697,-0.228 0.4537,-0.5877 0.5637,-1.0797 0.112,-0.4993 0.1368,-1.1826 0.1196,-2.0523 0.1197,-0.0108 0.2393,-0.0236 0.3761,-0.0344 0.1364,1.2513 0.316,2.5043 0.4785,3.7569 0.162,1.2506 0.3076,2.5032 0.4784,3.757 -0.1368,0.0148 -0.2564,0.028 -0.3588,0.0408 -0.154,-0.8525 -0.3429,-1.517 -0.5813,-1.9907 -0.2396,-0.4769 -0.4773,-0.7949 -0.7345,-0.9618 -0.2553,-0.166 -0.5129,-0.2536 -0.7861,-0.2672 -0.2733,-0.0132 -0.4613,-0.0196 -0.6153,-0.0172 0.1196,0.9237 0.2648,1.8491 0.3932,2.774 0.1281,0.9229 0.2205,1.8479 0.2905,2.7688 0.0324,0.4281 0.1508,0.7193 0.3244,0.8589 0.1853,0.1489 0.5305,0.1905 1.0426,0.1309 1.675,-0.1949 2.7512,-1.6387 3.11,-4.3103 0.1365,-0.0124 0.2905,-0.0292 0.4441,-0.0456 -0.0172,0.7749 -0.0512,1.5518 -0.0684,2.3248 -0.0168,0.7729 -0.1024,1.549 -0.1536,2.3219 -2.6656,0.3225 -5.3312,0.6329 -7.9972,0.9249 0,-0.1864 0,-0.3704 -0.0168,-0.5568 0.4613,-0.1113 0.7509,-0.2661 0.9225,-0.4717 0.1701,-0.2036 0.2053,-0.6357 0.1541,-1.293zm-9.7743 0.4153c-0.2732,-1.6603 -0.5985,-3.3257 -0.9053,-4.9832 -0.3085,-1.6634 -0.6329,-3.3253 -0.8717,-4.9871 -0.0685,-0.4773 -0.1453,-0.8525 -0.2221,-1.1274 -0.0768,-0.2752 -0.2032,-0.4812 -0.376,-0.6181 -0.1861,-0.1476 -0.4441,-0.22 -0.803,-0.2304 0,-0.18 0,-0.3601 -0.0172,-0.5401 1.5551,-0.1004 3.1273,-0.2148 4.6819,-0.3336 1.0426,-0.08 1.8939,0.078 2.4776,0.4644 0.5953,0.3941 1.0321,0.8746 1.2818,1.4695 0.2456,0.5852 0.4132,1.2049 0.5125,1.847 0.0544,0.3501 0.0512,0.7657 0.0344,1.2438 -0.0172,0.4785 -0.1609,0.9606 -0.4101,1.4662 -0.246,0.4989 -0.6665,0.8902 -1.2474,1.1694 0.5809,0.9477 1.1914,1.8863 1.7771,2.8376 0.5761,0.9362 1.0889,1.8851 1.6062,2.8168 0.2345,0.4229 0.3677,0.6837 0.4613,0.7705 0.112,0.1045 0.2048,0.1357 0.3928,0.1173 0.0172,0.1884 0.0344,0.3724 0.0344,0.5568 -0.9569,0.1053 -1.8798,0.2029 -2.8024,0.2861 -0.5296,-1.129 -1.1153,-2.2699 -1.743,-3.3953 -0.6365,-1.1418 -1.3498,-2.2719 -2.0335,-3.4093 -0.1192,0.0112 -0.2561,0.0216 -0.3929,0.0344 0.154,0.7833 0.3157,1.5618 0.4445,2.3471 0.1276,0.7794 0.2312,1.5667 0.3244,2.346 0.0604,0.5049 0.1541,0.8693 0.2565,1.0973 0.1024,0.2285 0.2392,0.3773 0.3928,0.4381 0.1541,0.0612 0.4273,0.1136 0.7521,0.1624 0.034,0.1865 0.034,0.3729 0.034,0.5589 -1.5378,0.1372 -3.0584,0.2504 -4.5622,0.3493 -0.0172,-0.1861 -0.0344,-0.3725 -0.0512,-0.5589 0.3416,-0.0716 0.5717,-0.1588 0.7345,-0.2901 0.1456,-0.1172 0.2224,-0.3332 0.2736,-0.6205 0.0516,-0.2912 0.034,-0.7177 -0.0344,-1.2849zm0.3933 -11.1085c0.1196,0.969 0.214,1.9435 0.3756,2.9089 0.1633,0.9741 0.3761,1.9414 0.5301,2.9108 1.0078,-0.0824 1.6094,-0.3369 1.8795,-0.7717 0.3112,-0.5013 0.3364,-1.3962 0.1536,-2.686 -0.1076,-0.7593 -0.2304,-1.411 -0.4273,-1.9543 -0.196,-0.5413 -0.4436,-0.943 -0.8201,-1.1938 -0.2044,-0.1364 -0.5637,-0.1844 -1.0421,-0.1472 -0.2737,0.0212 -0.4441,0.132 -0.5297,0.3392 -0.0852,0.2061 -0.1196,0.4057 -0.1196,0.5941zm-7.6384 11.5493c-0.3588,-1.9803 -0.7941,-3.9614 -1.2301,-5.9445 -0.4353,-1.979 -0.7689,-3.9649 -0.991,-5.9452 -0.5981,0.044 -1.0657,0.1984 -1.4354,0.49 -0.348,0.2749 -0.6137,0.6953 -0.7345,1.2538 -0.1184,0.5457 -0.12,1.2646 -0.0172,2.1411 -0.154,0.0024 -0.2736,0.0032 -0.4101,0.0036 -0.154,-0.7445 -0.2988,-1.4914 -0.41,-2.2363 -0.1112,-0.7425 -0.154,-1.491 -0.188,-2.2359 2.8704,-0.0972 5.724,-0.2212 8.5776,-0.3985 0.0344,0.7529 0.094,1.5075 0.188,2.2624 0.0937,0.7529 0.2221,1.5102 0.3761,2.2627 -0.1368,0.0084 -0.2904,0.0168 -0.4273,0.0256 -0.3076,-1.143 -0.6845,-2.0419 -1.1105,-2.7212 -0.4117,-0.6565 -1.111,-0.9825 -2.1019,-0.9453 0.222,2.0155 0.5728,4.0338 0.9909,6.0477 0.4193,2.0174 0.8693,4.0265 1.1962,6.0484 0.1172,0.7249 0.2176,1.2258 0.4444,1.4739 0.2173,0.2376 0.5977,0.3444 1.0766,0.3296 0,0.186 0.0168,0.3725 0.034,0.5589 -1.6402,0.048 -3.2637,0.0984 -4.8871,0.1388 -0.0168,-0.184 -0.0168,-0.3684 -0.034,-0.5545 0.5125,-0.0064 0.8317,-0.1804 1.0081,-0.4792 0.1665,-0.2817 0.2049,-0.7934 0.0852,-1.5759zm-14.5581 -10.5107c-0.376,-0.5157 -0.6233,-0.9022 -0.8201,-1.149 -0.2304,-0.288 -0.4273,-0.4281 -0.5981,-0.4405 0,-0.186 0,-0.3724 -0.0172,-0.5564 1.0081,0.0628 2.0335,0.13 3.0416,0.1684 0.957,1.5822 2.0631,3.1757 3.2465,4.7735 1.1914,1.6086 2.4264,3.2133 3.6398,4.8127 -0.2737,-1.1426 -0.5801,-2.2795 -0.8546,-3.4261 -0.2724,-1.1386 -0.4996,-2.2835 -0.7177,-3.4265 -0.1236,-0.6489 -0.3076,-1.1614 -0.5637,-1.5346 -0.2564,-0.3729 -0.6152,-0.5573 -1.0425,-0.5561 0,-0.1904 -0.0172,-0.3829 -0.034,-0.5733 1.0253,-0.0104 2.0503,-0.0268 3.0756,-0.0456 0.0172,0.1944 0.034,0.3868 0.034,0.5793 -0.068,0.0196 -0.2036,0.0632 -0.41,0.122 -0.2209,0.0628 -0.3785,0.166 -0.4785,0.3584 -0.1228,0.2365 -0.1448,0.6425 -0.0512,1.1794 0.3849,2.2039 0.9389,4.3951 1.4526,6.5974 0.5117,2.1951 0.8885,4.3958 1.0766,6.591 -0.1196,-0.0016 -0.2393,-0.0028 -0.3589,-0.0064 -1.1962,-2.0327 -2.5716,-4.095 -4.101,-6.1313 -1.529,-2.0351 -3.1272,-4.0478 -4.6307,-6.0881 -0.0172,-0.0004 -0.0172,-0.0004 -0.0172,-0.0004 0.3249,1.501 0.7269,3.0052 1.1278,4.505 0.4021,1.5042 0.8197,2.9973 1.1106,4.5071 0.1192,0.6177 0.2604,1.0733 0.5128,1.3762 0.2261,0.2716 0.5809,0.4773 1.0594,0.5977 0,0.18 0.0172,0.36 0.034,0.5401 -1.0594,-0.1249 -2.1359,-0.2705 -3.1953,-0.4137 -0.0168,-0.176 -0.0168,-0.3521 -0.034,-0.5301 0.0684,-0.0052 0.1536,-0.0076 0.2393,-0.0076 0.1024,0.0004 0.1712,-0.0044 0.256,-0.0192 0.0688,-0.012 0.142,-0.0388 0.2224,-0.0916 0.0576,-0.0384 0.1281,-0.1108 0.1877,-0.19 0.1116,-0.1484 0.1712,-0.3253 0.1712,-0.5485 0,-0.2228 -0.0456,-0.6101 -0.154,-1.141 -0.3357,-1.643 -0.7874,-3.2821 -1.2302,-4.9155 -0.4457,-1.6438 -0.8545,-3.2785 -1.179,-4.9167z" />
      <g
         id="g570">
        <polygon
           id="_24629824"
           class="fil2"
           points="102.502,153.726 102.907,153.703 103.309,153.677 103.708,153.646 104.104,153.612 104.498,153.574 104.889,153.533 105.277,153.487 105.663,153.438 106.046,153.385 106.427,153.328 106.806,153.267 107.183,153.202 107.557,153.133 107.93,153.06 108.3,152.983 108.669,152.901 109.036,152.816 109.401,152.727 109.764,152.633 110.126,152.535 110.487,152.433 110.845,152.327 111.203,152.216 111.559,152.101 111.914,151.982 112.673,151.717 113.447,148.158 113.575,147.52 114.567,143.351 112.694,142.751 115.645,127.286 114.848,127.006 114.677,126.948 114.506,126.889 114.334,126.832 114.161,126.775 113.987,126.719 113.812,126.663 113.636,126.608 113.459,126.555 113.281,126.501 113.103,126.448 112.924,126.396 112.743,126.345 112.562,126.294 112.381,126.244 112.198,126.195 112.014,126.147 111.83,126.099 111.645,126.052 111.459,126.005 111.272,125.96 111.085,125.915 110.896,125.87 110.707,125.827 110.517,125.784 110.327,125.742 110.135,125.701 109.943,125.66 109.75,125.621 109.556,125.582 109.362,125.543 108.372,125.352 107.755,129.58 107.021,129.482 107.304,125.184 106.419,125.07 106.254,125.049 106.088,125.028 105.922,125.008 105.756,124.989 105.589,124.97 105.422,124.952 105.255,124.934 105.087,124.917 104.918,124.9 104.75,124.884 104.581,124.869 104.412,124.854 104.242,124.839 104.072,124.825 103.901,124.812 103.73,124.799 103.559,124.787 103.388,124.775 103.216,124.764 103.044,124.753 102.871,124.743 102.699,124.734 102.525,124.725 102.352,124.717 102.178,124.709 102.004,124.702 101.83,124.695 101.655,124.689 101.48,124.683 101.305,124.679 100.336,124.654 100.336,128.937 99.5269,128.937 99.5269,124.654 98.5583,124.679 98.3829,124.683 98.2079,124.689 98.0333,124.695 97.8591,124.702 97.6851,124.709 97.5113,124.717 97.3377,124.725 97.1645,124.734 96.9917,124.743 96.8196,124.753 96.6472,124.764 96.4752,124.775 96.3039,124.787 96.133,124.799 95.9619,124.812 95.7913,124.825 95.6212,124.839 95.4516,124.854 95.2821,124.869 95.1131,124.884 94.9446,124.9 94.7765,124.917 94.6083,124.934 94.4407,124.952 94.2737,124.97 94.1071,124.989 93.9408,125.008 93.7747,125.028 93.6091,125.049 93.4439,125.07 92.5589,125.184 92.8422,129.482 92.1081,129.58 91.4905,125.352 90.5006,125.543 90.3066,125.582 90.1132,125.621 89.9201,125.66 89.7278,125.701 89.5365,125.742 89.3462,125.784 89.1561,125.827 88.9669,125.87 88.7785,125.915 88.5913,125.96 88.4044,126.005 88.2186,126.052 88.0334,126.099 87.849,126.146 87.6652,126.195 87.4824,126.244 87.3007,126.294 87.1196,126.345 86.9392,126.396 86.7602,126.448 86.5818,126.501 86.4042,126.555 86.2274,126.608 86.0514,126.663 85.8763,126.719 85.7025,126.775 85.5291,126.832 85.3569,126.889 85.1855,126.948 85.0153,127.006 84.2174,127.286 87.1693,142.751 85.2954,143.351 86.2884,147.521 86.4174,148.166 87.2761,151.729 88.0347,151.98 88.3891,152.093 88.7451,152.202 89.1026,152.308 89.4622,152.411 89.8233,152.51 90.1864,152.605 90.5511,152.696 90.918,152.785 91.2868,152.869 91.6576,152.95 92.0305,153.027 92.4056,153.101 92.7828,153.171 93.1623,153.237 93.5439,153.3 93.9281,153.358 94.3146,153.414 94.7035,153.465 95.0948,153.513 95.4888,153.557 95.8855,153.597 96.2847,153.633 96.6865,153.666 97.0912,153.695 97.4986,153.72 97.909,153.741 98.3222,153.758 98.7383,153.772 99.1575,153.781 99.5799,153.787 100.005,153.789 100.43,153.787 100.851,153.782 101.268,153.774 101.682,153.761 102.094,153.746 " />
        <path
           id="_24629824_0"
           class="fil0"
           d="M100.005 153.014c4.4791,0 8.3278,-0.5776 12.0025,-1.8858l0.6804 -3.1284 -1.6223 -0.5162 0.2212 -1.106 1.6223 0.5899 0.7373 -3.097 -1.8434 -0.5899 2.9553 -15.4835c-1.7624,-0.6241 -3.6876,-1.1403 -5.7363,-1.5293l-0.6109 4.1824 -2.2122 -0.295 0.2832 -4.2952c-1.727,-0.2281 -3.5241,-0.3683 -5.371,-0.4103l0 4.2631 -1.1798 0 -0.295 0 -0.8848 0 0 -4.2631c-1.8469,0.0421 -3.6441,0.182 -5.3711,0.4103l0.2832 4.2952 -2.2122 0.295 -0.6109 -4.1824c-2.0486,0.3891 -3.9739,0.9051 -5.7363,1.5293l2.9553 15.4835 -1.8434 0.5899 0.7373 3.097 1.6223 -0.5899 0.2212 1.106 -1.6222 0.5162 0.754 3.1284c3.6748,1.2345 7.5971,1.8858 12.0763,1.8858z" />
        <path
           id="_24629824_1"
           class="fil2"
           d="M89.5862 150.268l0.101 0.0299 0.3384 0.0965 0.34 0.0931 0.3417 0.0897 0.3435 0.0863 0.3456 0.0831 0.3474 0.0795 0.3493 0.0763 0.3513 0.0727 0.3536 0.0695 0.3556 0.0659 0.3579 0.0625 0.3603 0.059 0.3628 0.0556 0.3652 0.0521 0.3675 0.0487 0.3701 0.0449 0.3731 0.0418 0.3755 0.0379 0.3783 0.0346 0.3812 0.0308 0.3843 0.0275 0.3869 0.0237 0.3902 0.0201 0.393 0.0166 0.3965 0.0128 0.3997 0.0093 0.4027 0.0055 0.4067 0.0018 0.4071 -0.0017 0.4034 -0.0049 0.3996 -0.0083 0.396 -0.0117 0.3924 -0.015 0.3886 -0.0185 0.3852 -0.0218 0.3821 -0.0255 0.3789 -0.0287 0.3754 -0.0323 0.3723 -0.0357 0.3693 -0.0395 0.3669 -0.0429 0.3635 -0.0463 0.3609 -0.0501 0.3586 -0.0538 0.3562 -0.0573 0.3533 -0.0609 0.3511 -0.0647 0.3489 -0.0684 0.3468 -0.0721 0.3448 -0.076 0.3428 -0.0797 0.3411 -0.0837 0.3396 -0.0873 0.3373 -0.0913 0.3362 -0.0952 0.335 -0.0993 0.1 -0.031c-2.6518,-1.0497 -6.3397,-1.7026 -10.4074,-1.7026 -4.0363,0 -7.6981,0.6429 -10.3452,1.6785z" />
        <path
           id="_24629824_2"
           class="fil2"
           d="M90.3062 148.308l0.0147 0.0733 -1.2083 0.3844c-0.122,0.0524 -0.2416,0.1058 -0.3587,0.1599l0.1157 0.4796c6.2253,-2.8111 15.9416,-2.8132 22.1599,0.0171l0.1055 -0.485c-0.1241,-0.0578 -0.2512,-0.1144 -0.381,-0.1703l-1.2122 -0.3857 0.012 -0.0744c-5.8306,-1.9931 -13.4174,-1.9933 -19.2476,0.0011z" />
        <path
           id="_24629824_3"
           class="fil2"
           d="M89.8361 145.958l0.2526 1.2633c2.599,-0.925 6.0561,-1.4906 9.8427,-1.4906 3.7655,0 7.2048,0.5595 9.7987,1.4754l0.2046 -1.2786c-2.6163,-0.8581 -6.1381,-1.3854 -10.0033,-1.3854 -3.9109,0 -7.4699,0.5397 -10.0953,1.4159z" />
        <path
           id="_24629824_4"
           class="fil2"
           d="M89.5644 144.134l0.0088 0.0463 -0.8124 0.2599c-0.0811,0.0336 -0.1613,0.0676 -0.24,0.1018l-0.0074 -0.0226 -0.732 0.2342 0.1856 0.8384 1.2167 -0.4425c0.1363,-0.0517 0.2755,-0.1023 0.4177,-0.1519l0.0397 -0.0144 0.0002 0.0007c2.6427,-0.9151 6.2819,-1.482 10.2901,-1.482 4.8614,0 9.1799,0.8343 11.8359,2.1117l0.314 -0.86 -0.6672 -0.2135 -0.0122 0.0279c-0.0971,-0.0429 -0.1966,-0.0852 -0.2976,-0.127l-0.8148 -0.2607 0.0088 -0.0465c-2.6487,-0.9307 -6.3198,-1.5088 -10.3669,-1.5088 -4.0475,0 -7.7182,0.5782 -10.367,1.509z" />
        <path
           id="_24629824_5"
           class="fil2"
           d="M94.8254 127.016l-0.0474 0.0052 0.282 4.277 -1.7778 0.237 0.15 1.4765c0.6312,-0.0992 1.2741,-0.1843 1.9274,-0.2547l0 1.0339c-1.4548,0.1578 -2.8582,0.3892 -4.1952,0.6863l0.3721 2.1707c1.2279,-0.2457 2.5057,-0.4391 3.8231,-0.575l0 1.0773c-0.4755,0.0494 -0.9457,0.1061 -1.4104,0.1703l0.195 1.9185c0.4011,-0.0531 0.8063,-0.1007 1.2154,-0.1429l0 1.0773c-1.0894,0.1132 -2.1517,0.2658 -3.1812,0.455l0.1726 1.6968c1.3435,-0.2855 2.8288,-0.4977 4.4096,-0.6202l0 -5.2089c0,-1.8657 1.3789,-3.392 3.2445,-3.392l0.1475 0c1.8656,0 3.0969,1.5263 3.0969,3.392l0 5.2457c1.8455,0.1645 3.691,0.452 5.269,0.8357l0.348 -1.7118c-1.3012,-0.2819 -2.6614,-0.504 -4.0685,-0.6602l0 -1.0773c0.6018,0.0664 1.1948,0.1447 1.7785,0.2347l0.2646 -1.9027c-0.6689,-0.1082 -1.3502,-0.201 -2.0431,-0.2779l0 -1.0773c1.73,0.1909 3.3892,0.4811 4.9547,0.8587l0.2999 -2.157c-1.6453,-0.4357 -3.4072,-0.7686 -5.2546,-0.9827l0 -1.0341c1.0022,0.1154 1.9792,0.2656 2.9262,0.4481l0.2116 -1.522 -3.1331 -0.4178 0.2819 -4.277 -0.0471 -0.0051 -0.1602 -0.0163 -0.1615 -0.016 -0.1618 -0.0154 -0.162 -0.015 -0.1621 -0.0144 -0.163 -0.0139 -0.1629 -0.0134 -0.1633 -0.0129 -0.1633 -0.0122 -0.1642 -0.0118 -0.1647 -0.0112 -0.1647 -0.0108 -0.1647 -0.01 -0.1659 -0.0097 -0.1659 -0.009 -0.158 -0.0083 0 4.2145 -4.9959 0 0 -4.2144 -0.1575 0.0082 -0.166 0.009 -0.1657 0.0097 -0.165 0.01 -0.1646 0.0108 -0.1647 0.0112 -0.1646 0.0118 -0.1634 0.0121 -0.1627 0.0129 -0.163 0.0134 -0.163 0.014 -0.1623 0.0143 -0.1618 0.015 -0.1618 0.0154 -0.1614 0.0161 -0.1605 0.0162z" />
        <path
           id="_24629824_6"
           class="fil2"
           d="M92.0564 131.699l-1.721 0.2295 -0.597 -4.0868 -0.1181 0.0265 -0.1793 0.0413 -0.1791 0.0421 -0.1784 0.0428 -0.1775 0.0433 -0.1764 0.044 -0.1758 0.0446 -0.1749 0.0454 -0.1736 0.0458 -0.1729 0.0467 -0.1724 0.0473 -0.1713 0.048 -0.1702 0.0485 -0.1698 0.0495 -0.1689 0.0497 -0.1679 0.0506 -0.1668 0.0509 -0.1656 0.0517 -0.0645 0.0204 0.5202 2.7255c0.3996,-0.1359 0.8073,-0.2655 1.2234,-0.3889l0.1906 1.0289c-0.4143,0.1209 -0.8208,0.2482 -1.219,0.3816l0.3759 1.9695c1.4225,-0.4812 2.9573,-0.8814 4.579,-1.1872l-0.2287 -1.5112z" />
        <path
           id="_24629824_7"
           class="fil2"
           d="M89.9458 134.771c-0.7062,0.1839 -1.3913,0.3868 -2.0525,0.607l0.396 2.0745c0.6876,-0.2056 1.3977,-0.3937 2.1273,-0.5629l-0.4708 -2.1186z" />
        <path
           id="_24629824_8"
           class="fil2"
           d="M92.7287 137.508c-1.4849,0.2514 -2.9051,0.5785 -4.2433,0.972l0.3507 1.8374c1.3217,-0.3711 2.7203,-0.6783 4.1797,-0.9129l-0.2871 -1.8965z" />
        <path
           id="_24629824_9"
           class="fil2"
           d="M90.9658 140.872c-0.6601,0.1435 -1.3052,0.3025 -1.9332,0.4758l0.3459 1.8121c0.5684,-0.2071 1.1866,-0.3978 1.8475,-0.5693l-0.2602 -1.7186z" />
        <path
           id="_24629824_10"
           class="fil2"
           d="M108.856 133.475c1.1539,0.2606 2.2576,0.57 3.3008,0.9231l0.3758 -1.9688c-0.3056,-0.1025 -0.6162,-0.2013 -0.9314,-0.2964l0.2081 -1.0215c0.3108,0.0955 0.6169,0.1945 0.9182,0.297l0.5206 -2.7276 -0.0641 -0.0204 -0.1659 -0.0517 -0.1669 -0.051 -0.1677 -0.0505 -0.1685 -0.0497 -0.1698 -0.0494 -0.1704 -0.0484 -0.1715 -0.0481 -0.1723 -0.0473 -0.1731 -0.0467 -0.1736 -0.0459 -0.175 -0.0453 -0.1757 -0.0447 -0.1766 -0.0441 -0.177 -0.0433 -0.1784 -0.0427 -0.1791 -0.042 -0.1795 -0.0414 -0.1185 -0.0265 -0.5969 4.0868 -0.3697 -0.0493 -0.3019 1.5958z" />
        <path
           id="_24629824_11"
           class="fil2"
           d="M110.862 137.25c0.2396,0.066 0.4769,0.1343 0.7114,0.2044l0.3964 -2.0765c-0.2339,-0.0778 -0.4708,-0.1537 -0.7106,-0.2271l-0.3972 2.0992z" />
        <path
           id="_24629824_12"
           class="fil2"
           d="M107.702 139.553c1.1523,0.2114 2.2632,0.4685 3.3245,0.7666l0.3509 -1.838c-1.0584,-0.3114 -2.1679,-0.5812 -3.3204,-0.8049l-0.355 1.8763z" />
        <path
           id="_24629824_13"
           class="fil2"
           d="M109.623 142.876c0.3029,0.0908 0.5909,0.1857 0.8614,0.2842l0.3457 -1.8112c-0.2527,-0.0698 -0.5084,-0.1374 -0.7666,-0.2025l-0.4405 1.7295z" />
      </g>
      <g
         id="g586">
        <polygon
           id="_24629824_14"
           class="fil2"
           points="102.502,121.176 102.907,121.153 103.309,121.126 103.708,121.096 104.104,121.062 104.498,121.024 104.889,120.982 105.277,120.937 105.663,120.888 106.046,120.834 106.427,120.777 106.806,120.716 107.183,120.651 107.557,120.582 107.93,120.509 108.3,120.432 108.669,120.351 109.036,120.266 109.401,120.176 109.764,120.083 110.126,119.985 110.487,119.883 110.845,119.776 111.203,119.666 111.559,119.551 111.914,119.432 112.673,119.166 113.447,115.608 113.575,114.969 114.567,110.8 112.694,110.201 115.645,94.7357 114.848,94.456 114.677,94.3972 114.506,94.339 114.334,94.2814 114.161,94.2246 113.987,94.1684 113.812,94.1129 113.636,94.058 113.459,94.0041 113.281,93.9506 113.103,93.8979 112.924,93.8457 112.743,93.7945 112.562,93.7438 112.381,93.6939 112.198,93.6446 112.014,93.5961 111.83,93.5482 111.645,93.5012 111.459,93.4548 111.272,93.4091 111.085,93.3642 110.896,93.32 110.707,93.2764 110.517,93.2338 110.327,93.1918 110.135,93.1505 109.943,93.1099 109.75,93.0702 109.556,93.0312 109.362,92.993 108.372,92.8021 107.755,97.0296 107.021,96.9318 107.304,92.6337 106.419,92.5193 106.254,92.4983 106.088,92.478 105.922,92.458 105.756,92.4388 105.589,92.4199 105.422,92.4017 105.255,92.3838 105.087,92.3667 104.918,92.35 104.75,92.334 104.581,92.3183 104.412,92.3033 104.242,92.2888 104.072,92.2748 103.901,92.2613 103.73,92.2486 103.559,92.2363 103.388,92.2246 103.216,92.2134 103.044,92.2029 102.871,92.1929 102.699,92.1834 102.525,92.1744 102.352,92.1662 102.178,92.1584 102.004,92.1513 101.83,92.1446 101.655,92.1386 101.48,92.133 101.305,92.1282 100.336,92.1039 100.336,96.3867 99.5269,96.3867 99.5269,92.1039 98.5583,92.1282 98.3829,92.133 98.2079,92.1386 98.0333,92.1446 97.8591,92.1513 97.6851,92.1584 97.5113,92.1662 97.3377,92.1744 97.1645,92.1834 96.9917,92.1929 96.8196,92.2029 96.6472,92.2134 96.4752,92.2246 96.3039,92.2363 96.133,92.2486 95.9619,92.2612 95.7913,92.2747 95.6212,92.2887 95.4516,92.3033 95.2821,92.3182 95.1131,92.3339 94.9446,92.3499 94.7765,92.3666 94.6083,92.3838 94.4407,92.4017 94.2737,92.4198 94.1071,92.4387 93.9408,92.458 93.7747,92.4779 93.6091,92.4982 93.4439,92.5192 92.5589,92.6339 92.8422,96.9318 92.1081,97.0296 91.4905,92.8019 90.5006,92.993 90.3066,93.0313 90.1132,93.0702 89.9201,93.1099 89.7278,93.1505 89.5365,93.1918 89.3462,93.2338 89.1561,93.2764 88.9669,93.32 88.7785,93.3642 88.5913,93.4091 88.4044,93.4547 88.2186,93.5011 88.0334,93.5481 87.849,93.596 87.6652,93.6445 87.4824,93.6938 87.3007,93.7437 87.1196,93.7945 86.9392,93.8458 86.7602,93.8979 86.5818,93.9506 86.4042,94.0041 86.2274,94.058 86.0514,94.1129 85.8763,94.1684 85.7025,94.2246 85.5291,94.2814 85.3569,94.339 85.1855,94.3971 85.0153,94.456 84.2174,94.7354 87.1693,110.201 85.2954,110.8 86.2884,114.971 86.4174,115.616 87.2761,119.178 88.0347,119.429 88.3891,119.542 88.7451,119.652 89.1026,119.758 89.4622,119.86 89.8233,119.959 90.1864,120.054 90.5511,120.146 90.918,120.234 91.2868,120.319 91.6576,120.4 92.0305,120.477 92.4056,120.551 92.7828,120.62 93.1623,120.687 93.5439,120.749 93.9281,120.808 94.3146,120.863 94.7035,120.915 95.0948,120.962 95.4888,121.006 95.8855,121.046 96.2847,121.083 96.6865,121.115 97.0912,121.144 97.4986,121.169 97.909,121.191 98.3222,121.208 98.7383,121.221 99.1575,121.231 99.5799,121.237 100.005,121.239 100.43,121.237 100.851,121.232 101.268,121.223 101.682,121.211 102.094,121.195 " />
        <path
           id="_24629824_15"
           class="fil0"
           d="M100.005 120.463c4.4791,0 8.3278,-0.5776 12.0025,-1.8858l0.6804 -3.1284 -1.6223 -0.5162 0.2212 -1.106 1.6223 0.5899 0.7373 -3.097 -1.8434 -0.5899 2.9553 -15.4835c-1.7624,-0.6241 -3.6876,-1.1403 -5.7363,-1.5293l-0.6109 4.1824 -2.2122 -0.295 0.2832 -4.2952c-1.727,-0.2281 -3.5241,-0.3683 -5.371,-0.4103l0 4.2631 -1.1798 0 -0.295 0 -0.8848 0 0 -4.2631c-1.8469,0.0421 -3.6441,0.182 -5.3711,0.4103l0.2832 4.2952 -2.2122 0.295 -0.6109 -4.1824c-2.0486,0.3891 -3.9739,0.9051 -5.7363,1.5293l2.9553 15.4835 -1.8434 0.5899 0.7373 3.097 1.6223 -0.5899 0.2212 1.106 -1.6222 0.5162 0.754 3.1284c3.6748,1.2345 7.5971,1.8858 12.0763,1.8858z" />
        <path
           id="_24629824_16"
           class="fil2"
           d="M89.5862 117.718l0.101 0.0299 0.3384 0.0965 0.34 0.0931 0.3417 0.0897 0.3435 0.0863 0.3456 0.0831 0.3474 0.0795 0.3493 0.0763 0.3513 0.0727 0.3536 0.0695 0.3556 0.0659 0.3579 0.0625 0.3603 0.059 0.3628 0.0556 0.3652 0.0521 0.3675 0.0487 0.3701 0.0449 0.3731 0.0418 0.3755 0.0379 0.3783 0.0346 0.3812 0.0308 0.3843 0.0275 0.3869 0.0237 0.3902 0.0201 0.393 0.0166 0.3965 0.0128 0.3997 0.0093 0.4027 0.0055 0.4067 0.0018 0.4071 -0.0017 0.4034 -0.0049 0.3996 -0.0083 0.396 -0.0117 0.3924 -0.015 0.3886 -0.0185 0.3852 -0.0218 0.3821 -0.0255 0.3789 -0.0287 0.3754 -0.0323 0.3723 -0.0357 0.3693 -0.0395 0.3669 -0.0429 0.3635 -0.0463 0.3609 -0.0501 0.3586 -0.0538 0.3562 -0.0573 0.3533 -0.0609 0.3511 -0.0647 0.3489 -0.0684 0.3468 -0.0721 0.3448 -0.076 0.3428 -0.0797 0.3411 -0.0837 0.3396 -0.0873 0.3373 -0.0913 0.3362 -0.0952 0.335 -0.0993 0.1 -0.031c-2.6518,-1.0497 -6.3397,-1.7026 -10.4074,-1.7026 -4.0363,0 -7.6981,0.6429 -10.3452,1.6785z" />
        <path
           id="_24629824_17"
           class="fil2"
           d="M90.3062 115.758l0.0147 0.0733 -1.2083 0.3844c-0.122,0.0524 -0.2416,0.1058 -0.3587,0.1599l0.1157 0.4796c6.2253,-2.8111 15.9416,-2.8132 22.1599,0.0171l0.1055 -0.485c-0.1241,-0.0578 -0.2512,-0.1144 -0.381,-0.1703l-1.2122 -0.3857 0.012 -0.0744c-5.8306,-1.9931 -13.4174,-1.9933 -19.2476,0.0011z" />
        <path
           id="_24629824_18"
           class="fil2"
           d="M89.8361 113.407l0.2526 1.2633c2.599,-0.925 6.0561,-1.4906 9.8427,-1.4906 3.7655,0 7.2048,0.5595 9.7987,1.4754l0.2046 -1.2786c-2.6163,-0.8581 -6.1381,-1.3854 -10.0033,-1.3854 -3.9109,0 -7.4699,0.5397 -10.0953,1.4159z" />
        <path
           id="_24629824_19"
           class="fil2"
           d="M89.5644 111.583l0.0088 0.0463 -0.8124 0.2599c-0.0811,0.0336 -0.1613,0.0676 -0.24,0.1018l-0.0074 -0.0226 -0.732 0.2342 0.1856 0.8384 1.2167 -0.4425c0.1363,-0.0517 0.2755,-0.1023 0.4177,-0.1519l0.0397 -0.0144 0.0002 0.0007c2.6427,-0.9151 6.2819,-1.482 10.2901,-1.482 4.8614,0 9.1799,0.8343 11.8359,2.1117l0.314 -0.86 -0.6672 -0.2135 -0.0122 0.0279c-0.0971,-0.0429 -0.1966,-0.0852 -0.2976,-0.127l-0.8148 -0.2607 0.0088 -0.0465c-2.6487,-0.9307 -6.3198,-1.5088 -10.3669,-1.5088 -4.0475,0 -7.7182,0.5782 -10.367,1.509z" />
        <path
           id="_24629824_20"
           class="fil2"
           d="M94.8254 94.4659l-0.0474 0.0052 0.282 4.277 -1.7778 0.237 0.15 1.4765c0.6312,-0.0992 1.2741,-0.1843 1.9274,-0.2547l0 1.0339c-1.4548,0.1578 -2.8582,0.3892 -4.1952,0.6863l0.3721 2.1707c1.2279,-0.2457 2.5057,-0.4391 3.8231,-0.575l0 1.0773c-0.4755,0.0494 -0.9457,0.1061 -1.4104,0.1703l0.195 1.9185c0.4011,-0.0531 0.8063,-0.1007 1.2154,-0.1429l0 1.0773c-1.0894,0.1132 -2.1517,0.2658 -3.1812,0.455l0.1726 1.6968c1.3435,-0.2855 2.8288,-0.4977 4.4096,-0.6202l0 -5.2089c0,-1.8657 1.3789,-3.392 3.2445,-3.392l0.1475 0c1.8656,0 3.0969,1.5263 3.0969,3.392l0 5.2457c1.8455,0.1645 3.691,0.452 5.269,0.8357l0.348 -1.7118c-1.3012,-0.2819 -2.6614,-0.504 -4.0685,-0.6602l0 -1.0773c0.6018,0.0664 1.1948,0.1447 1.7785,0.2347l0.2646 -1.9027c-0.6689,-0.1082 -1.3502,-0.201 -2.0431,-0.2779l0 -1.0773c1.73,0.1909 3.3892,0.4811 4.9547,0.8587l0.2999 -2.157c-1.6453,-0.4357 -3.4072,-0.7686 -5.2546,-0.9827l0 -1.0341c1.0022,0.1154 1.9792,0.2656 2.9262,0.4481l0.2116 -1.522 -3.1331 -0.4178 0.2819 -4.277 -0.0471 -0.0051 -0.1602 -0.0163 -0.1615 -0.016 -0.1618 -0.0154 -0.162 -0.015 -0.1621 -0.0144 -0.163 -0.0139 -0.1629 -0.0134 -0.1633 -0.0129 -0.1633 -0.0122 -0.1642 -0.0118 -0.1647 -0.0112 -0.1647 -0.0108 -0.1647 -0.01 -0.1659 -0.0097 -0.1659 -0.009 -0.158 -0.0083 0 4.2145 -4.9959 0 0 -4.2144 -0.1575 0.0082 -0.166 0.009 -0.1657 0.0097 -0.165 0.01 -0.1646 0.0108 -0.1647 0.0112 -0.1646 0.0118 -0.1634 0.0121 -0.1627 0.0129 -0.163 0.0134 -0.163 0.014 -0.1623 0.0143 -0.1618 0.015 -0.1618 0.0154 -0.1614 0.0161 -0.1605 0.0162z" />
        <path
           id="_24629824_21"
           class="fil2"
           d="M92.0564 99.1486l-1.721 0.2295 -0.597 -4.0868 -0.1181 0.0265 -0.1793 0.0413 -0.1791 0.0421 -0.1784 0.0428 -0.1775 0.0433 -0.1764 0.044 -0.1758 0.0446 -0.1749 0.0454 -0.1736 0.0458 -0.1729 0.0467 -0.1724 0.0473 -0.1713 0.048 -0.1702 0.0485 -0.1698 0.0495 -0.1689 0.0497 -0.1679 0.0506 -0.1668 0.0509 -0.1656 0.0517 -0.0645 0.0204 0.5202 2.7255c0.3996,-0.1359 0.8073,-0.2655 1.2234,-0.3889l0.1906 1.0289c-0.4143,0.1209 -0.8208,0.2482 -1.219,0.3816l0.3759 1.9695c1.4225,-0.4812 2.9573,-0.8814 4.579,-1.1872l-0.2287 -1.5112z" />
        <path
           id="_24629824_22"
           class="fil2"
           d="M89.9458 102.221c-0.7062,0.1839 -1.3913,0.3868 -2.0525,0.607l0.396 2.0745c0.6876,-0.2056 1.3977,-0.3937 2.1273,-0.5629l-0.4708 -2.1186z" />
        <path
           id="_24629824_23"
           class="fil2"
           d="M92.7287 104.958c-1.4849,0.2514 -2.9051,0.5785 -4.2433,0.972l0.3507 1.8374c1.3217,-0.3711 2.7203,-0.6783 4.1797,-0.9129l-0.2871 -1.8965z" />
        <path
           id="_24629824_24"
           class="fil2"
           d="M90.9658 108.321c-0.6601,0.1435 -1.3052,0.3025 -1.9332,0.4758l0.3459 1.8121c0.5684,-0.2071 1.1866,-0.3978 1.8475,-0.5693l-0.2602 -1.7186z" />
        <path
           id="_24629824_25"
           class="fil2"
           d="M108.856 100.925c1.1539,0.2606 2.2576,0.57 3.3008,0.9231l0.3758 -1.9688c-0.3056,-0.1025 -0.6162,-0.2013 -0.9314,-0.2964l0.2081 -1.0215c0.3108,0.0955 0.6169,0.1945 0.9182,0.297l0.5206 -2.7276 -0.0641 -0.0204 -0.1659 -0.0517 -0.1669 -0.051 -0.1677 -0.0505 -0.1685 -0.0497 -0.1698 -0.0494 -0.1704 -0.0484 -0.1715 -0.0481 -0.1723 -0.0473 -0.1731 -0.0467 -0.1736 -0.0459 -0.175 -0.0453 -0.1757 -0.0447 -0.1766 -0.0441 -0.177 -0.0433 -0.1784 -0.0427 -0.1791 -0.042 -0.1795 -0.0414 -0.1185 -0.0265 -0.5969 4.0868 -0.3697 -0.0493 -0.3019 1.5958z" />
        <path
           id="_24629824_26"
           class="fil2"
           d="M110.862 104.7c0.2396,0.066 0.4769,0.1343 0.7114,0.2044l0.3964 -2.0765c-0.2339,-0.0778 -0.4708,-0.1537 -0.7106,-0.2271l-0.3972 2.0992z" />
        <path
           id="_24629824_27"
           class="fil2"
           d="M107.702 107.003c1.1523,0.2114 2.2632,0.4685 3.3245,0.7666l0.3509 -1.838c-1.0584,-0.3114 -2.1679,-0.5812 -3.3204,-0.8049l-0.355 1.8763z" />
        <path
           id="_24629824_28"
           class="fil2"
           d="M109.623 110.325c0.3029,0.0908 0.5909,0.1857 0.8614,0.2842l0.3457 -1.8112c-0.2527,-0.0698 -0.5084,-0.1374 -0.7666,-0.2025l-0.4405 1.7295z" />
      </g>
      <g
         id="g602">
        <polygon
           id="_24629824_29"
           class="fil2"
           points="102.502,88.3907 102.907,88.3676 103.309,88.3409 103.708,88.3107 104.104,88.2765 104.498,88.2388 104.889,88.197 105.277,88.1516 105.663,88.1024 106.046,88.0492 106.427,87.992 106.806,87.9311 107.183,87.8661 107.557,87.7971 107.93,87.7241 108.3,87.647 108.669,87.5657 109.036,87.4804 109.401,87.391 109.764,87.2975 110.126,87.1996 110.487,87.0975 110.845,86.9911 111.203,86.8807 111.559,86.7656 111.914,86.6464 112.673,86.3811 113.447,82.8223 113.575,82.1841 114.567,78.0151 112.694,77.4155 115.645,61.9505 114.848,61.6708 114.677,61.612 114.506,61.5538 114.334,61.4962 114.161,61.4394 113.987,61.3832 113.812,61.3277 113.636,61.2728 113.459,61.2189 113.281,61.1654 113.103,61.1127 112.924,61.0605 112.743,61.0093 112.562,60.9586 112.381,60.9087 112.198,60.8594 112.014,60.8109 111.83,60.763 111.645,60.716 111.459,60.6696 111.272,60.6239 111.085,60.579 110.896,60.5348 110.707,60.4912 110.517,60.4486 110.327,60.4066 110.135,60.3653 109.943,60.3247 109.75,60.285 109.556,60.246 109.362,60.2078 108.372,60.0169 107.755,64.2444 107.021,64.1466 107.304,59.8485 106.419,59.7341 106.254,59.7131 106.088,59.6928 105.922,59.6728 105.756,59.6536 105.589,59.6347 105.422,59.6165 105.255,59.5986 105.087,59.5815 104.918,59.5648 104.75,59.5488 104.581,59.5331 104.412,59.5181 104.242,59.5036 104.072,59.4896 103.901,59.4761 103.73,59.4634 103.559,59.4511 103.388,59.4394 103.216,59.4282 103.044,59.4177 102.871,59.4077 102.699,59.3982 102.525,59.3892 102.352,59.381 102.178,59.3732 102.004,59.3661 101.83,59.3594 101.655,59.3534 101.48,59.3478 101.305,59.343 100.336,59.3187 100.336,63.6015 99.5269,63.6015 99.5269,59.3187 98.5583,59.343 98.3829,59.3478 98.2079,59.3534 98.0333,59.3594 97.8591,59.3661 97.6851,59.3732 97.5113,59.381 97.3377,59.3892 97.1645,59.3982 96.9917,59.4077 96.8196,59.4177 96.6472,59.4282 96.4752,59.4394 96.3039,59.4511 96.133,59.4634 95.9619,59.476 95.7913,59.4895 95.6212,59.5035 95.4516,59.5181 95.2821,59.533 95.1131,59.5487 94.9446,59.5647 94.7765,59.5814 94.6083,59.5986 94.4407,59.6165 94.2737,59.6346 94.1071,59.6535 93.9408,59.6728 93.7747,59.6927 93.6091,59.713 93.4439,59.734 92.5589,59.8487 92.8422,64.1466 92.1081,64.2444 91.4905,60.0167 90.5006,60.2078 90.3066,60.2461 90.1132,60.285 89.9201,60.3247 89.7278,60.3653 89.5365,60.4066 89.3462,60.4486 89.1561,60.4912 88.9669,60.5348 88.7785,60.579 88.5913,60.6239 88.4044,60.6695 88.2186,60.7159 88.0334,60.7629 87.849,60.8108 87.6652,60.8593 87.4824,60.9086 87.3007,60.9585 87.1196,61.0093 86.9392,61.0606 86.7602,61.1127 86.5818,61.1654 86.4042,61.2189 86.2274,61.2728 86.0514,61.3277 85.8763,61.3832 85.7025,61.4394 85.5291,61.4962 85.3569,61.5538 85.1855,61.6119 85.0153,61.6708 84.2174,61.9502 87.1693,77.4155 85.2954,78.0151 86.2884,82.1856 86.4174,82.8308 87.2761,86.3932 88.0347,86.6439 88.3891,86.757 88.7451,86.8665 89.1026,86.9724 89.4622,87.075 89.8233,87.1739 90.1864,87.2692 90.5511,87.3608 90.918,87.449 91.2868,87.5335 91.6576,87.6144 92.0305,87.6917 92.4056,87.7653 92.7828,87.8352 93.1623,87.9015 93.5439,87.964 93.9281,88.0229 94.3146,88.078 94.7035,88.1295 95.0948,88.1771 95.4888,88.2212 95.8855,88.2612 96.2847,88.2977 96.6865,88.3302 97.0912,88.3591 97.4986,88.3841 97.909,88.4053 98.3222,88.4226 98.7383,88.4361 99.1575,88.4458 99.5799,88.4516 100.005,88.4535 100.43,88.4518 100.851,88.4466 101.268,88.438 101.682,88.4257 102.094,88.41 " />
        <path
           id="_24629824_30"
           class="fil0"
           d="M100.005 87.6781c4.4791,0 8.3278,-0.5776 12.0025,-1.8858l0.6804 -3.1284 -1.6223 -0.5162 0.2212 -1.106 1.6223 0.5899 0.7373 -3.097 -1.8434 -0.5899 2.9553 -15.4835c-1.7624,-0.6241 -3.6876,-1.1403 -5.7363,-1.5293l-0.6109 4.1824 -2.2122 -0.295 0.2832 -4.2952c-1.727,-0.2281 -3.5241,-0.3683 -5.371,-0.4103l0 4.2631 -1.1798 0 -0.295 0 -0.8848 0 0 -4.2631c-1.8469,0.0421 -3.6441,0.182 -5.3711,0.4103l0.2832 4.2952 -2.2122 0.295 -0.6109 -4.1824c-2.0486,0.3891 -3.9739,0.9051 -5.7363,1.5293l2.9553 15.4835 -1.8434 0.5899 0.7373 3.097 1.6223 -0.5899 0.2212 1.106 -1.6222 0.5162 0.754 3.1284c3.6748,1.2345 7.5971,1.8858 12.0763,1.8858z" />
        <path
           id="_24629824_31"
           class="fil2"
           d="M89.5862 84.9323l0.101 0.0299 0.3384 0.0965 0.34 0.0931 0.3417 0.0897 0.3435 0.0863 0.3456 0.0831 0.3474 0.0795 0.3493 0.0763 0.3513 0.0727 0.3536 0.0695 0.3556 0.0659 0.3579 0.0625 0.3603 0.059 0.3628 0.0556 0.3652 0.0521 0.3675 0.0487 0.3701 0.0449 0.3731 0.0418 0.3755 0.0379 0.3783 0.0346 0.3812 0.0308 0.3843 0.0275 0.3869 0.0237 0.3902 0.0201 0.393 0.0166 0.3965 0.0128 0.3997 0.0093 0.4027 0.0055 0.4067 0.0018 0.4071 -0.0017 0.4034 -0.0049 0.3996 -0.0083 0.396 -0.0117 0.3924 -0.015 0.3886 -0.0185 0.3852 -0.0218 0.3821 -0.0255 0.3789 -0.0287 0.3754 -0.0323 0.3723 -0.0357 0.3693 -0.0395 0.3669 -0.0429 0.3635 -0.0463 0.3609 -0.0501 0.3586 -0.0538 0.3562 -0.0573 0.3533 -0.0609 0.3511 -0.0647 0.3489 -0.0684 0.3468 -0.0721 0.3448 -0.076 0.3428 -0.0797 0.3411 -0.0837 0.3396 -0.0873 0.3373 -0.0913 0.3362 -0.0952 0.335 -0.0993 0.1 -0.031c-2.6518,-1.0497 -6.3397,-1.7026 -10.4074,-1.7026 -4.0363,0 -7.6981,0.6429 -10.3452,1.6785z" />
        <path
           id="_24629824_32"
           class="fil2"
           d="M90.3062 82.9728l0.0147 0.0733 -1.2083 0.3844c-0.122,0.0524 -0.2416,0.1058 -0.3587,0.1599l0.1157 0.4796c6.2253,-2.8111 15.9416,-2.8132 22.1599,0.0171l0.1055 -0.485c-0.1241,-0.0578 -0.2512,-0.1144 -0.381,-0.1703l-1.2122 -0.3857 0.012 -0.0744c-5.8306,-1.9931 -13.4174,-1.9933 -19.2476,0.0011z" />
        <path
           id="_24629824_33"
           class="fil2"
           d="M89.8361 80.6221l0.2526 1.2633c2.599,-0.925 6.0561,-1.4906 9.8427,-1.4906 3.7655,0 7.2048,0.5595 9.7987,1.4754l0.2046 -1.2786c-2.6163,-0.8581 -6.1381,-1.3854 -10.0033,-1.3854 -3.9109,0 -7.4699,0.5397 -10.0953,1.4159z" />
        <path
           id="_24629824_34"
           class="fil2"
           d="M89.5644 78.798l0.0088 0.0463 -0.8124 0.2599c-0.0811,0.0336 -0.1613,0.0676 -0.24,0.1018l-0.0074 -0.0226 -0.732 0.2342 0.1856 0.8384 1.2167 -0.4425c0.1363,-0.0517 0.2755,-0.1023 0.4177,-0.1519l0.0397 -0.0144 0.0002 0.0007c2.6427,-0.9151 6.2819,-1.482 10.2901,-1.482 4.8614,0 9.1799,0.8343 11.8359,2.1117l0.314 -0.86 -0.6672 -0.2135 -0.0122 0.0279c-0.0971,-0.0429 -0.1966,-0.0852 -0.2976,-0.127l-0.8148 -0.2607 0.0088 -0.0465c-2.6487,-0.9307 -6.3198,-1.5088 -10.3669,-1.5088 -4.0475,0 -7.7182,0.5782 -10.367,1.509z" />
        <path
           id="_24629824_35"
           class="fil2"
           d="M94.8254 61.6807l-0.0474 0.0052 0.282 4.277 -1.7778 0.237 0.15 1.4765c0.6312,-0.0992 1.2741,-0.1843 1.9274,-0.2547l0 1.0339c-1.4548,0.1578 -2.8582,0.3892 -4.1952,0.6863l0.3721 2.1707c1.2279,-0.2457 2.5057,-0.4391 3.8231,-0.575l0 1.0773c-0.4755,0.0494 -0.9457,0.1061 -1.4104,0.1703l0.195 1.9185c0.4011,-0.0531 0.8063,-0.1007 1.2154,-0.1429l0 1.0773c-1.0894,0.1132 -2.1517,0.2658 -3.1812,0.455l0.1726 1.6968c1.3435,-0.2855 2.8288,-0.4977 4.4096,-0.6202l0 -5.2089c0,-1.8657 1.3789,-3.392 3.2445,-3.392l0.1475 0c1.8656,0 3.0969,1.5263 3.0969,3.392l0 5.2457c1.8455,0.1645 3.691,0.452 5.269,0.8357l0.348 -1.7118c-1.3012,-0.2819 -2.6614,-0.504 -4.0685,-0.6602l0 -1.0773c0.6018,0.0664 1.1948,0.1447 1.7785,0.2347l0.2646 -1.9027c-0.6689,-0.1082 -1.3502,-0.201 -2.0431,-0.2779l0 -1.0773c1.73,0.1909 3.3892,0.4811 4.9547,0.8587l0.2999 -2.157c-1.6453,-0.4357 -3.4072,-0.7686 -5.2546,-0.9827l0 -1.0341c1.0022,0.1154 1.9792,0.2656 2.9262,0.4481l0.2116 -1.522 -3.1331 -0.4178 0.2819 -4.277 -0.0471 -0.0051 -0.1602 -0.0163 -0.1615 -0.016 -0.1618 -0.0154 -0.162 -0.015 -0.1621 -0.0144 -0.163 -0.0139 -0.1629 -0.0134 -0.1633 -0.0129 -0.1633 -0.0122 -0.1642 -0.0118 -0.1647 -0.0112 -0.1647 -0.0108 -0.1647 -0.01 -0.1659 -0.0097 -0.1659 -0.009 -0.158 -0.0083 0 4.2145 -4.9959 0 0 -4.2144 -0.1575 0.0082 -0.166 0.009 -0.1657 0.0097 -0.165 0.01 -0.1646 0.0108 -0.1647 0.0112 -0.1646 0.0118 -0.1634 0.0121 -0.1627 0.0129 -0.163 0.0134 -0.163 0.014 -0.1623 0.0143 -0.1618 0.015 -0.1618 0.0154 -0.1614 0.0161 -0.1605 0.0162z" />
        <path
           id="_24629824_36"
           class="fil2"
           d="M92.0564 66.3634l-1.721 0.2295 -0.597 -4.0868 -0.1181 0.0265 -0.1793 0.0413 -0.1791 0.0421 -0.1784 0.0428 -0.1775 0.0433 -0.1764 0.044 -0.1758 0.0446 -0.1749 0.0454 -0.1736 0.0458 -0.1729 0.0467 -0.1724 0.0473 -0.1713 0.048 -0.1702 0.0485 -0.1698 0.0495 -0.1689 0.0497 -0.1679 0.0506 -0.1668 0.0509 -0.1656 0.0517 -0.0645 0.0204 0.5202 2.7255c0.3996,-0.1359 0.8073,-0.2655 1.2234,-0.3889l0.1906 1.0289c-0.4143,0.1209 -0.8208,0.2482 -1.219,0.3816l0.3759 1.9695c1.4225,-0.4812 2.9573,-0.8814 4.579,-1.1872l-0.2287 -1.5112z" />
        <path
           id="_24629824_37"
           class="fil2"
           d="M89.9458 69.4357c-0.7062,0.1839 -1.3913,0.3868 -2.0525,0.607l0.396 2.0745c0.6876,-0.2056 1.3977,-0.3937 2.1273,-0.5629l-0.4708 -2.1186z" />
        <path
           id="_24629824_38"
           class="fil2"
           d="M92.7287 72.1726c-1.4849,0.2514 -2.9051,0.5785 -4.2433,0.972l0.3507 1.8374c1.3217,-0.3711 2.7203,-0.6783 4.1797,-0.9129l-0.2871 -1.8965z" />
        <path
           id="_24629824_39"
           class="fil2"
           d="M90.9658 75.5361c-0.6601,0.1435 -1.3052,0.3025 -1.9332,0.4758l0.3459 1.8121c0.5684,-0.2071 1.1866,-0.3978 1.8475,-0.5693l-0.2602 -1.7186z" />
        <path
           id="_24629824_40"
           class="fil2"
           d="M108.856 68.1394c1.1539,0.2606 2.2576,0.57 3.3008,0.9231l0.3758 -1.9688c-0.3056,-0.1025 -0.6162,-0.2013 -0.9314,-0.2964l0.2081 -1.0215c0.3108,0.0955 0.6169,0.1945 0.9182,0.297l0.5206 -2.7276 -0.0641 -0.0204 -0.1659 -0.0517 -0.1669 -0.051 -0.1677 -0.0505 -0.1685 -0.0497 -0.1698 -0.0494 -0.1704 -0.0484 -0.1715 -0.0481 -0.1723 -0.0473 -0.1731 -0.0467 -0.1736 -0.0459 -0.175 -0.0453 -0.1757 -0.0447 -0.1766 -0.0441 -0.177 -0.0433 -0.1784 -0.0427 -0.1791 -0.042 -0.1795 -0.0414 -0.1185 -0.0265 -0.5969 4.0868 -0.3697 -0.0493 -0.3019 1.5958z" />
        <path
           id="_24629824_41"
           class="fil2"
           d="M110.862 71.9147c0.2396,0.066 0.4769,0.1343 0.7114,0.2044l0.3964 -2.0765c-0.2339,-0.0778 -0.4708,-0.1537 -0.7106,-0.2271l-0.3972 2.0992z" />
        <path
           id="_24629824_42"
           class="fil2"
           d="M107.702 74.2173c1.1523,0.2114 2.2632,0.4685 3.3245,0.7666l0.3509 -1.838c-1.0584,-0.3114 -2.1679,-0.5812 -3.3204,-0.8049l-0.355 1.8763z" />
        <path
           id="_24629824_43"
           class="fil2"
           d="M109.623 77.5401c0.3029,0.0908 0.5909,0.1857 0.8614,0.2842l0.3457 -1.8112c-0.2527,-0.0698 -0.5084,-0.1374 -0.7666,-0.2025l-0.4405 1.7295z" />
      </g>
    </g>
  </g>
</svg>
